<?xml version="1.0" encoding="UTF-8"?>
<svg xmlns="http://www.w3.org/2000/svg" xmlns:xlink="http://www.w3.org/1999/xlink" width="360pt" height="360pt" viewBox="0 0 360 360" version="1.1">
<defs>
<g>
<symbol overflow="visible" id="glyph0-0">
<path style="stroke:none;" d=""/>
</symbol>
<symbol overflow="visible" id="glyph0-1">
<path style="stroke:none;" d="M 2.5 -2.75 L 0.40625 -2.75 L 0.40625 -2.109375 L 2.5 -2.109375 Z M 2.5 -2.75 "/>
</symbol>
<symbol overflow="visible" id="glyph0-2">
<path style="stroke:none;" d="M 2.875 -1.546875 L 2.875 0 L 3.65625 0 L 3.65625 -1.546875 L 4.578125 -1.546875 L 4.578125 -2.234375 L 3.65625 -2.234375 L 3.65625 -6.359375 L 3.078125 -6.359375 L 0.25 -2.359375 L 0.25 -1.546875 Z M 2.875 -2.234375 L 0.921875 -2.234375 L 2.875 -5.046875 Z M 2.875 -2.234375 "/>
</symbol>
<symbol overflow="visible" id="glyph0-3">
<path style="stroke:none;" d="M 4.453125 -0.765625 L 1.171875 -0.765625 C 1.25 -1.296875 1.53125 -1.625 2.296875 -2.09375 L 3.171875 -2.59375 C 4.046875 -3.0625 4.5 -3.71875 4.5 -4.5 C 4.5 -5.03125 4.28125 -5.53125 3.921875 -5.875 C 3.546875 -6.203125 3.09375 -6.359375 2.5 -6.359375 C 1.703125 -6.359375 1.125 -6.078125 0.78125 -5.53125 C 0.546875 -5.203125 0.453125 -4.796875 0.4375 -4.15625 L 1.21875 -4.15625 C 1.234375 -4.59375 1.296875 -4.84375 1.40625 -5.0625 C 1.59375 -5.4375 2 -5.6875 2.46875 -5.6875 C 3.171875 -5.6875 3.703125 -5.171875 3.703125 -4.484375 C 3.703125 -3.96875 3.40625 -3.53125 2.859375 -3.21875 L 2.046875 -2.75 C 0.75 -2 0.375 -1.40625 0.296875 -0.015625 L 4.453125 -0.015625 Z M 4.453125 -0.765625 "/>
</symbol>
<symbol overflow="visible" id="glyph0-4">
<path style="stroke:none;" d="M 2.421875 -6.359375 C 1.84375 -6.359375 1.3125 -6.09375 0.984375 -5.671875 C 0.578125 -5.109375 0.375 -4.25 0.375 -3.078125 C 0.375 -0.9375 1.078125 0.203125 2.421875 0.203125 C 3.734375 0.203125 4.453125 -0.9375 4.453125 -3.03125 C 4.453125 -4.25 4.265625 -5.078125 3.859375 -5.671875 C 3.53125 -6.109375 3.015625 -6.359375 2.421875 -6.359375 Z M 2.421875 -5.671875 C 3.25 -5.671875 3.671875 -4.828125 3.671875 -3.09375 C 3.671875 -1.28125 3.265625 -0.4375 2.40625 -0.4375 C 1.578125 -0.4375 1.171875 -1.3125 1.171875 -3.0625 C 1.171875 -4.828125 1.578125 -5.671875 2.421875 -5.671875 Z M 2.421875 -5.671875 "/>
</symbol>
<symbol overflow="visible" id="glyph0-5">
<path style="stroke:none;" d="M 1.6875 -0.921875 L 0.765625 -0.921875 L 0.765625 0 L 1.6875 0 Z M 1.6875 -0.921875 "/>
</symbol>
<symbol overflow="visible" id="glyph0-6">
<path style="stroke:none;" d="M 4.1875 -6.234375 L 0.96875 -6.234375 L 0.5 -2.84375 L 1.21875 -2.84375 C 1.578125 -3.265625 1.875 -3.421875 2.359375 -3.421875 C 3.203125 -3.421875 3.71875 -2.84375 3.71875 -1.921875 C 3.71875 -1.03125 3.203125 -0.484375 2.359375 -0.484375 C 1.6875 -0.484375 1.265625 -0.828125 1.078125 -1.53125 L 0.3125 -1.53125 C 0.40625 -1.015625 0.5 -0.78125 0.6875 -0.546875 C 1.03125 -0.078125 1.671875 0.203125 2.375 0.203125 C 3.640625 0.203125 4.515625 -0.71875 4.515625 -2.03125 C 4.515625 -3.265625 3.6875 -4.109375 2.5 -4.109375 C 2.0625 -4.109375 1.703125 -4 1.34375 -3.734375 L 1.59375 -5.46875 L 4.1875 -5.46875 Z M 4.1875 -6.234375 "/>
</symbol>
<symbol overflow="visible" id="glyph0-7">
<path style="stroke:none;" d="M 4.578125 -6.234375 L 0.40625 -6.234375 L 0.40625 -5.46875 L 3.78125 -5.46875 C 2.28125 -3.359375 1.6875 -2.046875 1.21875 0 L 2.046875 0 C 2.390625 -2 3.171875 -3.71875 4.578125 -5.59375 Z M 4.578125 -6.234375 "/>
</symbol>
<symbol overflow="visible" id="glyph0-8">
<path style="stroke:none;" d="M 2.28125 -4.53125 L 2.28125 0 L 3.046875 0 L 3.046875 -6.359375 L 2.546875 -6.359375 C 2.265625 -5.390625 2.09375 -5.25 0.890625 -5.09375 L 0.890625 -4.53125 Z M 2.28125 -4.53125 "/>
</symbol>
<symbol overflow="visible" id="glyph0-9">
<path style="stroke:none;" d="M 0.6875 0 L 3.59375 0 C 4.203125 0 4.640625 -0.171875 4.984375 -0.53125 C 5.296875 -0.875 5.484375 -1.328125 5.484375 -1.828125 C 5.484375 -2.609375 5.125 -3.0625 4.3125 -3.390625 C 4.90625 -3.65625 5.203125 -4.125 5.203125 -4.78125 C 5.203125 -5.265625 5.015625 -5.671875 4.6875 -5.96875 C 4.34375 -6.265625 3.921875 -6.40625 3.296875 -6.40625 L 0.6875 -6.40625 Z M 1.515625 -3.65625 L 1.515625 -5.6875 L 3.09375 -5.6875 C 3.546875 -5.6875 3.8125 -5.625 4.03125 -5.46875 C 4.25 -5.28125 4.375 -5.015625 4.375 -4.671875 C 4.375 -4.3125 4.25 -4.0625 4.03125 -3.875 C 3.8125 -3.71875 3.546875 -3.65625 3.09375 -3.65625 Z M 1.515625 -0.71875 L 1.515625 -2.921875 L 3.515625 -2.921875 C 4.234375 -2.921875 4.65625 -2.515625 4.65625 -1.828125 C 4.65625 -1.140625 4.234375 -0.71875 3.515625 -0.71875 Z M 1.515625 -0.71875 "/>
</symbol>
<symbol overflow="visible" id="glyph0-10">
<path style="stroke:none;" d="M 4.703125 -0.4375 C 4.625 -0.40625 4.59375 -0.40625 4.546875 -0.40625 C 4.296875 -0.40625 4.15625 -0.546875 4.15625 -0.78125 L 4.15625 -3.484375 C 4.15625 -4.296875 3.546875 -4.734375 2.421875 -4.734375 C 1.734375 -4.734375 1.203125 -4.546875 0.890625 -4.203125 C 0.671875 -3.96875 0.59375 -3.703125 0.578125 -3.25 L 1.3125 -3.25 C 1.375 -3.8125 1.703125 -4.0625 2.390625 -4.0625 C 3.0625 -4.0625 3.421875 -3.8125 3.421875 -3.375 L 3.421875 -3.1875 C 3.40625 -2.875 3.25 -2.75 2.65625 -2.671875 C 1.625 -2.546875 1.453125 -2.5 1.171875 -2.390625 C 0.640625 -2.15625 0.375 -1.765625 0.375 -1.15625 C 0.375 -0.328125 0.953125 0.203125 1.875 0.203125 C 2.46875 0.203125 2.921875 0 3.453125 -0.46875 C 3.5 0 3.734375 0.203125 4.203125 0.203125 C 4.359375 0.203125 4.453125 0.1875 4.703125 0.125 Z M 3.421875 -1.453125 C 3.421875 -1.203125 3.359375 -1.0625 3.125 -0.859375 C 2.828125 -0.578125 2.46875 -0.4375 2.046875 -0.4375 C 1.46875 -0.4375 1.140625 -0.71875 1.140625 -1.171875 C 1.140625 -1.65625 1.453125 -1.90625 2.25 -2.015625 C 3.03125 -2.125 3.171875 -2.15625 3.421875 -2.28125 Z M 3.421875 -1.453125 "/>
</symbol>
<symbol overflow="visible" id="glyph0-11">
<path style="stroke:none;" d="M 3.859375 -3.328125 C 3.84375 -4.234375 3.25 -4.734375 2.1875 -4.734375 C 1.109375 -4.734375 0.40625 -4.1875 0.40625 -3.328125 C 0.40625 -2.609375 0.78125 -2.265625 1.875 -2 L 2.5625 -1.84375 C 3.0625 -1.71875 3.265625 -1.53125 3.265625 -1.203125 C 3.265625 -0.765625 2.84375 -0.46875 2.203125 -0.46875 C 1.796875 -0.46875 1.46875 -0.59375 1.28125 -0.78125 C 1.171875 -0.921875 1.125 -1.046875 1.078125 -1.375 L 0.296875 -1.375 C 0.328125 -0.3125 0.9375 0.203125 2.140625 0.203125 C 3.296875 0.203125 4.03125 -0.375 4.03125 -1.265625 C 4.03125 -1.9375 3.65625 -2.328125 2.734375 -2.546875 L 2.03125 -2.703125 C 1.4375 -2.84375 1.171875 -3.046875 1.171875 -3.375 C 1.171875 -3.796875 1.5625 -4.0625 2.15625 -4.0625 C 2.75 -4.0625 3.0625 -3.8125 3.078125 -3.328125 Z M 3.859375 -3.328125 "/>
</symbol>
<symbol overflow="visible" id="glyph0-12">
<path style="stroke:none;" d="M 1.3125 -4.609375 L 0.59375 -4.609375 L 0.59375 0 L 1.3125 0 Z M 1.3125 -6.40625 L 0.578125 -6.40625 L 0.578125 -5.484375 L 1.3125 -5.484375 Z M 1.3125 -6.40625 "/>
</symbol>
<symbol overflow="visible" id="glyph0-13">
<path style="stroke:none;" d="M 1.875 -0.921875 L 0.96875 -0.921875 L 0.96875 0 L 1.875 0 Z M 1.875 -4.609375 L 0.96875 -4.609375 L 0.96875 -3.6875 L 1.875 -3.6875 Z M 1.875 -4.609375 "/>
</symbol>
<symbol overflow="visible" id="glyph0-14">
<path style="stroke:none;" d=""/>
</symbol>
<symbol overflow="visible" id="glyph0-15">
<path style="stroke:none;" d="M 3.109375 -5.6875 L 5.21875 -5.6875 L 5.21875 -6.40625 L 0.1875 -6.40625 L 0.1875 -5.6875 L 2.296875 -5.6875 L 2.296875 0 L 3.109375 0 Z M 3.109375 -5.6875 "/>
</symbol>
<symbol overflow="visible" id="glyph0-16">
<path style="stroke:none;" d="M 1.625 -2.71875 L 3.640625 -2.71875 C 4.140625 -2.71875 4.53125 -2.875 4.875 -3.171875 C 5.265625 -3.53125 5.421875 -3.9375 5.421875 -4.53125 C 5.421875 -5.734375 4.71875 -6.40625 3.453125 -6.40625 L 0.796875 -6.40625 L 0.796875 0 L 1.625 0 Z M 1.625 -3.4375 L 1.625 -5.6875 L 3.328125 -5.6875 C 4.109375 -5.6875 4.578125 -5.265625 4.578125 -4.5625 C 4.578125 -3.859375 4.109375 -3.4375 3.328125 -3.4375 Z M 1.625 -3.4375 "/>
</symbol>
<symbol overflow="visible" id="glyph0-17">
<path style="stroke:none;" d="M 1.640625 -2.765625 L 3.75 -2.765625 C 4.484375 -2.765625 4.796875 -2.40625 4.796875 -1.625 L 4.796875 -1.046875 C 4.796875 -0.65625 4.859375 -0.265625 4.984375 0 L 5.96875 0 L 5.96875 -0.203125 C 5.671875 -0.40625 5.609375 -0.640625 5.59375 -1.5 C 5.578125 -2.546875 5.40625 -2.875 4.71875 -3.171875 C 5.4375 -3.53125 5.734375 -3.953125 5.734375 -4.703125 C 5.734375 -5.8125 5.046875 -6.40625 3.78125 -6.40625 L 0.8125 -6.40625 L 0.8125 0 L 1.640625 0 Z M 1.640625 -3.484375 L 1.640625 -5.6875 L 3.609375 -5.6875 C 4.078125 -5.6875 4.34375 -5.625 4.546875 -5.4375 C 4.765625 -5.265625 4.875 -4.96875 4.875 -4.59375 C 4.875 -3.828125 4.484375 -3.484375 3.609375 -3.484375 Z M 1.640625 -3.484375 "/>
</symbol>
<symbol overflow="visible" id="glyph0-18">
<path style="stroke:none;" d="M 5.25 -4.53125 C 5.25 -4.96875 5.21875 -5.09375 5.078125 -5.390625 C 4.71875 -6.125 3.96875 -6.515625 2.890625 -6.515625 C 1.484375 -6.515625 0.609375 -5.796875 0.609375 -4.640625 C 0.609375 -3.859375 1.03125 -3.359375 1.875 -3.140625 L 3.46875 -2.71875 C 4.28125 -2.5 4.640625 -2.1875 4.640625 -1.6875 C 4.640625 -1.34375 4.453125 -0.984375 4.1875 -0.796875 C 3.9375 -0.609375 3.53125 -0.515625 3.015625 -0.515625 C 2.3125 -0.515625 1.84375 -0.6875 1.53125 -1.0625 C 1.296875 -1.34375 1.1875 -1.640625 1.203125 -2.046875 L 0.421875 -2.046875 C 0.4375 -1.453125 0.546875 -1.0625 0.796875 -0.71875 C 1.234375 -0.109375 1.984375 0.203125 2.953125 0.203125 C 3.71875 0.203125 4.34375 0.03125 4.765625 -0.296875 C 5.1875 -0.640625 5.46875 -1.203125 5.46875 -1.765625 C 5.46875 -2.546875 4.96875 -3.125 4.09375 -3.375 L 2.484375 -3.796875 C 1.71875 -4.015625 1.4375 -4.25 1.4375 -4.75 C 1.4375 -5.40625 2 -5.828125 2.875 -5.828125 C 3.890625 -5.828125 4.453125 -5.375 4.46875 -4.53125 Z M 5.25 -4.53125 "/>
</symbol>
<symbol overflow="visible" id="glyph0-19">
<path style="stroke:none;" d="M 1.9375 -2.921875 L 2.359375 -2.921875 C 3.203125 -2.921875 3.65625 -2.53125 3.65625 -1.765625 C 3.65625 -0.96875 3.171875 -0.484375 2.375 -0.484375 C 1.515625 -0.484375 1.109375 -0.921875 1.0625 -1.84375 L 0.28125 -1.84375 C 0.3125 -1.34375 0.40625 -1 0.546875 -0.71875 C 0.875 -0.109375 1.484375 0.203125 2.34375 0.203125 C 3.625 0.203125 4.453125 -0.578125 4.453125 -1.78125 C 4.453125 -2.59375 4.140625 -3.03125 3.390625 -3.296875 C 3.96875 -3.53125 4.265625 -3.96875 4.265625 -4.609375 C 4.265625 -5.703125 3.546875 -6.359375 2.359375 -6.359375 C 1.109375 -6.359375 0.4375 -5.65625 0.40625 -4.3125 L 1.1875 -4.3125 C 1.203125 -4.703125 1.234375 -4.921875 1.328125 -5.109375 C 1.5 -5.46875 1.890625 -5.6875 2.375 -5.6875 C 3.0625 -5.6875 3.46875 -5.265625 3.46875 -4.578125 C 3.46875 -4.140625 3.3125 -3.859375 2.96875 -3.71875 C 2.765625 -3.625 2.484375 -3.59375 1.9375 -3.578125 Z M 1.9375 -2.921875 "/>
</symbol>
<symbol overflow="visible" id="glyph0-20">
<path style="stroke:none;" d="M 4.375 -4.703125 C 4.234375 -5.75 3.5625 -6.359375 2.609375 -6.359375 C 1.921875 -6.359375 1.3125 -6.03125 0.9375 -5.453125 C 0.546875 -4.828125 0.375 -4.0625 0.375 -2.90625 C 0.375 -1.828125 0.53125 -1.15625 0.90625 -0.59375 C 1.234375 -0.078125 1.78125 0.203125 2.46875 0.203125 C 3.65625 0.203125 4.515625 -0.6875 4.515625 -1.921875 C 4.515625 -3.09375 3.71875 -3.921875 2.609375 -3.921875 C 1.984375 -3.921875 1.5 -3.6875 1.171875 -3.234375 C 1.171875 -4.796875 1.671875 -5.671875 2.5625 -5.671875 C 3.109375 -5.671875 3.484375 -5.328125 3.609375 -4.703125 Z M 2.5 -3.234375 C 3.25 -3.234375 3.71875 -2.703125 3.71875 -1.859375 C 3.71875 -1.0625 3.1875 -0.484375 2.484375 -0.484375 C 1.765625 -0.484375 1.21875 -1.09375 1.21875 -1.90625 C 1.21875 -2.6875 1.734375 -3.234375 2.5 -3.234375 Z M 2.5 -3.234375 "/>
</symbol>
<symbol overflow="visible" id="glyph1-0">
<path style="stroke:none;" d=""/>
</symbol>
<symbol overflow="visible" id="glyph1-1">
<path style="stroke:none;" d="M 3.21875 -2.984375 L 5.140625 -5.765625 L 4.109375 -5.765625 L 2.734375 -3.671875 L 1.34375 -5.765625 L 0.296875 -5.765625 L 2.21875 -2.9375 L 0.1875 0 L 1.234375 0 L 2.6875 -2.21875 L 4.140625 0 L 5.203125 0 Z M 3.21875 -2.984375 "/>
</symbol>
<symbol overflow="visible" id="glyph1-2">
<path style="stroke:none;" d="M 5.5625 -0.953125 L 1.46875 -0.953125 C 1.5625 -1.609375 1.90625 -2.03125 2.875 -2.625 L 3.96875 -3.234375 C 5.0625 -3.84375 5.625 -4.65625 5.625 -5.625 C 5.625 -6.296875 5.359375 -6.90625 4.890625 -7.34375 C 4.4375 -7.75 3.859375 -7.953125 3.125 -7.953125 C 2.140625 -7.953125 1.390625 -7.59375 0.96875 -6.921875 C 0.6875 -6.5 0.578125 -6 0.546875 -5.203125 L 1.515625 -5.203125 C 1.546875 -5.734375 1.609375 -6.0625 1.75 -6.328125 C 2 -6.8125 2.515625 -7.109375 3.09375 -7.109375 C 3.96875 -7.109375 4.625 -6.46875 4.625 -5.609375 C 4.625 -4.96875 4.265625 -4.421875 3.578125 -4.03125 L 2.5625 -3.4375 C 0.9375 -2.5 0.46875 -1.75 0.375 -0.015625 L 5.5625 -0.015625 Z M 5.5625 -0.953125 "/>
</symbol>
<symbol overflow="visible" id="glyph1-3">
<path style="stroke:none;" d="M 0.875 0 L 4.484375 0 C 5.25 0 5.8125 -0.203125 6.234375 -0.671875 C 6.640625 -1.09375 6.859375 -1.65625 6.859375 -2.28125 C 6.859375 -3.25 6.40625 -3.84375 5.390625 -4.234375 C 6.125 -4.578125 6.5 -5.15625 6.5 -5.984375 C 6.5 -6.578125 6.28125 -7.078125 5.859375 -7.453125 C 5.4375 -7.84375 4.890625 -8.015625 4.125 -8.015625 L 0.875 -8.015625 Z M 1.890625 -4.5625 L 1.890625 -7.109375 L 3.875 -7.109375 C 4.4375 -7.109375 4.765625 -7.046875 5.03125 -6.828125 C 5.328125 -6.609375 5.484375 -6.28125 5.484375 -5.84375 C 5.484375 -5.40625 5.328125 -5.078125 5.03125 -4.84375 C 4.765625 -4.640625 4.4375 -4.5625 3.875 -4.5625 Z M 1.890625 -0.90625 L 1.890625 -3.65625 L 4.390625 -3.65625 C 5.296875 -3.65625 5.828125 -3.140625 5.828125 -2.28125 C 5.828125 -1.421875 5.296875 -0.90625 4.390625 -0.90625 Z M 1.890625 -0.90625 "/>
</symbol>
<symbol overflow="visible" id="glyph1-4">
<path style="stroke:none;" d="M 4.265625 -5.765625 L 2.671875 -1.28125 L 1.203125 -5.765625 L 0.21875 -5.765625 L 2.171875 0.015625 L 1.8125 0.9375 C 1.65625 1.34375 1.46875 1.5 1.078125 1.5 C 0.921875 1.5 0.796875 1.46875 0.59375 1.4375 L 0.59375 2.25 C 0.78125 2.359375 0.96875 2.390625 1.203125 2.390625 C 1.5 2.390625 1.828125 2.296875 2.0625 2.125 C 2.359375 1.90625 2.515625 1.671875 2.6875 1.203125 L 5.265625 -5.765625 Z M 4.265625 -5.765625 "/>
</symbol>
<symbol overflow="visible" id="glyph1-5">
<path style="stroke:none;" d="M 2.359375 -1.140625 L 1.203125 -1.140625 L 1.203125 0 L 2.359375 0 Z M 2.359375 -5.765625 L 1.203125 -5.765625 L 1.203125 -4.625 L 2.359375 -4.625 Z M 2.359375 -5.765625 "/>
</symbol>
<symbol overflow="visible" id="glyph1-6">
<path style="stroke:none;" d=""/>
</symbol>
<symbol overflow="visible" id="glyph1-7">
<path style="stroke:none;" d="M 2.84375 -5.765625 L 1.875 -5.765625 L 1.875 -6.671875 C 1.875 -7.046875 2.09375 -7.25 2.515625 -7.25 C 2.59375 -7.25 2.625 -7.25 2.84375 -7.234375 L 2.84375 -8 C 2.625 -8.046875 2.515625 -8.046875 2.328125 -8.046875 C 1.46875 -8.046875 0.96875 -7.5625 0.96875 -6.75 L 0.96875 -5.765625 L 0.203125 -5.765625 L 0.203125 -5.015625 L 0.96875 -5.015625 L 0.96875 0 L 1.875 0 L 1.875 -5.015625 L 2.84375 -5.015625 Z M 2.84375 -5.765625 "/>
</symbol>
<symbol overflow="visible" id="glyph1-8">
<path style="stroke:none;" d="M 5.890625 -0.53125 C 5.78125 -0.515625 5.734375 -0.515625 5.6875 -0.515625 C 5.375 -0.515625 5.1875 -0.6875 5.1875 -0.96875 L 5.1875 -4.359375 C 5.1875 -5.375 4.4375 -5.921875 3.03125 -5.921875 C 2.171875 -5.921875 1.5 -5.6875 1.109375 -5.265625 C 0.84375 -4.96875 0.734375 -4.625 0.71875 -4.0625 L 1.640625 -4.0625 C 1.71875 -4.765625 2.140625 -5.078125 2.984375 -5.078125 C 3.828125 -5.078125 4.28125 -4.78125 4.28125 -4.21875 L 4.28125 -3.984375 C 4.265625 -3.59375 4.0625 -3.4375 3.328125 -3.34375 C 2.03125 -3.171875 1.828125 -3.140625 1.46875 -2.984375 C 0.796875 -2.703125 0.46875 -2.203125 0.46875 -1.453125 C 0.46875 -0.40625 1.1875 0.25 2.359375 0.25 C 3.078125 0.25 3.65625 0 4.3125 -0.59375 C 4.375 0 4.65625 0.25 5.265625 0.25 C 5.453125 0.25 5.578125 0.234375 5.890625 0.15625 Z M 4.28125 -1.8125 C 4.28125 -1.5 4.1875 -1.3125 3.921875 -1.0625 C 3.546875 -0.71875 3.09375 -0.546875 2.546875 -0.546875 C 1.84375 -0.546875 1.421875 -0.890625 1.421875 -1.46875 C 1.421875 -2.078125 1.8125 -2.390625 2.8125 -2.53125 C 3.78125 -2.65625 3.96875 -2.703125 4.28125 -2.84375 Z M 4.28125 -1.8125 "/>
</symbol>
<symbol overflow="visible" id="glyph1-9">
<path style="stroke:none;" d="M 5.1875 -3.828125 C 5.140625 -4.390625 5.015625 -4.75 4.796875 -5.078125 C 4.40625 -5.609375 3.703125 -5.921875 2.90625 -5.921875 C 1.34375 -5.921875 0.34375 -4.703125 0.34375 -2.78125 C 0.34375 -0.921875 1.328125 0.25 2.890625 0.25 C 4.265625 0.25 5.140625 -0.578125 5.25 -1.984375 L 4.328125 -1.984375 C 4.171875 -1.0625 3.703125 -0.59375 2.921875 -0.59375 C 1.90625 -0.59375 1.296875 -1.421875 1.296875 -2.78125 C 1.296875 -4.21875 1.890625 -5.078125 2.890625 -5.078125 C 3.65625 -5.078125 4.140625 -4.625 4.25 -3.828125 Z M 5.1875 -3.828125 "/>
</symbol>
<symbol overflow="visible" id="glyph1-10">
<path style="stroke:none;" d="M 2.359375 -5.765625 L 1.21875 -5.765625 L 1.21875 -4.625 L 2.359375 -4.625 Z M 1.203125 -1.140625 L 1.203125 0 L 1.875 0 L 1.875 0.203125 C 1.875 0.953125 1.734375 1.171875 1.203125 1.203125 L 1.203125 1.609375 C 1.9375 1.640625 2.359375 1.109375 2.359375 0.171875 L 2.359375 -1.140625 Z M 1.203125 -1.140625 "/>
</symbol>
<symbol overflow="visible" id="glyph1-11">
<path style="stroke:none;" d="M 2.84375 -5.671875 L 2.84375 0 L 3.8125 0 L 3.8125 -7.953125 L 3.171875 -7.953125 C 2.84375 -6.734375 2.625 -6.5625 1.125 -6.375 L 1.125 -5.671875 Z M 2.84375 -5.671875 "/>
</symbol>
<symbol overflow="visible" id="glyph1-12">
<path style="stroke:none;" d="M 2.4375 -3.65625 L 2.953125 -3.65625 C 4.015625 -3.65625 4.578125 -3.171875 4.578125 -2.21875 C 4.578125 -1.203125 3.96875 -0.609375 2.96875 -0.609375 C 1.90625 -0.609375 1.390625 -1.140625 1.3125 -2.3125 L 0.359375 -2.3125 C 0.390625 -1.671875 0.5 -1.25 0.6875 -0.90625 C 1.09375 -0.125 1.859375 0.25 2.921875 0.25 C 4.53125 0.25 5.5625 -0.71875 5.5625 -2.21875 C 5.5625 -3.234375 5.1875 -3.78125 4.25 -4.109375 C 4.96875 -4.40625 5.328125 -4.96875 5.328125 -5.765625 C 5.328125 -7.125 4.4375 -7.953125 2.953125 -7.953125 C 1.390625 -7.953125 0.546875 -7.078125 0.515625 -5.390625 L 1.484375 -5.390625 C 1.5 -5.875 1.546875 -6.15625 1.65625 -6.390625 C 1.875 -6.84375 2.359375 -7.109375 2.96875 -7.109375 C 3.828125 -7.109375 4.34375 -6.59375 4.34375 -5.734375 C 4.34375 -5.171875 4.140625 -4.828125 3.71875 -4.640625 C 3.453125 -4.53125 3.109375 -4.484375 2.4375 -4.484375 Z M 2.4375 -3.65625 "/>
</symbol>
<symbol overflow="visible" id="glyph2-0">
<path style="stroke:none;" d=""/>
</symbol>
<symbol overflow="visible" id="glyph2-1">
<path style="stroke:none;" d="M -3.40625 -2.03125 L -3.40625 -4.546875 C -3.40625 -5.171875 -3.59375 -5.671875 -3.96875 -6.09375 C -4.40625 -6.578125 -4.921875 -6.78125 -5.671875 -6.78125 C -7.171875 -6.78125 -8.015625 -5.890625 -8.015625 -4.3125 L -8.015625 -1 L 0 -1 L 0 -2.03125 Z M -4.296875 -2.03125 L -7.109375 -2.03125 L -7.109375 -4.15625 C -7.109375 -5.140625 -6.59375 -5.71875 -5.703125 -5.71875 C -4.828125 -5.71875 -4.296875 -5.140625 -4.296875 -4.15625 Z M -4.296875 -2.03125 "/>
</symbol>
<symbol overflow="visible" id="glyph2-2">
<path style="stroke:none;" d="M -0.53125 -5.890625 C -0.515625 -5.78125 -0.515625 -5.734375 -0.515625 -5.6875 C -0.515625 -5.375 -0.6875 -5.1875 -0.96875 -5.1875 L -4.359375 -5.1875 C -5.375 -5.1875 -5.921875 -4.4375 -5.921875 -3.03125 C -5.921875 -2.171875 -5.6875 -1.5 -5.265625 -1.109375 C -4.96875 -0.84375 -4.625 -0.734375 -4.0625 -0.71875 L -4.0625 -1.640625 C -4.765625 -1.71875 -5.078125 -2.140625 -5.078125 -2.984375 C -5.078125 -3.828125 -4.78125 -4.28125 -4.21875 -4.28125 L -3.984375 -4.28125 C -3.59375 -4.265625 -3.4375 -4.0625 -3.34375 -3.328125 C -3.171875 -2.03125 -3.140625 -1.828125 -2.984375 -1.46875 C -2.703125 -0.796875 -2.203125 -0.46875 -1.453125 -0.46875 C -0.40625 -0.46875 0.25 -1.1875 0.25 -2.359375 C 0.25 -3.078125 0 -3.65625 -0.59375 -4.3125 C 0 -4.375 0.25 -4.65625 0.25 -5.265625 C 0.25 -5.453125 0.234375 -5.578125 0.15625 -5.890625 Z M -1.8125 -4.28125 C -1.5 -4.28125 -1.3125 -4.1875 -1.0625 -3.921875 C -0.71875 -3.546875 -0.546875 -3.09375 -0.546875 -2.546875 C -0.546875 -1.84375 -0.890625 -1.421875 -1.46875 -1.421875 C -2.078125 -1.421875 -2.390625 -1.8125 -2.53125 -2.8125 C -2.65625 -3.78125 -2.703125 -3.96875 -2.84375 -4.28125 Z M -1.8125 -4.28125 "/>
</symbol>
<symbol overflow="visible" id="glyph2-3">
<path style="stroke:none;" d="M -5.765625 -0.765625 L 0 -0.765625 L 0 -1.6875 L -2.984375 -1.6875 C -4.375 -1.6875 -5 -2.265625 -4.96875 -3.53125 L -5.890625 -3.53125 C -5.921875 -3.375 -5.921875 -3.28125 -5.921875 -3.171875 C -5.921875 -2.578125 -5.578125 -2.140625 -4.71875 -1.609375 L -5.765625 -1.609375 Z M -5.765625 -0.765625 "/>
</symbol>
<symbol overflow="visible" id="glyph2-4">
<path style="stroke:none;" d="M -5.765625 -2.796875 L -5.765625 -1.84375 L -7.34375 -1.84375 L -7.34375 -0.9375 L -5.765625 -0.9375 L -5.765625 -0.15625 L -5.015625 -0.15625 L -5.015625 -0.9375 L -0.65625 -0.9375 C -0.0625 -0.9375 0.25 -1.328125 0.25 -2.046875 C 0.25 -2.28125 0.234375 -2.484375 0.171875 -2.796875 L -0.59375 -2.796875 C -0.5625 -2.65625 -0.546875 -2.546875 -0.546875 -2.359375 C -0.546875 -1.953125 -0.65625 -1.84375 -1.0625 -1.84375 L -5.015625 -1.84375 L -5.015625 -2.796875 Z M -5.765625 -2.796875 "/>
</symbol>
<symbol overflow="visible" id="glyph2-5">
<path style="stroke:none;" d="M -5.765625 -1.65625 L -5.765625 -0.734375 L 0 -0.734375 L 0 -1.65625 Z M -8.015625 -1.65625 L -8.015625 -0.71875 L -6.859375 -0.71875 L -6.859375 -1.65625 Z M -8.015625 -1.65625 "/>
</symbol>
<symbol overflow="visible" id="glyph2-6">
<path style="stroke:none;" d="M -8.015625 -1.671875 L -8.015625 -0.75 L 0 -0.75 L 0 -1.671875 Z M -8.015625 -1.671875 "/>
</symbol>
<symbol overflow="visible" id="glyph2-7">
<path style="stroke:none;" d=""/>
</symbol>
<symbol overflow="visible" id="glyph2-8">
<path style="stroke:none;" d="M -2.578125 -5.640625 C -3.453125 -5.640625 -3.984375 -5.578125 -4.40625 -5.40625 C -5.359375 -5.03125 -5.921875 -4.15625 -5.921875 -3.078125 C -5.921875 -1.46875 -4.703125 -0.4375 -2.8125 -0.4375 C -0.90625 -0.4375 0.25 -1.4375 0.25 -3.0625 C 0.25 -4.375 -0.5 -5.296875 -1.75 -5.515625 L -1.75 -4.59375 C -0.984375 -4.34375 -0.59375 -3.828125 -0.59375 -3.09375 C -0.59375 -2.515625 -0.859375 -2.015625 -1.34375 -1.703125 C -1.671875 -1.484375 -2 -1.40625 -2.578125 -1.390625 Z M -3.328125 -1.421875 C -4.390625 -1.5 -5.078125 -2.140625 -5.078125 -3.0625 C -5.078125 -4 -4.359375 -4.65625 -3.328125 -4.65625 Z M -3.328125 -1.421875 "/>
</symbol>
<symbol overflow="visible" id="glyph2-9">
<path style="stroke:none;" d="M -5.765625 -2.859375 L -5.765625 -1.90625 L -6.671875 -1.90625 C -7.046875 -1.90625 -7.25 -2.109375 -7.25 -2.546875 C -7.25 -2.625 -7.25 -2.65625 -7.234375 -2.859375 L -8 -2.859375 C -8.046875 -2.65625 -8.046875 -2.53125 -8.046875 -2.34375 C -8.046875 -1.5 -7.5625 -0.984375 -6.75 -0.984375 L -5.765625 -0.984375 L -5.765625 -0.21875 L -5.015625 -0.21875 L -5.015625 -0.984375 L 0 -0.984375 L 0 -1.90625 L -5.015625 -1.90625 L -5.015625 -2.859375 Z M -5.765625 -5.8125 L -5.765625 -4.859375 L -6.671875 -4.859375 C -7.046875 -4.859375 -7.25 -5.078125 -7.25 -5.5 C -7.25 -5.578125 -7.25 -5.609375 -7.234375 -5.8125 L -8 -5.8125 C -8.046875 -5.609375 -8.046875 -5.484375 -8.046875 -5.296875 C -8.046875 -4.453125 -7.5625 -3.953125 -6.75 -3.953125 L -5.765625 -3.953125 L -5.765625 -3.171875 L -5.015625 -3.171875 L -5.015625 -3.953125 L 0 -3.953125 L 0 -4.859375 L -5.015625 -4.859375 L -5.015625 -5.8125 Z M -5.765625 -5.8125 "/>
</symbol>
<symbol overflow="visible" id="glyph2-10">
<path style="stroke:none;" d="M -3.828125 -5.1875 C -4.390625 -5.140625 -4.75 -5.015625 -5.078125 -4.796875 C -5.609375 -4.40625 -5.921875 -3.703125 -5.921875 -2.90625 C -5.921875 -1.34375 -4.703125 -0.34375 -2.78125 -0.34375 C -0.921875 -0.34375 0.25 -1.328125 0.25 -2.890625 C 0.25 -4.265625 -0.578125 -5.140625 -1.984375 -5.25 L -1.984375 -4.328125 C -1.0625 -4.171875 -0.59375 -3.703125 -0.59375 -2.921875 C -0.59375 -1.90625 -1.421875 -1.296875 -2.78125 -1.296875 C -4.21875 -1.296875 -5.078125 -1.890625 -5.078125 -2.890625 C -5.078125 -3.65625 -4.625 -4.140625 -3.828125 -4.25 Z M -3.828125 -5.1875 "/>
</symbol>
<symbol overflow="visible" id="glyph3-0">
<path style="stroke:none;" d=""/>
</symbol>
<symbol overflow="visible" id="glyph3-1">
<path style="stroke:none;" d="M 5.78125 -4.984375 C 5.765625 -6.34375 4.875 -7.109375 3.28125 -7.109375 C 1.65625 -7.109375 0.625 -6.28125 0.625 -5 C 0.625 -3.921875 1.171875 -3.40625 2.8125 -3.015625 L 3.84375 -2.765625 C 4.609375 -2.578125 4.90625 -2.296875 4.90625 -1.8125 C 4.90625 -1.15625 4.265625 -0.71875 3.296875 -0.71875 C 2.703125 -0.71875 2.203125 -0.890625 1.921875 -1.171875 C 1.75 -1.375 1.671875 -1.578125 1.609375 -2.0625 L 0.453125 -2.0625 C 0.5 -0.46875 1.40625 0.296875 3.203125 0.296875 C 4.953125 0.296875 6.0625 -0.546875 6.0625 -1.890625 C 6.0625 -2.921875 5.484375 -3.484375 4.109375 -3.8125 L 3.046875 -4.0625 C 2.15625 -4.28125 1.765625 -4.5625 1.765625 -5.0625 C 1.765625 -5.703125 2.34375 -6.09375 3.234375 -6.09375 C 4.125 -6.09375 4.59375 -5.71875 4.625 -4.984375 Z M 5.78125 -4.984375 "/>
</symbol>
<symbol overflow="visible" id="glyph3-2">
<path style="stroke:none;" d="M 3.109375 -9.625 C 1.796875 -7.890625 0.96875 -5.5 0.96875 -3.421875 C 0.96875 -1.328125 1.796875 1.0625 3.109375 2.796875 L 3.84375 2.796875 C 2.6875 0.90625 2.03125 -1.3125 2.03125 -3.421875 C 2.03125 -5.515625 2.6875 -7.75 3.84375 -9.625 Z M 3.109375 -9.625 "/>
</symbol>
<symbol overflow="visible" id="glyph3-3">
<path style="stroke:none;" d="M 3.859375 -3.578125 L 6.171875 -6.921875 L 4.9375 -6.921875 L 3.28125 -4.40625 L 1.609375 -6.921875 L 0.359375 -6.921875 L 2.671875 -3.53125 L 0.21875 0 L 1.484375 0 L 3.234375 -2.65625 L 4.96875 0 L 6.25 0 Z M 3.859375 -3.578125 "/>
</symbol>
<symbol overflow="visible" id="glyph3-4">
<path style="stroke:none;" d="M 6.6875 -1.15625 L 1.75 -1.15625 C 1.875 -1.9375 2.296875 -2.4375 3.453125 -3.140625 L 4.765625 -3.875 C 6.078125 -4.609375 6.75 -5.578125 6.75 -6.765625 C 6.75 -7.546875 6.4375 -8.296875 5.875 -8.8125 C 5.328125 -9.3125 4.640625 -9.546875 3.75 -9.546875 C 2.5625 -9.546875 1.671875 -9.125 1.15625 -8.3125 C 0.828125 -7.796875 0.6875 -7.203125 0.65625 -6.25 L 1.828125 -6.25 C 1.859375 -6.890625 1.9375 -7.28125 2.09375 -7.59375 C 2.40625 -8.171875 3.015625 -8.53125 3.703125 -8.53125 C 4.765625 -8.53125 5.5625 -7.765625 5.5625 -6.734375 C 5.5625 -5.96875 5.125 -5.3125 4.296875 -4.828125 L 3.078125 -4.125 C 1.125 -3 0.546875 -2.09375 0.453125 -0.015625 L 6.6875 -0.015625 Z M 6.6875 -1.15625 "/>
</symbol>
<symbol overflow="visible" id="glyph3-5">
<path style="stroke:none;" d="M 1.234375 2.796875 C 2.546875 1.0625 3.375 -1.328125 3.375 -3.40625 C 3.375 -5.5 2.546875 -7.890625 1.234375 -9.625 L 0.5 -9.625 C 1.65625 -7.734375 2.3125 -5.515625 2.3125 -3.40625 C 2.3125 -1.3125 1.65625 0.921875 0.5 2.796875 Z M 1.234375 2.796875 "/>
</symbol>
</g>
<clipPath id="clip1">
  <path d="M 5.480469 5.480469 L 180 5.480469 L 180 180 L 5.480469 180 Z M 5.480469 5.480469 "/>
</clipPath>
<clipPath id="clip2">
  <path d="M 38.628906 46.917969 L 174.519531 46.917969 L 174.519531 131.371094 L 38.628906 131.371094 Z M 38.628906 46.917969 "/>
</clipPath>
<clipPath id="clip3">
  <path d="M 38.628906 128 L 174.519531 128 L 174.519531 129 L 38.628906 129 Z M 38.628906 128 "/>
</clipPath>
<clipPath id="clip4">
  <path d="M 38.628906 106 L 174.519531 106 L 174.519531 107 L 38.628906 107 Z M 38.628906 106 "/>
</clipPath>
<clipPath id="clip5">
  <path d="M 38.628906 84 L 174.519531 84 L 174.519531 86 L 38.628906 86 Z M 38.628906 84 "/>
</clipPath>
<clipPath id="clip6">
  <path d="M 38.628906 63 L 174.519531 63 L 174.519531 64 L 38.628906 64 Z M 38.628906 63 "/>
</clipPath>
<clipPath id="clip7">
  <path d="M 59 46.917969 L 61 46.917969 L 61 131.371094 L 59 131.371094 Z M 59 46.917969 "/>
</clipPath>
<clipPath id="clip8">
  <path d="M 90 46.917969 L 92 46.917969 L 92 131.371094 L 90 131.371094 Z M 90 46.917969 "/>
</clipPath>
<clipPath id="clip9">
  <path d="M 121 46.917969 L 123 46.917969 L 123 131.371094 L 121 131.371094 Z M 121 46.917969 "/>
</clipPath>
<clipPath id="clip10">
  <path d="M 152 46.917969 L 154 46.917969 L 154 131.371094 L 152 131.371094 Z M 152 46.917969 "/>
</clipPath>
<clipPath id="clip11">
  <path d="M 38.628906 116 L 174.519531 116 L 174.519531 119 L 38.628906 119 Z M 38.628906 116 "/>
</clipPath>
<clipPath id="clip12">
  <path d="M 38.628906 95 L 174.519531 95 L 174.519531 97 L 38.628906 97 Z M 38.628906 95 "/>
</clipPath>
<clipPath id="clip13">
  <path d="M 38.628906 73 L 174.519531 73 L 174.519531 75 L 38.628906 75 Z M 38.628906 73 "/>
</clipPath>
<clipPath id="clip14">
  <path d="M 38.628906 52 L 174.519531 52 L 174.519531 54 L 38.628906 54 Z M 38.628906 52 "/>
</clipPath>
<clipPath id="clip15">
  <path d="M 44 46.917969 L 46 46.917969 L 46 131.371094 L 44 131.371094 Z M 44 46.917969 "/>
</clipPath>
<clipPath id="clip16">
  <path d="M 75 46.917969 L 77 46.917969 L 77 131.371094 L 75 131.371094 Z M 75 46.917969 "/>
</clipPath>
<clipPath id="clip17">
  <path d="M 105 46.917969 L 108 46.917969 L 108 131.371094 L 105 131.371094 Z M 105 46.917969 "/>
</clipPath>
<clipPath id="clip18">
  <path d="M 136 46.917969 L 138 46.917969 L 138 131.371094 L 136 131.371094 Z M 136 46.917969 "/>
</clipPath>
<clipPath id="clip19">
  <path d="M 167 46.917969 L 169 46.917969 L 169 131.371094 L 167 131.371094 Z M 167 46.917969 "/>
</clipPath>
<clipPath id="clip20">
  <path d="M 180 5.480469 L 354.519531 5.480469 L 354.519531 180 L 180 180 Z M 180 5.480469 "/>
</clipPath>
<clipPath id="clip21">
  <path d="M 213.152344 46.917969 L 349.042969 46.917969 L 349.042969 131.371094 L 213.152344 131.371094 Z M 213.152344 46.917969 "/>
</clipPath>
<clipPath id="clip22">
  <path d="M 213.152344 126 L 349.042969 126 L 349.042969 127 L 213.152344 127 Z M 213.152344 126 "/>
</clipPath>
<clipPath id="clip23">
  <path d="M 213.152344 104 L 349.042969 104 L 349.042969 105 L 213.152344 105 Z M 213.152344 104 "/>
</clipPath>
<clipPath id="clip24">
  <path d="M 213.152344 81 L 349.042969 81 L 349.042969 83 L 213.152344 83 Z M 213.152344 81 "/>
</clipPath>
<clipPath id="clip25">
  <path d="M 213.152344 59 L 349.042969 59 L 349.042969 61 L 213.152344 61 Z M 213.152344 59 "/>
</clipPath>
<clipPath id="clip26">
  <path d="M 234 46.917969 L 235 46.917969 L 235 131.371094 L 234 131.371094 Z M 234 46.917969 "/>
</clipPath>
<clipPath id="clip27">
  <path d="M 265 46.917969 L 266 46.917969 L 266 131.371094 L 265 131.371094 Z M 265 46.917969 "/>
</clipPath>
<clipPath id="clip28">
  <path d="M 296 46.917969 L 297 46.917969 L 297 131.371094 L 296 131.371094 Z M 296 46.917969 "/>
</clipPath>
<clipPath id="clip29">
  <path d="M 327 46.917969 L 328 46.917969 L 328 131.371094 L 327 131.371094 Z M 327 46.917969 "/>
</clipPath>
<clipPath id="clip30">
  <path d="M 213.152344 114 L 349.042969 114 L 349.042969 116 L 213.152344 116 Z M 213.152344 114 "/>
</clipPath>
<clipPath id="clip31">
  <path d="M 213.152344 92 L 349.042969 92 L 349.042969 94 L 213.152344 94 Z M 213.152344 92 "/>
</clipPath>
<clipPath id="clip32">
  <path d="M 213.152344 70 L 349.042969 70 L 349.042969 72 L 213.152344 72 Z M 213.152344 70 "/>
</clipPath>
<clipPath id="clip33">
  <path d="M 213.152344 48 L 349.042969 48 L 349.042969 50 L 213.152344 50 Z M 213.152344 48 "/>
</clipPath>
<clipPath id="clip34">
  <path d="M 218 46.917969 L 220 46.917969 L 220 131.371094 L 218 131.371094 Z M 218 46.917969 "/>
</clipPath>
<clipPath id="clip35">
  <path d="M 249 46.917969 L 251 46.917969 L 251 131.371094 L 249 131.371094 Z M 249 46.917969 "/>
</clipPath>
<clipPath id="clip36">
  <path d="M 280 46.917969 L 282 46.917969 L 282 131.371094 L 280 131.371094 Z M 280 46.917969 "/>
</clipPath>
<clipPath id="clip37">
  <path d="M 311 46.917969 L 313 46.917969 L 313 131.371094 L 311 131.371094 Z M 311 46.917969 "/>
</clipPath>
<clipPath id="clip38">
  <path d="M 342 46.917969 L 344 46.917969 L 344 131.371094 L 342 131.371094 Z M 342 46.917969 "/>
</clipPath>
<clipPath id="clip39">
  <path d="M 5.480469 180 L 180 180 L 180 354.519531 L 5.480469 354.519531 Z M 5.480469 180 "/>
</clipPath>
<clipPath id="clip40">
  <path d="M 38.628906 221.4375 L 174.519531 221.4375 L 174.519531 305.890625 L 38.628906 305.890625 Z M 38.628906 221.4375 "/>
</clipPath>
<clipPath id="clip41">
  <path d="M 38.628906 299 L 174.519531 299 L 174.519531 301 L 38.628906 301 Z M 38.628906 299 "/>
</clipPath>
<clipPath id="clip42">
  <path d="M 38.628906 274 L 174.519531 274 L 174.519531 276 L 38.628906 276 Z M 38.628906 274 "/>
</clipPath>
<clipPath id="clip43">
  <path d="M 38.628906 249 L 174.519531 249 L 174.519531 251 L 38.628906 251 Z M 38.628906 249 "/>
</clipPath>
<clipPath id="clip44">
  <path d="M 38.628906 225 L 174.519531 225 L 174.519531 226 L 38.628906 226 Z M 38.628906 225 "/>
</clipPath>
<clipPath id="clip45">
  <path d="M 59 221.4375 L 61 221.4375 L 61 305.890625 L 59 305.890625 Z M 59 221.4375 "/>
</clipPath>
<clipPath id="clip46">
  <path d="M 90 221.4375 L 92 221.4375 L 92 305.890625 L 90 305.890625 Z M 90 221.4375 "/>
</clipPath>
<clipPath id="clip47">
  <path d="M 121 221.4375 L 123 221.4375 L 123 305.890625 L 121 305.890625 Z M 121 221.4375 "/>
</clipPath>
<clipPath id="clip48">
  <path d="M 152 221.4375 L 154 221.4375 L 154 305.890625 L 152 305.890625 Z M 152 221.4375 "/>
</clipPath>
<clipPath id="clip49">
  <path d="M 38.628906 286 L 174.519531 286 L 174.519531 289 L 38.628906 289 Z M 38.628906 286 "/>
</clipPath>
<clipPath id="clip50">
  <path d="M 38.628906 262 L 174.519531 262 L 174.519531 264 L 38.628906 264 Z M 38.628906 262 "/>
</clipPath>
<clipPath id="clip51">
  <path d="M 38.628906 237 L 174.519531 237 L 174.519531 239 L 38.628906 239 Z M 38.628906 237 "/>
</clipPath>
<clipPath id="clip52">
  <path d="M 44 221.4375 L 46 221.4375 L 46 305.890625 L 44 305.890625 Z M 44 221.4375 "/>
</clipPath>
<clipPath id="clip53">
  <path d="M 75 221.4375 L 77 221.4375 L 77 305.890625 L 75 305.890625 Z M 75 221.4375 "/>
</clipPath>
<clipPath id="clip54">
  <path d="M 105 221.4375 L 108 221.4375 L 108 305.890625 L 105 305.890625 Z M 105 221.4375 "/>
</clipPath>
<clipPath id="clip55">
  <path d="M 136 221.4375 L 138 221.4375 L 138 305.890625 L 136 305.890625 Z M 136 221.4375 "/>
</clipPath>
<clipPath id="clip56">
  <path d="M 167 221.4375 L 169 221.4375 L 169 305.890625 L 167 305.890625 Z M 167 221.4375 "/>
</clipPath>
</defs>
<g id="surface40">
<rect x="0" y="0" width="360" height="360" style="fill:rgb(100%,100%,100%);fill-opacity:1;stroke:none;"/>
<rect x="0" y="0" width="360" height="360" style="fill:rgb(100%,100%,100%);fill-opacity:1;stroke:none;"/>
<path style="fill:none;stroke-width:1.066978;stroke-linecap:round;stroke-linejoin:round;stroke:rgb(100%,100%,100%);stroke-opacity:1;stroke-miterlimit:10;" d="M 0 360 L 360 360 L 360 0 L 0 0 Z M 0 360 "/>
<g clip-path="url(#clip1)" clip-rule="nonzero">
<path style="fill-rule:nonzero;fill:rgb(100%,100%,100%);fill-opacity:1;stroke-width:1.066978;stroke-linecap:round;stroke-linejoin:round;stroke:rgb(100%,100%,100%);stroke-opacity:1;stroke-miterlimit:10;" d="M 5.480469 180 L 180 180 L 180 5.480469 L 5.480469 5.480469 Z M 5.480469 180 "/>
</g>
<g clip-path="url(#clip2)" clip-rule="nonzero">
<path style=" stroke:none;fill-rule:nonzero;fill:rgb(92.156863%,92.156863%,92.156863%);fill-opacity:1;" d="M 38.628906 131.371094 L 174.519531 131.371094 L 174.519531 46.917969 L 38.628906 46.917969 Z M 38.628906 131.371094 "/>
</g>
<g clip-path="url(#clip3)" clip-rule="nonzero">
<path style="fill:none;stroke-width:0.533489;stroke-linecap:butt;stroke-linejoin:round;stroke:rgb(100%,100%,100%);stroke-opacity:1;stroke-miterlimit:10;" d="M 38.628906 128.308594 L 174.519531 128.308594 "/>
</g>
<g clip-path="url(#clip4)" clip-rule="nonzero">
<path style="fill:none;stroke-width:0.533489;stroke-linecap:butt;stroke-linejoin:round;stroke:rgb(100%,100%,100%);stroke-opacity:1;stroke-miterlimit:10;" d="M 38.628906 106.667969 L 174.519531 106.667969 "/>
</g>
<g clip-path="url(#clip5)" clip-rule="nonzero">
<path style="fill:none;stroke-width:0.533489;stroke-linecap:butt;stroke-linejoin:round;stroke:rgb(100%,100%,100%);stroke-opacity:1;stroke-miterlimit:10;" d="M 38.628906 85.03125 L 174.519531 85.03125 "/>
</g>
<g clip-path="url(#clip6)" clip-rule="nonzero">
<path style="fill:none;stroke-width:0.533489;stroke-linecap:butt;stroke-linejoin:round;stroke:rgb(100%,100%,100%);stroke-opacity:1;stroke-miterlimit:10;" d="M 38.628906 63.394531 L 174.519531 63.394531 "/>
</g>
<g clip-path="url(#clip7)" clip-rule="nonzero">
<path style="fill:none;stroke-width:0.533489;stroke-linecap:butt;stroke-linejoin:round;stroke:rgb(100%,100%,100%);stroke-opacity:1;stroke-miterlimit:10;" d="M 60.109375 131.371094 L 60.109375 46.917969 "/>
</g>
<g clip-path="url(#clip8)" clip-rule="nonzero">
<path style="fill:none;stroke-width:0.533489;stroke-linecap:butt;stroke-linejoin:round;stroke:rgb(100%,100%,100%);stroke-opacity:1;stroke-miterlimit:10;" d="M 91.035156 131.371094 L 91.035156 46.917969 "/>
</g>
<g clip-path="url(#clip9)" clip-rule="nonzero">
<path style="fill:none;stroke-width:0.533489;stroke-linecap:butt;stroke-linejoin:round;stroke:rgb(100%,100%,100%);stroke-opacity:1;stroke-miterlimit:10;" d="M 121.960938 131.371094 L 121.960938 46.917969 "/>
</g>
<g clip-path="url(#clip10)" clip-rule="nonzero">
<path style="fill:none;stroke-width:0.533489;stroke-linecap:butt;stroke-linejoin:round;stroke:rgb(100%,100%,100%);stroke-opacity:1;stroke-miterlimit:10;" d="M 152.890625 131.371094 L 152.890625 46.917969 "/>
</g>
<g clip-path="url(#clip11)" clip-rule="nonzero">
<path style="fill:none;stroke-width:1.066978;stroke-linecap:butt;stroke-linejoin:round;stroke:rgb(100%,100%,100%);stroke-opacity:1;stroke-miterlimit:10;" d="M 38.628906 117.488281 L 174.519531 117.488281 "/>
</g>
<g clip-path="url(#clip12)" clip-rule="nonzero">
<path style="fill:none;stroke-width:1.066978;stroke-linecap:butt;stroke-linejoin:round;stroke:rgb(100%,100%,100%);stroke-opacity:1;stroke-miterlimit:10;" d="M 38.628906 95.851562 L 174.519531 95.851562 "/>
</g>
<g clip-path="url(#clip13)" clip-rule="nonzero">
<path style="fill:none;stroke-width:1.066978;stroke-linecap:butt;stroke-linejoin:round;stroke:rgb(100%,100%,100%);stroke-opacity:1;stroke-miterlimit:10;" d="M 38.628906 74.214844 L 174.519531 74.214844 "/>
</g>
<g clip-path="url(#clip14)" clip-rule="nonzero">
<path style="fill:none;stroke-width:1.066978;stroke-linecap:butt;stroke-linejoin:round;stroke:rgb(100%,100%,100%);stroke-opacity:1;stroke-miterlimit:10;" d="M 38.628906 52.574219 L 174.519531 52.574219 "/>
</g>
<g clip-path="url(#clip15)" clip-rule="nonzero">
<path style="fill:none;stroke-width:1.066978;stroke-linecap:butt;stroke-linejoin:round;stroke:rgb(100%,100%,100%);stroke-opacity:1;stroke-miterlimit:10;" d="M 44.644531 131.371094 L 44.644531 46.917969 "/>
</g>
<g clip-path="url(#clip16)" clip-rule="nonzero">
<path style="fill:none;stroke-width:1.066978;stroke-linecap:butt;stroke-linejoin:round;stroke:rgb(100%,100%,100%);stroke-opacity:1;stroke-miterlimit:10;" d="M 75.570312 131.371094 L 75.570312 46.917969 "/>
</g>
<g clip-path="url(#clip17)" clip-rule="nonzero">
<path style="fill:none;stroke-width:1.066978;stroke-linecap:butt;stroke-linejoin:round;stroke:rgb(100%,100%,100%);stroke-opacity:1;stroke-miterlimit:10;" d="M 106.5 131.371094 L 106.5 46.917969 "/>
</g>
<g clip-path="url(#clip18)" clip-rule="nonzero">
<path style="fill:none;stroke-width:1.066978;stroke-linecap:butt;stroke-linejoin:round;stroke:rgb(100%,100%,100%);stroke-opacity:1;stroke-miterlimit:10;" d="M 137.425781 131.371094 L 137.425781 46.917969 "/>
</g>
<g clip-path="url(#clip19)" clip-rule="nonzero">
<path style="fill:none;stroke-width:1.066978;stroke-linecap:butt;stroke-linejoin:round;stroke:rgb(100%,100%,100%);stroke-opacity:1;stroke-miterlimit:10;" d="M 168.351562 131.371094 L 168.351562 46.917969 "/>
</g>
<path style=" stroke:none;fill-rule:nonzero;fill:rgb(0%,0%,0%);fill-opacity:0.2;" d="M 44.808594 92.691406 L 46.054688 90.691406 L 47.300781 88.566406 L 48.550781 86.277344 L 49.796875 83.796875 L 51.046875 81.109375 L 52.292969 78.257812 L 53.542969 75.351562 L 54.789062 72.550781 L 56.039062 70.003906 L 57.285156 67.816406 L 58.535156 66.042969 L 59.78125 64.699219 L 61.027344 63.757812 L 62.277344 63.164062 L 63.523438 62.835938 L 64.773438 62.699219 L 66.019531 62.691406 L 67.269531 62.753906 L 68.515625 62.835938 L 69.765625 62.90625 L 71.011719 62.933594 L 72.257812 62.886719 L 73.507812 62.742188 L 74.753906 62.480469 L 76.003906 62.078125 L 77.25 61.539062 L 78.5 60.863281 L 79.746094 60.082031 L 80.996094 59.230469 L 82.242188 58.363281 L 83.488281 57.539062 L 84.738281 56.8125 L 85.984375 56.234375 L 87.234375 55.828125 L 88.480469 55.589844 L 89.730469 55.492188 L 90.976562 55.488281 L 92.226562 55.554688 L 93.472656 55.664062 L 94.722656 55.796875 L 95.96875 55.941406 L 97.214844 56.074219 L 98.464844 56.164062 L 99.710938 56.191406 L 100.960938 56.128906 L 102.207031 55.953125 L 103.457031 55.652344 L 104.703125 55.234375 L 105.953125 54.710938 L 107.199219 54.109375 L 108.445312 53.464844 L 109.695312 52.816406 L 110.941406 52.210938 L 112.191406 51.679688 L 113.4375 51.25 L 114.6875 50.945312 L 115.933594 50.777344 L 117.183594 50.757812 L 118.429688 50.890625 L 119.675781 51.179688 L 120.925781 51.617188 L 122.171875 52.207031 L 123.421875 52.945312 L 124.667969 53.828125 L 125.917969 54.839844 L 127.164062 55.957031 L 128.414062 57.152344 L 129.660156 58.40625 L 130.910156 59.691406 L 132.15625 60.964844 L 133.402344 62.199219 L 134.652344 63.359375 L 135.898438 64.425781 L 137.148438 65.390625 L 138.394531 66.257812 L 139.644531 67.042969 L 140.890625 67.753906 L 142.140625 68.410156 L 143.386719 69.015625 L 144.632812 69.566406 L 145.882812 70.058594 L 147.128906 70.480469 L 148.378906 70.820312 L 149.625 71.082031 L 150.875 71.285156 L 152.121094 71.464844 L 153.371094 71.664062 L 154.617188 71.917969 L 155.867188 72.242188 L 158.359375 73.007812 L 159.609375 73.277344 L 160.855469 73.296875 L 162.105469 72.929688 L 163.351562 72.117188 L 164.601562 70.882812 L 165.847656 69.3125 L 167.097656 67.5 L 168.34375 65.53125 L 168.34375 101.789062 L 167.097656 99.371094 L 165.847656 97.113281 L 164.601562 95.109375 L 163.351562 93.449219 L 162.105469 92.234375 L 160.855469 91.488281 L 159.609375 91.15625 L 158.359375 91.105469 L 157.113281 91.1875 L 155.867188 91.296875 L 154.617188 91.355469 L 153.371094 91.339844 L 152.121094 91.253906 L 150.875 91.113281 L 149.625 90.941406 L 148.378906 90.75 L 147.128906 90.535156 L 145.882812 90.277344 L 144.632812 89.945312 L 143.386719 89.507812 L 142.140625 88.941406 L 140.890625 88.230469 L 139.644531 87.378906 L 138.394531 86.402344 L 137.148438 85.316406 L 135.898438 84.152344 L 134.652344 82.9375 L 133.402344 81.703125 L 132.15625 80.46875 L 130.910156 79.257812 L 129.660156 78.089844 L 128.414062 76.984375 L 127.164062 75.980469 L 125.917969 75.097656 L 124.667969 74.371094 L 123.421875 73.824219 L 122.171875 73.46875 L 120.925781 73.320312 L 119.675781 73.371094 L 118.429688 73.617188 L 117.183594 74.023438 L 115.933594 74.5625 L 114.6875 75.195312 L 113.4375 75.875 L 112.191406 76.5625 L 110.941406 77.207031 L 109.695312 77.777344 L 108.445312 78.238281 L 107.199219 78.5625 L 105.953125 78.734375 L 104.703125 78.746094 L 103.457031 78.605469 L 102.207031 78.308594 L 100.960938 77.867188 L 99.710938 77.292969 L 98.464844 76.59375 L 97.214844 75.800781 L 94.722656 74.113281 L 93.472656 73.332031 L 92.226562 72.671875 L 90.976562 72.191406 L 89.730469 71.933594 L 88.480469 71.910156 L 87.234375 72.121094 L 85.984375 72.535156 L 84.738281 73.128906 L 83.488281 73.871094 L 82.242188 74.734375 L 80.996094 75.6875 L 79.746094 76.691406 L 78.5 77.707031 L 77.25 78.679688 L 76.003906 79.554688 L 74.753906 80.289062 L 73.507812 80.84375 L 72.257812 81.1875 L 71.011719 81.324219 L 69.765625 81.285156 L 68.515625 81.121094 L 67.269531 80.894531 L 66.019531 80.683594 L 64.773438 80.558594 L 63.523438 80.59375 L 62.277344 80.847656 L 61.027344 81.367188 L 59.78125 82.183594 L 58.535156 83.316406 L 57.285156 84.789062 L 56.039062 86.632812 L 54.789062 88.910156 L 53.542969 91.703125 L 52.292969 95.113281 L 51.046875 99.207031 L 49.796875 103.984375 L 48.550781 109.347656 L 47.300781 115.15625 L 46.054688 121.257812 L 44.808594 127.53125 Z M 44.808594 92.691406 "/>
<path style="fill:none;stroke-width:1.066978;stroke-linecap:butt;stroke-linejoin:round;stroke:rgb(0%,0%,0%);stroke-opacity:1;stroke-miterlimit:10;" d="M 44.808594 110.113281 L 46.054688 105.976562 L 47.300781 101.859375 L 48.550781 97.8125 L 49.796875 93.890625 L 51.046875 90.160156 L 52.292969 86.6875 L 53.542969 83.527344 L 54.789062 80.730469 L 56.039062 78.320312 L 57.285156 76.304688 L 58.535156 74.679688 L 59.78125 73.441406 L 61.027344 72.5625 L 62.277344 72.003906 L 63.523438 71.714844 L 64.773438 71.628906 L 66.019531 71.6875 L 67.269531 71.824219 L 68.515625 71.976562 L 69.765625 72.09375 L 71.011719 72.128906 L 72.257812 72.039062 L 73.507812 71.792969 L 74.753906 71.382812 L 76.003906 70.816406 L 77.25 70.109375 L 78.5 69.285156 L 79.746094 68.386719 L 80.996094 67.457031 L 82.242188 66.546875 L 83.488281 65.707031 L 84.738281 64.972656 L 85.984375 64.386719 L 87.234375 63.976562 L 88.480469 63.75 L 89.730469 63.714844 L 90.976562 63.839844 L 92.226562 64.113281 L 93.472656 64.496094 L 94.722656 64.957031 L 95.96875 65.449219 L 97.214844 65.9375 L 98.464844 66.378906 L 99.710938 66.742188 L 100.960938 67 L 102.207031 67.128906 L 103.457031 67.128906 L 104.703125 66.992188 L 105.953125 66.722656 L 107.199219 66.335938 L 108.445312 65.851562 L 109.695312 65.296875 L 110.941406 64.710938 L 112.191406 64.121094 L 113.4375 63.5625 L 114.6875 63.070312 L 115.933594 62.667969 L 117.183594 62.390625 L 118.429688 62.253906 L 119.675781 62.277344 L 120.925781 62.46875 L 122.171875 62.839844 L 123.421875 63.386719 L 124.667969 64.101562 L 125.917969 64.96875 L 127.164062 65.96875 L 128.414062 67.070312 L 129.660156 68.25 L 130.910156 69.472656 L 132.15625 70.71875 L 133.402344 71.949219 L 134.652344 73.148438 L 135.898438 74.289062 L 137.148438 75.351562 L 138.394531 76.328125 L 139.644531 77.210938 L 140.890625 77.992188 L 142.140625 78.675781 L 143.386719 79.261719 L 144.632812 79.757812 L 145.882812 80.167969 L 147.128906 80.507812 L 148.378906 80.785156 L 149.625 81.011719 L 150.875 81.199219 L 152.121094 81.359375 L 153.371094 81.503906 L 154.617188 81.636719 L 155.867188 81.769531 L 157.113281 81.90625 L 158.359375 82.054688 L 159.609375 82.21875 L 160.855469 82.390625 L 162.105469 82.582031 L 163.351562 82.785156 L 164.601562 82.996094 L 165.847656 83.214844 L 167.097656 83.4375 L 168.34375 83.660156 "/>
<g style="fill:rgb(30.196078%,30.196078%,30.196078%);fill-opacity:1;">
  <use xlink:href="#glyph0-1" x="25.699219" y="120.40332"/>
  <use xlink:href="#glyph0-2" x="28.699219" y="120.40332"/>
</g>
<g style="fill:rgb(30.196078%,30.196078%,30.196078%);fill-opacity:1;">
  <use xlink:href="#glyph0-1" x="25.699219" y="98.766602"/>
  <use xlink:href="#glyph0-3" x="28.699219" y="98.766602"/>
</g>
<g style="fill:rgb(30.196078%,30.196078%,30.196078%);fill-opacity:1;">
  <use xlink:href="#glyph0-4" x="28.699219" y="77.129883"/>
</g>
<g style="fill:rgb(30.196078%,30.196078%,30.196078%);fill-opacity:1;">
  <use xlink:href="#glyph0-3" x="28.699219" y="55.489258"/>
</g>
<path style="fill:none;stroke-width:1.066978;stroke-linecap:butt;stroke-linejoin:round;stroke:rgb(20%,20%,20%);stroke-opacity:1;stroke-miterlimit:10;" d="M 35.890625 117.488281 L 38.628906 117.488281 "/>
<path style="fill:none;stroke-width:1.066978;stroke-linecap:butt;stroke-linejoin:round;stroke:rgb(20%,20%,20%);stroke-opacity:1;stroke-miterlimit:10;" d="M 35.890625 95.851562 L 38.628906 95.851562 "/>
<path style="fill:none;stroke-width:1.066978;stroke-linecap:butt;stroke-linejoin:round;stroke:rgb(20%,20%,20%);stroke-opacity:1;stroke-miterlimit:10;" d="M 35.890625 74.214844 L 38.628906 74.214844 "/>
<path style="fill:none;stroke-width:1.066978;stroke-linecap:butt;stroke-linejoin:round;stroke:rgb(20%,20%,20%);stroke-opacity:1;stroke-miterlimit:10;" d="M 35.890625 52.574219 L 38.628906 52.574219 "/>
<path style="fill:none;stroke-width:1.066978;stroke-linecap:butt;stroke-linejoin:round;stroke:rgb(20%,20%,20%);stroke-opacity:1;stroke-miterlimit:10;" d="M 44.644531 134.109375 L 44.644531 131.371094 "/>
<path style="fill:none;stroke-width:1.066978;stroke-linecap:butt;stroke-linejoin:round;stroke:rgb(20%,20%,20%);stroke-opacity:1;stroke-miterlimit:10;" d="M 75.570312 134.109375 L 75.570312 131.371094 "/>
<path style="fill:none;stroke-width:1.066978;stroke-linecap:butt;stroke-linejoin:round;stroke:rgb(20%,20%,20%);stroke-opacity:1;stroke-miterlimit:10;" d="M 106.5 134.109375 L 106.5 131.371094 "/>
<path style="fill:none;stroke-width:1.066978;stroke-linecap:butt;stroke-linejoin:round;stroke:rgb(20%,20%,20%);stroke-opacity:1;stroke-miterlimit:10;" d="M 137.425781 134.109375 L 137.425781 131.371094 "/>
<path style="fill:none;stroke-width:1.066978;stroke-linecap:butt;stroke-linejoin:round;stroke:rgb(20%,20%,20%);stroke-opacity:1;stroke-miterlimit:10;" d="M 168.351562 134.109375 L 168.351562 131.371094 "/>
<g style="fill:rgb(30.196078%,30.196078%,30.196078%);fill-opacity:1;">
  <use xlink:href="#glyph0-4" x="36.144531" y="142.71582"/>
  <use xlink:href="#glyph0-5" x="41.144531" y="142.71582"/>
  <use xlink:href="#glyph0-4" x="43.144531" y="142.71582"/>
  <use xlink:href="#glyph0-4" x="48.144531" y="142.71582"/>
</g>
<g style="fill:rgb(30.196078%,30.196078%,30.196078%);fill-opacity:1;">
  <use xlink:href="#glyph0-4" x="67.070312" y="142.71582"/>
  <use xlink:href="#glyph0-5" x="72.070312" y="142.71582"/>
  <use xlink:href="#glyph0-3" x="74.070312" y="142.71582"/>
  <use xlink:href="#glyph0-6" x="79.070312" y="142.71582"/>
</g>
<g style="fill:rgb(30.196078%,30.196078%,30.196078%);fill-opacity:1;">
  <use xlink:href="#glyph0-4" x="98" y="142.71582"/>
  <use xlink:href="#glyph0-5" x="103" y="142.71582"/>
  <use xlink:href="#glyph0-6" x="105" y="142.71582"/>
  <use xlink:href="#glyph0-4" x="110" y="142.71582"/>
</g>
<g style="fill:rgb(30.196078%,30.196078%,30.196078%);fill-opacity:1;">
  <use xlink:href="#glyph0-4" x="128.925781" y="142.71582"/>
  <use xlink:href="#glyph0-5" x="133.925781" y="142.71582"/>
  <use xlink:href="#glyph0-7" x="135.925781" y="142.71582"/>
  <use xlink:href="#glyph0-6" x="140.925781" y="142.71582"/>
</g>
<g style="fill:rgb(30.196078%,30.196078%,30.196078%);fill-opacity:1;">
  <use xlink:href="#glyph0-8" x="159.851562" y="142.71582"/>
  <use xlink:href="#glyph0-5" x="164.851562" y="142.71582"/>
  <use xlink:href="#glyph0-4" x="166.851562" y="142.71582"/>
  <use xlink:href="#glyph0-4" x="171.851562" y="142.71582"/>
</g>
<g style="fill:rgb(0%,0%,0%);fill-opacity:1;">
  <use xlink:href="#glyph1-1" x="101.074219" y="156.061523"/>
  <use xlink:href="#glyph1-2" x="106.074219" y="156.061523"/>
</g>
<g style="fill:rgb(0%,0%,0%);fill-opacity:1;">
  <use xlink:href="#glyph2-1" x="18.975586" y="119.144531"/>
  <use xlink:href="#glyph2-2" x="18.975586" y="112.144531"/>
  <use xlink:href="#glyph2-3" x="18.975586" y="106.144531"/>
  <use xlink:href="#glyph2-4" x="18.975586" y="102.144531"/>
  <use xlink:href="#glyph2-5" x="18.975586" y="99.144531"/>
  <use xlink:href="#glyph2-2" x="18.975586" y="97.144531"/>
  <use xlink:href="#glyph2-6" x="18.975586" y="91.144531"/>
  <use xlink:href="#glyph2-7" x="18.975586" y="89.144531"/>
  <use xlink:href="#glyph2-8" x="18.975586" y="86.144531"/>
  <use xlink:href="#glyph2-9" x="18.975586" y="80.144531"/>
  <use xlink:href="#glyph2-8" x="18.975586" y="74.144531"/>
  <use xlink:href="#glyph2-10" x="18.975586" y="68.144531"/>
  <use xlink:href="#glyph2-4" x="18.975586" y="62.144531"/>
</g>
<g style="fill:rgb(0%,0%,0%);fill-opacity:1;">
  <use xlink:href="#glyph1-3" x="38.628906" y="37.456055"/>
  <use xlink:href="#glyph1-4" x="45.628906" y="37.456055"/>
  <use xlink:href="#glyph1-5" x="50.628906" y="37.456055"/>
  <use xlink:href="#glyph1-6" x="53.628906" y="37.456055"/>
  <use xlink:href="#glyph1-7" x="56.628906" y="37.456055"/>
  <use xlink:href="#glyph1-8" x="59.628906" y="37.456055"/>
  <use xlink:href="#glyph1-9" x="65.628906" y="37.456055"/>
  <use xlink:href="#glyph1-10" x="71.628906" y="37.456055"/>
  <use xlink:href="#glyph1-6" x="74.628906" y="37.456055"/>
  <use xlink:href="#glyph1-11" x="77.628906" y="37.456055"/>
</g>
<g style="fill:rgb(0%,0%,0%);fill-opacity:1;">
  <use xlink:href="#glyph3-1" x="38.628906" y="20.579102"/>
  <use xlink:href="#glyph3-2" x="45.628906" y="20.579102"/>
  <use xlink:href="#glyph3-3" x="49.628906" y="20.579102"/>
  <use xlink:href="#glyph3-4" x="56.628906" y="20.579102"/>
  <use xlink:href="#glyph3-5" x="63.628906" y="20.579102"/>
</g>
<g style="fill:rgb(0%,0%,0%);fill-opacity:1;">
  <use xlink:href="#glyph0-9" x="126.519531" y="171.93457"/>
  <use xlink:href="#glyph0-10" x="132.519531" y="171.93457"/>
  <use xlink:href="#glyph0-11" x="137.519531" y="171.93457"/>
  <use xlink:href="#glyph0-12" x="141.519531" y="171.93457"/>
  <use xlink:href="#glyph0-11" x="143.519531" y="171.93457"/>
  <use xlink:href="#glyph0-13" x="147.519531" y="171.93457"/>
  <use xlink:href="#glyph0-14" x="149.519531" y="171.93457"/>
  <use xlink:href="#glyph0-15" x="151.519531" y="171.93457"/>
  <use xlink:href="#glyph0-16" x="156.519531" y="171.93457"/>
  <use xlink:href="#glyph0-17" x="162.519531" y="171.93457"/>
  <use xlink:href="#glyph0-18" x="168.519531" y="171.93457"/>
</g>
<g clip-path="url(#clip20)" clip-rule="nonzero">
<path style="fill-rule:nonzero;fill:rgb(100%,100%,100%);fill-opacity:1;stroke-width:1.066978;stroke-linecap:round;stroke-linejoin:round;stroke:rgb(100%,100%,100%);stroke-opacity:1;stroke-miterlimit:10;" d="M 180 180 L 354.519531 180 L 354.519531 5.480469 L 180 5.480469 Z M 180 180 "/>
</g>
<g clip-path="url(#clip21)" clip-rule="nonzero">
<path style=" stroke:none;fill-rule:nonzero;fill:rgb(92.156863%,92.156863%,92.156863%);fill-opacity:1;" d="M 213.152344 131.371094 L 349.042969 131.371094 L 349.042969 46.917969 L 213.152344 46.917969 Z M 213.152344 131.371094 "/>
</g>
<g clip-path="url(#clip22)" clip-rule="nonzero">
<path style="fill:none;stroke-width:0.533489;stroke-linecap:butt;stroke-linejoin:round;stroke:rgb(100%,100%,100%);stroke-opacity:1;stroke-miterlimit:10;" d="M 213.152344 126.511719 L 349.042969 126.511719 "/>
</g>
<g clip-path="url(#clip23)" clip-rule="nonzero">
<path style="fill:none;stroke-width:0.533489;stroke-linecap:butt;stroke-linejoin:round;stroke:rgb(100%,100%,100%);stroke-opacity:1;stroke-miterlimit:10;" d="M 213.152344 104.382812 L 349.042969 104.382812 "/>
</g>
<g clip-path="url(#clip24)" clip-rule="nonzero">
<path style="fill:none;stroke-width:0.533489;stroke-linecap:butt;stroke-linejoin:round;stroke:rgb(100%,100%,100%);stroke-opacity:1;stroke-miterlimit:10;" d="M 213.152344 82.253906 L 349.042969 82.253906 "/>
</g>
<g clip-path="url(#clip25)" clip-rule="nonzero">
<path style="fill:none;stroke-width:0.533489;stroke-linecap:butt;stroke-linejoin:round;stroke:rgb(100%,100%,100%);stroke-opacity:1;stroke-miterlimit:10;" d="M 213.152344 60.125 L 349.042969 60.125 "/>
</g>
<g clip-path="url(#clip26)" clip-rule="nonzero">
<path style="fill:none;stroke-width:0.533489;stroke-linecap:butt;stroke-linejoin:round;stroke:rgb(100%,100%,100%);stroke-opacity:1;stroke-miterlimit:10;" d="M 234.628906 131.371094 L 234.628906 46.917969 "/>
</g>
<g clip-path="url(#clip27)" clip-rule="nonzero">
<path style="fill:none;stroke-width:0.533489;stroke-linecap:butt;stroke-linejoin:round;stroke:rgb(100%,100%,100%);stroke-opacity:1;stroke-miterlimit:10;" d="M 265.554688 131.371094 L 265.554688 46.917969 "/>
</g>
<g clip-path="url(#clip28)" clip-rule="nonzero">
<path style="fill:none;stroke-width:0.533489;stroke-linecap:butt;stroke-linejoin:round;stroke:rgb(100%,100%,100%);stroke-opacity:1;stroke-miterlimit:10;" d="M 296.480469 131.371094 L 296.480469 46.917969 "/>
</g>
<g clip-path="url(#clip29)" clip-rule="nonzero">
<path style="fill:none;stroke-width:0.533489;stroke-linecap:butt;stroke-linejoin:round;stroke:rgb(100%,100%,100%);stroke-opacity:1;stroke-miterlimit:10;" d="M 327.410156 131.371094 L 327.410156 46.917969 "/>
</g>
<g clip-path="url(#clip30)" clip-rule="nonzero">
<path style="fill:none;stroke-width:1.066978;stroke-linecap:butt;stroke-linejoin:round;stroke:rgb(100%,100%,100%);stroke-opacity:1;stroke-miterlimit:10;" d="M 213.152344 115.445312 L 349.042969 115.445312 "/>
</g>
<g clip-path="url(#clip31)" clip-rule="nonzero">
<path style="fill:none;stroke-width:1.066978;stroke-linecap:butt;stroke-linejoin:round;stroke:rgb(100%,100%,100%);stroke-opacity:1;stroke-miterlimit:10;" d="M 213.152344 93.316406 L 349.042969 93.316406 "/>
</g>
<g clip-path="url(#clip32)" clip-rule="nonzero">
<path style="fill:none;stroke-width:1.066978;stroke-linecap:butt;stroke-linejoin:round;stroke:rgb(100%,100%,100%);stroke-opacity:1;stroke-miterlimit:10;" d="M 213.152344 71.191406 L 349.042969 71.191406 "/>
</g>
<g clip-path="url(#clip33)" clip-rule="nonzero">
<path style="fill:none;stroke-width:1.066978;stroke-linecap:butt;stroke-linejoin:round;stroke:rgb(100%,100%,100%);stroke-opacity:1;stroke-miterlimit:10;" d="M 213.152344 49.0625 L 349.042969 49.0625 "/>
</g>
<g clip-path="url(#clip34)" clip-rule="nonzero">
<path style="fill:none;stroke-width:1.066978;stroke-linecap:butt;stroke-linejoin:round;stroke:rgb(100%,100%,100%);stroke-opacity:1;stroke-miterlimit:10;" d="M 219.164062 131.371094 L 219.164062 46.917969 "/>
</g>
<g clip-path="url(#clip35)" clip-rule="nonzero">
<path style="fill:none;stroke-width:1.066978;stroke-linecap:butt;stroke-linejoin:round;stroke:rgb(100%,100%,100%);stroke-opacity:1;stroke-miterlimit:10;" d="M 250.09375 131.371094 L 250.09375 46.917969 "/>
</g>
<g clip-path="url(#clip36)" clip-rule="nonzero">
<path style="fill:none;stroke-width:1.066978;stroke-linecap:butt;stroke-linejoin:round;stroke:rgb(100%,100%,100%);stroke-opacity:1;stroke-miterlimit:10;" d="M 281.019531 131.371094 L 281.019531 46.917969 "/>
</g>
<g clip-path="url(#clip37)" clip-rule="nonzero">
<path style="fill:none;stroke-width:1.066978;stroke-linecap:butt;stroke-linejoin:round;stroke:rgb(100%,100%,100%);stroke-opacity:1;stroke-miterlimit:10;" d="M 311.945312 131.371094 L 311.945312 46.917969 "/>
</g>
<g clip-path="url(#clip38)" clip-rule="nonzero">
<path style="fill:none;stroke-width:1.066978;stroke-linecap:butt;stroke-linejoin:round;stroke:rgb(100%,100%,100%);stroke-opacity:1;stroke-miterlimit:10;" d="M 342.871094 131.371094 L 342.871094 46.917969 "/>
</g>
<path style=" stroke:none;fill-rule:nonzero;fill:rgb(0%,0%,0%);fill-opacity:0.2;" d="M 219.328125 101.527344 L 220.574219 102.003906 L 221.824219 102.367188 L 223.070312 102.570312 L 224.320312 102.566406 L 225.566406 102.328125 L 226.816406 101.859375 L 228.0625 101.21875 L 229.308594 100.488281 L 230.558594 99.761719 L 231.804688 99.105469 L 233.054688 98.566406 L 234.300781 98.167969 L 235.550781 97.917969 L 236.796875 97.796875 L 238.046875 97.78125 L 239.292969 97.84375 L 240.539062 97.972656 L 241.789062 98.140625 L 243.035156 98.339844 L 244.285156 98.566406 L 245.53125 98.8125 L 246.78125 99.066406 L 248.027344 99.324219 L 249.277344 99.558594 L 250.523438 99.746094 L 251.773438 99.863281 L 253.019531 99.890625 L 254.265625 99.8125 L 255.515625 99.628906 L 256.761719 99.339844 L 258.011719 98.960938 L 259.257812 98.5 L 260.507812 97.976562 L 261.753906 97.398438 L 263.003906 96.761719 L 264.25 96.070312 L 265.496094 95.316406 L 266.746094 94.507812 L 267.992188 93.652344 L 269.242188 92.777344 L 270.488281 91.898438 L 271.738281 91.042969 L 272.984375 90.226562 L 274.234375 89.453125 L 275.480469 88.722656 L 276.726562 88.035156 L 277.976562 87.375 L 279.222656 86.738281 L 280.472656 86.117188 L 281.71875 85.519531 L 282.96875 84.945312 L 284.214844 84.402344 L 285.464844 83.894531 L 286.710938 83.425781 L 287.960938 82.996094 L 289.207031 82.605469 L 290.453125 82.25 L 291.703125 81.925781 L 292.949219 81.628906 L 294.199219 81.367188 L 295.445312 81.132812 L 296.695312 80.929688 L 297.941406 80.765625 L 299.191406 80.636719 L 300.4375 80.546875 L 301.683594 80.484375 L 302.933594 80.441406 L 304.179688 80.410156 L 305.429688 80.367188 L 306.675781 80.296875 L 307.925781 80.175781 L 309.171875 79.988281 L 310.421875 79.71875 L 311.667969 79.375 L 312.914062 78.964844 L 314.164062 78.503906 L 315.410156 78 L 316.660156 77.460938 L 317.90625 76.890625 L 319.15625 76.28125 L 320.402344 75.617188 L 321.652344 74.878906 L 322.898438 74.058594 L 324.148438 73.152344 L 325.394531 72.164062 L 326.640625 71.121094 L 327.890625 70.046875 L 329.136719 68.96875 L 330.386719 67.90625 L 331.632812 66.859375 L 332.882812 65.800781 L 334.128906 64.675781 L 335.378906 63.40625 L 336.625 61.914062 L 337.871094 60.140625 L 339.121094 58.085938 L 340.367188 55.800781 L 341.617188 53.335938 L 342.863281 50.757812 L 342.863281 73.164062 L 341.617188 73.113281 L 340.367188 73.179688 L 339.121094 73.417969 L 337.871094 73.886719 L 336.625 74.625 L 335.378906 75.628906 L 334.128906 76.835938 L 332.882812 78.15625 L 331.632812 79.496094 L 330.386719 80.789062 L 329.136719 82 L 327.890625 83.113281 L 326.640625 84.128906 L 325.394531 85.066406 L 324.148438 85.9375 L 322.898438 86.761719 L 321.652344 87.535156 L 320.402344 88.25 L 319.15625 88.886719 L 317.90625 89.433594 L 316.660156 89.878906 L 315.410156 90.226562 L 314.164062 90.484375 L 312.914062 90.675781 L 311.667969 90.828125 L 310.421875 90.972656 L 309.171875 91.132812 L 307.925781 91.324219 L 306.675781 91.5625 L 305.429688 91.835938 L 304.179688 92.132812 L 302.933594 92.449219 L 301.683594 92.765625 L 300.4375 93.082031 L 299.191406 93.390625 L 297.941406 93.6875 L 296.695312 93.96875 L 295.445312 94.238281 L 294.199219 94.5 L 292.949219 94.757812 L 291.703125 95.011719 L 290.453125 95.265625 L 289.207031 95.515625 L 287.960938 95.761719 L 286.710938 96.011719 L 285.464844 96.265625 L 284.214844 96.535156 L 282.96875 96.824219 L 281.71875 97.148438 L 280.472656 97.527344 L 279.222656 97.96875 L 277.976562 98.484375 L 276.726562 99.074219 L 275.480469 99.730469 L 274.234375 100.445312 L 272.984375 101.210938 L 271.738281 102.007812 L 270.488281 102.839844 L 269.242188 103.703125 L 267.992188 104.597656 L 266.746094 105.515625 L 265.496094 106.449219 L 264.25 107.378906 L 263.003906 108.277344 L 261.753906 109.105469 L 260.507812 109.839844 L 259.257812 110.453125 L 258.011719 110.941406 L 256.761719 111.308594 L 255.515625 111.5625 L 254.265625 111.71875 L 253.019531 111.78125 L 251.773438 111.765625 L 250.523438 111.679688 L 249.277344 111.527344 L 248.027344 111.324219 L 246.78125 111.078125 L 245.53125 110.804688 L 244.285156 110.53125 L 243.035156 110.292969 L 241.789062 110.117188 L 240.539062 110.03125 L 239.292969 110.058594 L 238.046875 110.199219 L 236.796875 110.457031 L 235.550781 110.8125 L 234.300781 111.242188 L 233.054688 111.734375 L 231.804688 112.28125 L 230.558594 112.894531 L 229.308594 113.601562 L 228.0625 114.457031 L 226.816406 115.523438 L 225.566406 116.875 L 224.320312 118.53125 L 223.070312 120.484375 L 221.824219 122.675781 L 220.574219 125.042969 L 219.328125 127.53125 Z M 219.328125 101.527344 "/>
<path style="fill:none;stroke-width:1.066978;stroke-linecap:butt;stroke-linejoin:round;stroke:rgb(0%,0%,0%);stroke-opacity:1;stroke-miterlimit:10;" d="M 219.328125 114.53125 L 220.574219 113.523438 L 221.824219 112.519531 L 223.070312 111.527344 L 224.320312 110.546875 L 225.566406 109.601562 L 226.816406 108.691406 L 228.0625 107.835938 L 229.308594 107.042969 L 230.558594 106.328125 L 231.804688 105.691406 L 233.054688 105.148438 L 234.300781 104.707031 L 235.550781 104.363281 L 236.796875 104.125 L 238.046875 103.988281 L 239.292969 103.949219 L 240.539062 104 L 241.789062 104.128906 L 243.035156 104.316406 L 244.285156 104.550781 L 245.53125 104.808594 L 246.78125 105.074219 L 248.027344 105.324219 L 249.277344 105.542969 L 250.523438 105.710938 L 251.773438 105.816406 L 253.019531 105.835938 L 254.265625 105.765625 L 255.515625 105.597656 L 256.761719 105.324219 L 258.011719 104.953125 L 259.257812 104.476562 L 260.507812 103.910156 L 261.753906 103.253906 L 263.003906 102.519531 L 264.25 101.722656 L 265.496094 100.882812 L 266.746094 100.011719 L 267.992188 99.125 L 269.242188 98.242188 L 270.488281 97.371094 L 271.738281 96.527344 L 272.984375 95.71875 L 274.234375 94.949219 L 275.480469 94.226562 L 276.726562 93.554688 L 277.976562 92.929688 L 279.222656 92.355469 L 280.472656 91.824219 L 281.71875 91.335938 L 282.96875 90.882812 L 284.214844 90.46875 L 285.464844 90.082031 L 286.710938 89.71875 L 287.960938 89.378906 L 289.207031 89.058594 L 290.453125 88.757812 L 291.703125 88.46875 L 292.949219 88.195312 L 294.199219 87.933594 L 295.445312 87.683594 L 296.695312 87.449219 L 297.941406 87.226562 L 299.191406 87.015625 L 300.4375 86.816406 L 301.683594 86.625 L 302.933594 86.445312 L 304.179688 86.273438 L 305.429688 86.101562 L 306.675781 85.929688 L 307.925781 85.75 L 309.171875 85.558594 L 310.421875 85.347656 L 311.667969 85.101562 L 312.914062 84.820312 L 314.164062 84.496094 L 315.410156 84.113281 L 316.660156 83.671875 L 317.90625 83.164062 L 319.15625 82.585938 L 320.402344 81.933594 L 321.652344 81.207031 L 322.898438 80.410156 L 324.148438 79.546875 L 325.394531 78.613281 L 326.640625 77.625 L 327.890625 76.578125 L 329.136719 75.484375 L 330.386719 74.347656 L 331.632812 73.179688 L 332.882812 71.976562 L 334.128906 70.757812 L 335.378906 69.519531 L 336.625 68.269531 L 337.871094 67.011719 L 339.121094 65.75 L 340.367188 64.488281 L 341.617188 63.226562 L 342.863281 61.960938 "/>
<g style="fill:rgb(30.196078%,30.196078%,30.196078%);fill-opacity:1;">
  <use xlink:href="#glyph0-1" x="200.21875" y="118.360352"/>
  <use xlink:href="#glyph0-19" x="203.21875" y="118.360352"/>
</g>
<g style="fill:rgb(30.196078%,30.196078%,30.196078%);fill-opacity:1;">
  <use xlink:href="#glyph0-4" x="203.21875" y="96.231445"/>
</g>
<g style="fill:rgb(30.196078%,30.196078%,30.196078%);fill-opacity:1;">
  <use xlink:href="#glyph0-19" x="203.21875" y="74.106445"/>
</g>
<g style="fill:rgb(30.196078%,30.196078%,30.196078%);fill-opacity:1;">
  <use xlink:href="#glyph0-20" x="203.21875" y="51.977539"/>
</g>
<path style="fill:none;stroke-width:1.066978;stroke-linecap:butt;stroke-linejoin:round;stroke:rgb(20%,20%,20%);stroke-opacity:1;stroke-miterlimit:10;" d="M 210.410156 115.445312 L 213.152344 115.445312 "/>
<path style="fill:none;stroke-width:1.066978;stroke-linecap:butt;stroke-linejoin:round;stroke:rgb(20%,20%,20%);stroke-opacity:1;stroke-miterlimit:10;" d="M 210.410156 93.316406 L 213.152344 93.316406 "/>
<path style="fill:none;stroke-width:1.066978;stroke-linecap:butt;stroke-linejoin:round;stroke:rgb(20%,20%,20%);stroke-opacity:1;stroke-miterlimit:10;" d="M 210.410156 71.191406 L 213.152344 71.191406 "/>
<path style="fill:none;stroke-width:1.066978;stroke-linecap:butt;stroke-linejoin:round;stroke:rgb(20%,20%,20%);stroke-opacity:1;stroke-miterlimit:10;" d="M 210.410156 49.0625 L 213.152344 49.0625 "/>
<path style="fill:none;stroke-width:1.066978;stroke-linecap:butt;stroke-linejoin:round;stroke:rgb(20%,20%,20%);stroke-opacity:1;stroke-miterlimit:10;" d="M 219.164062 134.109375 L 219.164062 131.371094 "/>
<path style="fill:none;stroke-width:1.066978;stroke-linecap:butt;stroke-linejoin:round;stroke:rgb(20%,20%,20%);stroke-opacity:1;stroke-miterlimit:10;" d="M 250.09375 134.109375 L 250.09375 131.371094 "/>
<path style="fill:none;stroke-width:1.066978;stroke-linecap:butt;stroke-linejoin:round;stroke:rgb(20%,20%,20%);stroke-opacity:1;stroke-miterlimit:10;" d="M 281.019531 134.109375 L 281.019531 131.371094 "/>
<path style="fill:none;stroke-width:1.066978;stroke-linecap:butt;stroke-linejoin:round;stroke:rgb(20%,20%,20%);stroke-opacity:1;stroke-miterlimit:10;" d="M 311.945312 134.109375 L 311.945312 131.371094 "/>
<path style="fill:none;stroke-width:1.066978;stroke-linecap:butt;stroke-linejoin:round;stroke:rgb(20%,20%,20%);stroke-opacity:1;stroke-miterlimit:10;" d="M 342.871094 134.109375 L 342.871094 131.371094 "/>
<g style="fill:rgb(30.196078%,30.196078%,30.196078%);fill-opacity:1;">
  <use xlink:href="#glyph0-4" x="210.664062" y="142.71582"/>
  <use xlink:href="#glyph0-5" x="215.664062" y="142.71582"/>
  <use xlink:href="#glyph0-4" x="217.664062" y="142.71582"/>
  <use xlink:href="#glyph0-4" x="222.664062" y="142.71582"/>
</g>
<g style="fill:rgb(30.196078%,30.196078%,30.196078%);fill-opacity:1;">
  <use xlink:href="#glyph0-4" x="241.59375" y="142.71582"/>
  <use xlink:href="#glyph0-5" x="246.59375" y="142.71582"/>
  <use xlink:href="#glyph0-3" x="248.59375" y="142.71582"/>
  <use xlink:href="#glyph0-6" x="253.59375" y="142.71582"/>
</g>
<g style="fill:rgb(30.196078%,30.196078%,30.196078%);fill-opacity:1;">
  <use xlink:href="#glyph0-4" x="272.519531" y="142.71582"/>
  <use xlink:href="#glyph0-5" x="277.519531" y="142.71582"/>
  <use xlink:href="#glyph0-6" x="279.519531" y="142.71582"/>
  <use xlink:href="#glyph0-4" x="284.519531" y="142.71582"/>
</g>
<g style="fill:rgb(30.196078%,30.196078%,30.196078%);fill-opacity:1;">
  <use xlink:href="#glyph0-4" x="303.445312" y="142.71582"/>
  <use xlink:href="#glyph0-5" x="308.445312" y="142.71582"/>
  <use xlink:href="#glyph0-7" x="310.445312" y="142.71582"/>
  <use xlink:href="#glyph0-6" x="315.445312" y="142.71582"/>
</g>
<g style="fill:rgb(30.196078%,30.196078%,30.196078%);fill-opacity:1;">
  <use xlink:href="#glyph0-8" x="334.371094" y="142.71582"/>
  <use xlink:href="#glyph0-5" x="339.371094" y="142.71582"/>
  <use xlink:href="#glyph0-4" x="341.371094" y="142.71582"/>
  <use xlink:href="#glyph0-4" x="346.371094" y="142.71582"/>
</g>
<g style="fill:rgb(0%,0%,0%);fill-opacity:1;">
  <use xlink:href="#glyph1-1" x="275.597656" y="156.061523"/>
  <use xlink:href="#glyph1-2" x="280.597656" y="156.061523"/>
</g>
<g style="fill:rgb(0%,0%,0%);fill-opacity:1;">
  <use xlink:href="#glyph2-1" x="193.499023" y="119.144531"/>
  <use xlink:href="#glyph2-2" x="193.499023" y="112.144531"/>
  <use xlink:href="#glyph2-3" x="193.499023" y="106.144531"/>
  <use xlink:href="#glyph2-4" x="193.499023" y="102.144531"/>
  <use xlink:href="#glyph2-5" x="193.499023" y="99.144531"/>
  <use xlink:href="#glyph2-2" x="193.499023" y="97.144531"/>
  <use xlink:href="#glyph2-6" x="193.499023" y="91.144531"/>
  <use xlink:href="#glyph2-7" x="193.499023" y="89.144531"/>
  <use xlink:href="#glyph2-8" x="193.499023" y="86.144531"/>
  <use xlink:href="#glyph2-9" x="193.499023" y="80.144531"/>
  <use xlink:href="#glyph2-8" x="193.499023" y="74.144531"/>
  <use xlink:href="#glyph2-10" x="193.499023" y="68.144531"/>
  <use xlink:href="#glyph2-4" x="193.499023" y="62.144531"/>
</g>
<g style="fill:rgb(0%,0%,0%);fill-opacity:1;">
  <use xlink:href="#glyph1-3" x="213.152344" y="37.456055"/>
  <use xlink:href="#glyph1-4" x="220.152344" y="37.456055"/>
  <use xlink:href="#glyph1-5" x="225.152344" y="37.456055"/>
  <use xlink:href="#glyph1-6" x="228.152344" y="37.456055"/>
  <use xlink:href="#glyph1-7" x="231.152344" y="37.456055"/>
  <use xlink:href="#glyph1-8" x="234.152344" y="37.456055"/>
  <use xlink:href="#glyph1-9" x="240.152344" y="37.456055"/>
  <use xlink:href="#glyph1-10" x="246.152344" y="37.456055"/>
  <use xlink:href="#glyph1-6" x="249.152344" y="37.456055"/>
  <use xlink:href="#glyph1-2" x="252.152344" y="37.456055"/>
</g>
<g style="fill:rgb(0%,0%,0%);fill-opacity:1;">
  <use xlink:href="#glyph3-1" x="213.152344" y="20.579102"/>
  <use xlink:href="#glyph3-2" x="220.152344" y="20.579102"/>
  <use xlink:href="#glyph3-3" x="224.152344" y="20.579102"/>
  <use xlink:href="#glyph3-4" x="231.152344" y="20.579102"/>
  <use xlink:href="#glyph3-5" x="238.152344" y="20.579102"/>
</g>
<g style="fill:rgb(0%,0%,0%);fill-opacity:1;">
  <use xlink:href="#glyph0-9" x="301.042969" y="171.93457"/>
  <use xlink:href="#glyph0-10" x="307.042969" y="171.93457"/>
  <use xlink:href="#glyph0-11" x="312.042969" y="171.93457"/>
  <use xlink:href="#glyph0-12" x="316.042969" y="171.93457"/>
  <use xlink:href="#glyph0-11" x="318.042969" y="171.93457"/>
  <use xlink:href="#glyph0-13" x="322.042969" y="171.93457"/>
  <use xlink:href="#glyph0-14" x="324.042969" y="171.93457"/>
  <use xlink:href="#glyph0-15" x="326.042969" y="171.93457"/>
  <use xlink:href="#glyph0-16" x="331.042969" y="171.93457"/>
  <use xlink:href="#glyph0-17" x="337.042969" y="171.93457"/>
  <use xlink:href="#glyph0-18" x="343.042969" y="171.93457"/>
</g>
<g clip-path="url(#clip39)" clip-rule="nonzero">
<path style="fill-rule:nonzero;fill:rgb(100%,100%,100%);fill-opacity:1;stroke-width:1.066978;stroke-linecap:round;stroke-linejoin:round;stroke:rgb(100%,100%,100%);stroke-opacity:1;stroke-miterlimit:10;" d="M 5.480469 354.519531 L 180 354.519531 L 180 180 L 5.480469 180 Z M 5.480469 354.519531 "/>
</g>
<g clip-path="url(#clip40)" clip-rule="nonzero">
<path style=" stroke:none;fill-rule:nonzero;fill:rgb(92.156863%,92.156863%,92.156863%);fill-opacity:1;" d="M 38.628906 305.890625 L 174.519531 305.890625 L 174.519531 221.4375 L 38.628906 221.4375 Z M 38.628906 305.890625 "/>
</g>
<g clip-path="url(#clip41)" clip-rule="nonzero">
<path style="fill:none;stroke-width:0.533489;stroke-linecap:butt;stroke-linejoin:round;stroke:rgb(100%,100%,100%);stroke-opacity:1;stroke-miterlimit:10;" d="M 38.628906 299.933594 L 174.519531 299.933594 "/>
</g>
<g clip-path="url(#clip42)" clip-rule="nonzero">
<path style="fill:none;stroke-width:0.533489;stroke-linecap:butt;stroke-linejoin:round;stroke:rgb(100%,100%,100%);stroke-opacity:1;stroke-miterlimit:10;" d="M 38.628906 275.0625 L 174.519531 275.0625 "/>
</g>
<g clip-path="url(#clip43)" clip-rule="nonzero">
<path style="fill:none;stroke-width:0.533489;stroke-linecap:butt;stroke-linejoin:round;stroke:rgb(100%,100%,100%);stroke-opacity:1;stroke-miterlimit:10;" d="M 38.628906 250.195312 L 174.519531 250.195312 "/>
</g>
<g clip-path="url(#clip44)" clip-rule="nonzero">
<path style="fill:none;stroke-width:0.533489;stroke-linecap:butt;stroke-linejoin:round;stroke:rgb(100%,100%,100%);stroke-opacity:1;stroke-miterlimit:10;" d="M 38.628906 225.324219 L 174.519531 225.324219 "/>
</g>
<g clip-path="url(#clip45)" clip-rule="nonzero">
<path style="fill:none;stroke-width:0.533489;stroke-linecap:butt;stroke-linejoin:round;stroke:rgb(100%,100%,100%);stroke-opacity:1;stroke-miterlimit:10;" d="M 60.109375 305.890625 L 60.109375 221.4375 "/>
</g>
<g clip-path="url(#clip46)" clip-rule="nonzero">
<path style="fill:none;stroke-width:0.533489;stroke-linecap:butt;stroke-linejoin:round;stroke:rgb(100%,100%,100%);stroke-opacity:1;stroke-miterlimit:10;" d="M 91.035156 305.890625 L 91.035156 221.4375 "/>
</g>
<g clip-path="url(#clip47)" clip-rule="nonzero">
<path style="fill:none;stroke-width:0.533489;stroke-linecap:butt;stroke-linejoin:round;stroke:rgb(100%,100%,100%);stroke-opacity:1;stroke-miterlimit:10;" d="M 121.960938 305.890625 L 121.960938 221.4375 "/>
</g>
<g clip-path="url(#clip48)" clip-rule="nonzero">
<path style="fill:none;stroke-width:0.533489;stroke-linecap:butt;stroke-linejoin:round;stroke:rgb(100%,100%,100%);stroke-opacity:1;stroke-miterlimit:10;" d="M 152.890625 305.890625 L 152.890625 221.4375 "/>
</g>
<g clip-path="url(#clip49)" clip-rule="nonzero">
<path style="fill:none;stroke-width:1.066978;stroke-linecap:butt;stroke-linejoin:round;stroke:rgb(100%,100%,100%);stroke-opacity:1;stroke-miterlimit:10;" d="M 38.628906 287.5 L 174.519531 287.5 "/>
</g>
<g clip-path="url(#clip50)" clip-rule="nonzero">
<path style="fill:none;stroke-width:1.066978;stroke-linecap:butt;stroke-linejoin:round;stroke:rgb(100%,100%,100%);stroke-opacity:1;stroke-miterlimit:10;" d="M 38.628906 262.628906 L 174.519531 262.628906 "/>
</g>
<g clip-path="url(#clip51)" clip-rule="nonzero">
<path style="fill:none;stroke-width:1.066978;stroke-linecap:butt;stroke-linejoin:round;stroke:rgb(100%,100%,100%);stroke-opacity:1;stroke-miterlimit:10;" d="M 38.628906 237.761719 L 174.519531 237.761719 "/>
</g>
<g clip-path="url(#clip52)" clip-rule="nonzero">
<path style="fill:none;stroke-width:1.066978;stroke-linecap:butt;stroke-linejoin:round;stroke:rgb(100%,100%,100%);stroke-opacity:1;stroke-miterlimit:10;" d="M 44.644531 305.890625 L 44.644531 221.4375 "/>
</g>
<g clip-path="url(#clip53)" clip-rule="nonzero">
<path style="fill:none;stroke-width:1.066978;stroke-linecap:butt;stroke-linejoin:round;stroke:rgb(100%,100%,100%);stroke-opacity:1;stroke-miterlimit:10;" d="M 75.570312 305.890625 L 75.570312 221.4375 "/>
</g>
<g clip-path="url(#clip54)" clip-rule="nonzero">
<path style="fill:none;stroke-width:1.066978;stroke-linecap:butt;stroke-linejoin:round;stroke:rgb(100%,100%,100%);stroke-opacity:1;stroke-miterlimit:10;" d="M 106.5 305.890625 L 106.5 221.4375 "/>
</g>
<g clip-path="url(#clip55)" clip-rule="nonzero">
<path style="fill:none;stroke-width:1.066978;stroke-linecap:butt;stroke-linejoin:round;stroke:rgb(100%,100%,100%);stroke-opacity:1;stroke-miterlimit:10;" d="M 137.425781 305.890625 L 137.425781 221.4375 "/>
</g>
<g clip-path="url(#clip56)" clip-rule="nonzero">
<path style="fill:none;stroke-width:1.066978;stroke-linecap:butt;stroke-linejoin:round;stroke:rgb(100%,100%,100%);stroke-opacity:1;stroke-miterlimit:10;" d="M 168.351562 305.890625 L 168.351562 221.4375 "/>
</g>
<path style=" stroke:none;fill-rule:nonzero;fill:rgb(0%,0%,0%);fill-opacity:0.2;" d="M 44.808594 277.214844 L 46.054688 275.765625 L 47.300781 274.167969 L 48.550781 272.347656 L 49.796875 270.238281 L 51.046875 267.820312 L 52.292969 265.128906 L 53.542969 262.230469 L 54.789062 259.203125 L 56.039062 256.113281 L 57.285156 253.011719 L 58.535156 249.933594 L 59.78125 246.90625 L 61.027344 243.957031 L 62.277344 241.101562 L 63.523438 238.367188 L 64.773438 235.785156 L 66.019531 233.386719 L 67.269531 231.21875 L 68.515625 229.320312 L 69.765625 227.742188 L 71.011719 226.519531 L 72.257812 225.6875 L 73.507812 225.277344 L 74.753906 225.285156 L 76.003906 225.695312 L 77.25 226.476562 L 78.5 227.601562 L 79.746094 229.023438 L 80.996094 230.695312 L 82.242188 232.570312 L 83.488281 234.601562 L 84.738281 236.742188 L 85.984375 238.949219 L 87.234375 241.175781 L 88.480469 243.378906 L 89.730469 245.507812 L 90.976562 247.539062 L 92.226562 249.445312 L 93.472656 251.222656 L 94.722656 252.863281 L 95.96875 254.382812 L 97.214844 255.785156 L 98.464844 257.074219 L 99.710938 258.25 L 100.960938 259.304688 L 102.207031 260.230469 L 103.457031 261.015625 L 104.703125 261.652344 L 105.953125 262.148438 L 107.199219 262.5 L 108.445312 262.726562 L 109.695312 262.839844 L 110.941406 262.855469 L 112.191406 262.78125 L 113.4375 262.628906 L 114.6875 262.410156 L 115.933594 262.132812 L 117.183594 261.804688 L 118.429688 261.433594 L 119.675781 261.039062 L 120.925781 260.636719 L 122.171875 260.242188 L 123.421875 259.886719 L 124.667969 259.59375 L 125.917969 259.382812 L 127.164062 259.277344 L 128.414062 259.292969 L 129.660156 259.449219 L 130.910156 259.746094 L 132.15625 260.191406 L 133.402344 260.773438 L 134.652344 261.476562 L 135.898438 262.28125 L 137.148438 263.175781 L 138.394531 264.144531 L 139.644531 265.175781 L 140.890625 266.257812 L 142.140625 267.378906 L 144.632812 269.675781 L 145.882812 270.8125 L 147.128906 271.910156 L 148.378906 272.953125 L 149.625 273.941406 L 150.875 274.875 L 152.121094 275.765625 L 153.371094 276.628906 L 154.617188 277.46875 L 155.867188 278.28125 L 157.113281 279.042969 L 158.359375 279.703125 L 159.609375 280.183594 L 160.855469 280.417969 L 162.105469 280.367188 L 163.351562 280.039062 L 164.601562 279.476562 L 165.847656 278.738281 L 167.097656 277.878906 L 168.34375 276.941406 L 168.34375 302.050781 L 167.097656 300.050781 L 165.847656 298.125 L 164.601562 296.3125 L 163.351562 294.660156 L 162.105469 293.214844 L 160.855469 292.007812 L 159.609375 291.039062 L 158.359375 290.246094 L 157.113281 289.550781 L 155.867188 288.871094 L 154.617188 288.144531 L 153.371094 287.335938 L 152.121094 286.433594 L 150.875 285.453125 L 149.625 284.414062 L 148.378906 283.328125 L 147.128906 282.21875 L 145.882812 281.09375 L 144.632812 279.953125 L 143.386719 278.8125 L 142.140625 277.675781 L 140.890625 276.5625 L 139.644531 275.496094 L 138.394531 274.5 L 137.148438 273.601562 L 135.898438 272.828125 L 134.652344 272.191406 L 133.402344 271.699219 L 132.15625 271.351562 L 130.910156 271.136719 L 129.660156 271.042969 L 128.414062 271.058594 L 127.164062 271.167969 L 125.917969 271.355469 L 124.667969 271.605469 L 123.421875 271.902344 L 122.171875 272.230469 L 120.925781 272.582031 L 119.675781 272.933594 L 118.429688 273.277344 L 117.183594 273.589844 L 115.933594 273.851562 L 114.6875 274.050781 L 113.4375 274.164062 L 112.191406 274.179688 L 110.941406 274.085938 L 109.695312 273.878906 L 108.445312 273.558594 L 107.199219 273.132812 L 105.953125 272.609375 L 104.703125 271.992188 L 103.457031 271.289062 L 102.207031 270.5 L 100.960938 269.605469 L 99.710938 268.597656 L 98.464844 267.460938 L 97.214844 266.179688 L 95.96875 264.746094 L 94.722656 263.167969 L 93.472656 261.445312 L 92.226562 259.59375 L 90.976562 257.628906 L 89.730469 255.578125 L 88.480469 253.449219 L 87.234375 251.261719 L 85.984375 249.039062 L 84.738281 246.808594 L 83.488281 244.621094 L 82.242188 242.527344 L 80.996094 240.597656 L 79.746094 238.882812 L 78.5 237.449219 L 77.25 236.335938 L 76.003906 235.585938 L 74.753906 235.222656 L 73.507812 235.257812 L 72.257812 235.703125 L 71.011719 236.554688 L 69.765625 237.800781 L 68.515625 239.429688 L 67.269531 241.421875 L 66.019531 243.75 L 64.773438 246.367188 L 63.523438 249.226562 L 62.277344 252.253906 L 61.027344 255.382812 L 59.78125 258.53125 L 58.535156 261.636719 L 57.285156 264.652344 L 56.039062 267.542969 L 54.789062 270.304688 L 53.542969 272.945312 L 52.292969 275.511719 L 51.046875 278.089844 L 49.796875 280.773438 L 48.550781 283.628906 L 47.300781 286.679688 L 46.054688 289.898438 L 44.808594 293.253906 Z M 44.808594 277.214844 "/>
<path style="fill:none;stroke-width:1.066978;stroke-linecap:butt;stroke-linejoin:round;stroke:rgb(0%,0%,0%);stroke-opacity:1;stroke-miterlimit:10;" d="M 44.808594 285.234375 L 46.054688 282.832031 L 47.300781 280.425781 L 48.550781 277.988281 L 49.796875 275.507812 L 51.046875 272.957031 L 52.292969 270.320312 L 53.542969 267.585938 L 54.789062 264.753906 L 56.039062 261.828125 L 57.285156 258.832031 L 58.535156 255.785156 L 59.78125 252.71875 L 61.027344 249.667969 L 62.277344 246.679688 L 63.523438 243.796875 L 64.773438 241.074219 L 66.019531 238.566406 L 67.269531 236.320312 L 68.515625 234.375 L 69.765625 232.769531 L 71.011719 231.535156 L 72.257812 230.695312 L 73.507812 230.269531 L 74.753906 230.253906 L 76.003906 230.640625 L 77.25 231.40625 L 78.5 232.523438 L 79.746094 233.953125 L 80.996094 235.644531 L 82.242188 237.550781 L 83.488281 239.609375 L 84.738281 241.773438 L 85.984375 243.996094 L 87.234375 246.21875 L 88.480469 248.414062 L 89.730469 250.542969 L 90.976562 252.585938 L 92.226562 254.519531 L 93.472656 256.332031 L 94.722656 258.015625 L 95.96875 259.566406 L 97.214844 260.980469 L 98.464844 262.265625 L 99.710938 263.421875 L 100.960938 264.453125 L 102.207031 265.363281 L 103.457031 266.152344 L 104.703125 266.824219 L 105.953125 267.378906 L 107.199219 267.816406 L 108.445312 268.144531 L 109.695312 268.359375 L 110.941406 268.46875 L 112.191406 268.480469 L 113.4375 268.394531 L 114.6875 268.230469 L 115.933594 267.992188 L 117.183594 267.695312 L 118.429688 267.355469 L 119.675781 266.988281 L 120.925781 266.609375 L 122.171875 266.238281 L 123.421875 265.894531 L 124.667969 265.597656 L 125.917969 265.371094 L 127.164062 265.222656 L 128.414062 265.175781 L 129.660156 265.246094 L 130.910156 265.441406 L 132.15625 265.773438 L 133.402344 266.238281 L 134.652344 266.832031 L 135.898438 267.554688 L 137.148438 268.390625 L 138.394531 269.324219 L 139.644531 270.335938 L 140.890625 271.410156 L 142.140625 272.527344 L 143.386719 273.667969 L 144.632812 274.816406 L 145.882812 275.953125 L 147.128906 277.0625 L 148.378906 278.140625 L 149.625 279.175781 L 150.875 280.164062 L 152.121094 281.101562 L 153.371094 281.980469 L 154.617188 282.804688 L 155.867188 283.578125 L 157.113281 284.296875 L 158.359375 284.972656 L 159.609375 285.609375 L 160.855469 286.214844 L 162.105469 286.792969 L 163.351562 287.351562 L 164.601562 287.894531 L 165.847656 288.433594 L 167.097656 288.964844 L 168.34375 289.496094 "/>
<g style="fill:rgb(30.196078%,30.196078%,30.196078%);fill-opacity:1;">
  <use xlink:href="#glyph0-1" x="25.699219" y="290.415039"/>
  <use xlink:href="#glyph0-2" x="28.699219" y="290.415039"/>
</g>
<g style="fill:rgb(30.196078%,30.196078%,30.196078%);fill-opacity:1;">
  <use xlink:href="#glyph0-4" x="28.699219" y="265.543945"/>
</g>
<g style="fill:rgb(30.196078%,30.196078%,30.196078%);fill-opacity:1;">
  <use xlink:href="#glyph0-2" x="28.699219" y="240.676758"/>
</g>
<path style="fill:none;stroke-width:1.066978;stroke-linecap:butt;stroke-linejoin:round;stroke:rgb(20%,20%,20%);stroke-opacity:1;stroke-miterlimit:10;" d="M 35.890625 287.5 L 38.628906 287.5 "/>
<path style="fill:none;stroke-width:1.066978;stroke-linecap:butt;stroke-linejoin:round;stroke:rgb(20%,20%,20%);stroke-opacity:1;stroke-miterlimit:10;" d="M 35.890625 262.628906 L 38.628906 262.628906 "/>
<path style="fill:none;stroke-width:1.066978;stroke-linecap:butt;stroke-linejoin:round;stroke:rgb(20%,20%,20%);stroke-opacity:1;stroke-miterlimit:10;" d="M 35.890625 237.761719 L 38.628906 237.761719 "/>
<path style="fill:none;stroke-width:1.066978;stroke-linecap:butt;stroke-linejoin:round;stroke:rgb(20%,20%,20%);stroke-opacity:1;stroke-miterlimit:10;" d="M 44.644531 308.628906 L 44.644531 305.890625 "/>
<path style="fill:none;stroke-width:1.066978;stroke-linecap:butt;stroke-linejoin:round;stroke:rgb(20%,20%,20%);stroke-opacity:1;stroke-miterlimit:10;" d="M 75.570312 308.628906 L 75.570312 305.890625 "/>
<path style="fill:none;stroke-width:1.066978;stroke-linecap:butt;stroke-linejoin:round;stroke:rgb(20%,20%,20%);stroke-opacity:1;stroke-miterlimit:10;" d="M 106.5 308.628906 L 106.5 305.890625 "/>
<path style="fill:none;stroke-width:1.066978;stroke-linecap:butt;stroke-linejoin:round;stroke:rgb(20%,20%,20%);stroke-opacity:1;stroke-miterlimit:10;" d="M 137.425781 308.628906 L 137.425781 305.890625 "/>
<path style="fill:none;stroke-width:1.066978;stroke-linecap:butt;stroke-linejoin:round;stroke:rgb(20%,20%,20%);stroke-opacity:1;stroke-miterlimit:10;" d="M 168.351562 308.628906 L 168.351562 305.890625 "/>
<g style="fill:rgb(30.196078%,30.196078%,30.196078%);fill-opacity:1;">
  <use xlink:href="#glyph0-4" x="36.144531" y="317.235352"/>
  <use xlink:href="#glyph0-5" x="41.144531" y="317.235352"/>
  <use xlink:href="#glyph0-4" x="43.144531" y="317.235352"/>
  <use xlink:href="#glyph0-4" x="48.144531" y="317.235352"/>
</g>
<g style="fill:rgb(30.196078%,30.196078%,30.196078%);fill-opacity:1;">
  <use xlink:href="#glyph0-4" x="67.070312" y="317.235352"/>
  <use xlink:href="#glyph0-5" x="72.070312" y="317.235352"/>
  <use xlink:href="#glyph0-3" x="74.070312" y="317.235352"/>
  <use xlink:href="#glyph0-6" x="79.070312" y="317.235352"/>
</g>
<g style="fill:rgb(30.196078%,30.196078%,30.196078%);fill-opacity:1;">
  <use xlink:href="#glyph0-4" x="98" y="317.235352"/>
  <use xlink:href="#glyph0-5" x="103" y="317.235352"/>
  <use xlink:href="#glyph0-6" x="105" y="317.235352"/>
  <use xlink:href="#glyph0-4" x="110" y="317.235352"/>
</g>
<g style="fill:rgb(30.196078%,30.196078%,30.196078%);fill-opacity:1;">
  <use xlink:href="#glyph0-4" x="128.925781" y="317.235352"/>
  <use xlink:href="#glyph0-5" x="133.925781" y="317.235352"/>
  <use xlink:href="#glyph0-7" x="135.925781" y="317.235352"/>
  <use xlink:href="#glyph0-6" x="140.925781" y="317.235352"/>
</g>
<g style="fill:rgb(30.196078%,30.196078%,30.196078%);fill-opacity:1;">
  <use xlink:href="#glyph0-8" x="159.851562" y="317.235352"/>
  <use xlink:href="#glyph0-5" x="164.851562" y="317.235352"/>
  <use xlink:href="#glyph0-4" x="166.851562" y="317.235352"/>
  <use xlink:href="#glyph0-4" x="171.851562" y="317.235352"/>
</g>
<g style="fill:rgb(0%,0%,0%);fill-opacity:1;">
  <use xlink:href="#glyph1-1" x="101.074219" y="330.581055"/>
  <use xlink:href="#glyph1-2" x="106.074219" y="330.581055"/>
</g>
<g style="fill:rgb(0%,0%,0%);fill-opacity:1;">
  <use xlink:href="#glyph2-1" x="18.975586" y="293.664062"/>
  <use xlink:href="#glyph2-2" x="18.975586" y="286.664062"/>
  <use xlink:href="#glyph2-3" x="18.975586" y="280.664062"/>
  <use xlink:href="#glyph2-4" x="18.975586" y="276.664062"/>
  <use xlink:href="#glyph2-5" x="18.975586" y="273.664062"/>
  <use xlink:href="#glyph2-2" x="18.975586" y="271.664062"/>
  <use xlink:href="#glyph2-6" x="18.975586" y="265.664062"/>
  <use xlink:href="#glyph2-7" x="18.975586" y="263.664062"/>
  <use xlink:href="#glyph2-8" x="18.975586" y="260.664062"/>
  <use xlink:href="#glyph2-9" x="18.975586" y="254.664062"/>
  <use xlink:href="#glyph2-8" x="18.975586" y="248.664062"/>
  <use xlink:href="#glyph2-10" x="18.975586" y="242.664062"/>
  <use xlink:href="#glyph2-4" x="18.975586" y="236.664062"/>
</g>
<g style="fill:rgb(0%,0%,0%);fill-opacity:1;">
  <use xlink:href="#glyph1-3" x="38.628906" y="211.975586"/>
  <use xlink:href="#glyph1-4" x="45.628906" y="211.975586"/>
  <use xlink:href="#glyph1-5" x="50.628906" y="211.975586"/>
  <use xlink:href="#glyph1-6" x="53.628906" y="211.975586"/>
  <use xlink:href="#glyph1-7" x="56.628906" y="211.975586"/>
  <use xlink:href="#glyph1-8" x="59.628906" y="211.975586"/>
  <use xlink:href="#glyph1-9" x="65.628906" y="211.975586"/>
  <use xlink:href="#glyph1-10" x="71.628906" y="211.975586"/>
  <use xlink:href="#glyph1-6" x="74.628906" y="211.975586"/>
  <use xlink:href="#glyph1-12" x="77.628906" y="211.975586"/>
</g>
<g style="fill:rgb(0%,0%,0%);fill-opacity:1;">
  <use xlink:href="#glyph3-1" x="38.628906" y="195.102539"/>
  <use xlink:href="#glyph3-2" x="45.628906" y="195.102539"/>
  <use xlink:href="#glyph3-3" x="49.628906" y="195.102539"/>
  <use xlink:href="#glyph3-4" x="56.628906" y="195.102539"/>
  <use xlink:href="#glyph3-5" x="63.628906" y="195.102539"/>
</g>
<g style="fill:rgb(0%,0%,0%);fill-opacity:1;">
  <use xlink:href="#glyph0-9" x="126.519531" y="346.458008"/>
  <use xlink:href="#glyph0-10" x="132.519531" y="346.458008"/>
  <use xlink:href="#glyph0-11" x="137.519531" y="346.458008"/>
  <use xlink:href="#glyph0-12" x="141.519531" y="346.458008"/>
  <use xlink:href="#glyph0-11" x="143.519531" y="346.458008"/>
  <use xlink:href="#glyph0-13" x="147.519531" y="346.458008"/>
  <use xlink:href="#glyph0-14" x="149.519531" y="346.458008"/>
  <use xlink:href="#glyph0-15" x="151.519531" y="346.458008"/>
  <use xlink:href="#glyph0-16" x="156.519531" y="346.458008"/>
  <use xlink:href="#glyph0-17" x="162.519531" y="346.458008"/>
  <use xlink:href="#glyph0-18" x="168.519531" y="346.458008"/>
</g>
</g>
</svg>
