<?xml version="1.0" encoding="UTF-8"?>
<svg xmlns="http://www.w3.org/2000/svg" xmlns:xlink="http://www.w3.org/1999/xlink" width="576pt" height="216pt" viewBox="0 0 576 216" version="1.1">
<defs>
<g>
<symbol overflow="visible" id="glyph0-0">
<path style="stroke:none;" d=""/>
</symbol>
<symbol overflow="visible" id="glyph0-1">
<path style="stroke:none;" d="M 4.1875 -6.234375 L 0.96875 -6.234375 L 0.5 -2.84375 L 1.21875 -2.84375 C 1.578125 -3.265625 1.875 -3.421875 2.359375 -3.421875 C 3.203125 -3.421875 3.71875 -2.84375 3.71875 -1.921875 C 3.71875 -1.03125 3.203125 -0.484375 2.359375 -0.484375 C 1.6875 -0.484375 1.265625 -0.828125 1.078125 -1.53125 L 0.3125 -1.53125 C 0.40625 -1.015625 0.5 -0.78125 0.6875 -0.546875 C 1.03125 -0.078125 1.671875 0.203125 2.375 0.203125 C 3.640625 0.203125 4.515625 -0.71875 4.515625 -2.03125 C 4.515625 -3.265625 3.6875 -4.109375 2.5 -4.109375 C 2.0625 -4.109375 1.703125 -4 1.34375 -3.734375 L 1.59375 -5.46875 L 4.1875 -5.46875 Z M 4.1875 -6.234375 "/>
</symbol>
<symbol overflow="visible" id="glyph0-2">
<path style="stroke:none;" d="M 2.28125 -4.53125 L 2.28125 0 L 3.046875 0 L 3.046875 -6.359375 L 2.546875 -6.359375 C 2.265625 -5.390625 2.09375 -5.25 0.890625 -5.09375 L 0.890625 -4.53125 Z M 2.28125 -4.53125 "/>
</symbol>
<symbol overflow="visible" id="glyph0-3">
<path style="stroke:none;" d="M 2.421875 -6.359375 C 1.84375 -6.359375 1.3125 -6.09375 0.984375 -5.671875 C 0.578125 -5.109375 0.375 -4.25 0.375 -3.078125 C 0.375 -0.9375 1.078125 0.203125 2.421875 0.203125 C 3.734375 0.203125 4.453125 -0.9375 4.453125 -3.03125 C 4.453125 -4.25 4.265625 -5.078125 3.859375 -5.671875 C 3.53125 -6.109375 3.015625 -6.359375 2.421875 -6.359375 Z M 2.421875 -5.671875 C 3.25 -5.671875 3.671875 -4.828125 3.671875 -3.09375 C 3.671875 -1.28125 3.265625 -0.4375 2.40625 -0.4375 C 1.578125 -0.4375 1.171875 -1.3125 1.171875 -3.0625 C 1.171875 -4.828125 1.578125 -5.671875 2.421875 -5.671875 Z M 2.421875 -5.671875 "/>
</symbol>
<symbol overflow="visible" id="glyph0-4">
<path style="stroke:none;" d="M 4.453125 -0.765625 L 1.171875 -0.765625 C 1.25 -1.296875 1.53125 -1.625 2.296875 -2.09375 L 3.171875 -2.59375 C 4.046875 -3.0625 4.5 -3.71875 4.5 -4.5 C 4.5 -5.03125 4.28125 -5.53125 3.921875 -5.875 C 3.546875 -6.203125 3.09375 -6.359375 2.5 -6.359375 C 1.703125 -6.359375 1.125 -6.078125 0.78125 -5.53125 C 0.546875 -5.203125 0.453125 -4.796875 0.4375 -4.15625 L 1.21875 -4.15625 C 1.234375 -4.59375 1.296875 -4.84375 1.40625 -5.0625 C 1.59375 -5.4375 2 -5.6875 2.46875 -5.6875 C 3.171875 -5.6875 3.703125 -5.171875 3.703125 -4.484375 C 3.703125 -3.96875 3.40625 -3.53125 2.859375 -3.21875 L 2.046875 -2.75 C 0.75 -2 0.375 -1.40625 0.296875 -0.015625 L 4.453125 -0.015625 Z M 4.453125 -0.765625 "/>
</symbol>
<symbol overflow="visible" id="glyph0-5">
<path style="stroke:none;" d="M 1.6875 -0.921875 L 0.765625 -0.921875 L 0.765625 0 L 1.6875 0 Z M 1.6875 -0.921875 "/>
</symbol>
<symbol overflow="visible" id="glyph0-6">
<path style="stroke:none;" d="M 2.875 -1.546875 L 2.875 0 L 3.65625 0 L 3.65625 -1.546875 L 4.578125 -1.546875 L 4.578125 -2.234375 L 3.65625 -2.234375 L 3.65625 -6.359375 L 3.078125 -6.359375 L 0.25 -2.359375 L 0.25 -1.546875 Z M 2.875 -2.234375 L 0.921875 -2.234375 L 2.875 -5.046875 Z M 2.875 -2.234375 "/>
</symbol>
<symbol overflow="visible" id="glyph0-7">
<path style="stroke:none;" d="M 3.4375 -3.359375 C 4.09375 -3.75 4.296875 -4.0625 4.296875 -4.65625 C 4.296875 -5.671875 3.53125 -6.359375 2.421875 -6.359375 C 1.3125 -6.359375 0.546875 -5.671875 0.546875 -4.671875 C 0.546875 -4.0625 0.75 -3.75 1.390625 -3.359375 C 0.671875 -2.984375 0.328125 -2.46875 0.328125 -1.765625 C 0.328125 -0.609375 1.171875 0.203125 2.421875 0.203125 C 3.65625 0.203125 4.515625 -0.609375 4.515625 -1.765625 C 4.515625 -2.46875 4.15625 -2.984375 3.4375 -3.359375 Z M 2.421875 -5.671875 C 3.078125 -5.671875 3.5 -5.28125 3.5 -4.640625 C 3.5 -4.046875 3.0625 -3.65625 2.421875 -3.65625 C 1.765625 -3.65625 1.34375 -4.046875 1.34375 -4.65625 C 1.34375 -5.28125 1.765625 -5.671875 2.421875 -5.671875 Z M 2.421875 -3 C 3.1875 -3 3.71875 -2.484375 3.71875 -1.75 C 3.71875 -0.984375 3.203125 -0.484375 2.40625 -0.484375 C 1.640625 -0.484375 1.125 -1 1.125 -1.734375 C 1.125 -2.5 1.640625 -3 2.421875 -3 Z M 2.421875 -3 "/>
</symbol>
<symbol overflow="visible" id="glyph0-8">
<path style="stroke:none;" d="M 2.5 -2.75 L 0.40625 -2.75 L 0.40625 -2.109375 L 2.5 -2.109375 Z M 2.5 -2.75 "/>
</symbol>
<symbol overflow="visible" id="glyph1-0">
<path style="stroke:none;" d=""/>
</symbol>
<symbol overflow="visible" id="glyph1-1">
<path style="stroke:none;" d="M 0 -5.140625 L -6.71875 -7.40625 L 0 -7.40625 L 0 -8.375 L -8.015625 -8.375 L -8.015625 -6.953125 L -1.03125 -4.625 L -8.015625 -2.25 L -8.015625 -0.828125 L 0 -0.828125 L 0 -1.796875 L -6.71875 -1.796875 L 0 -4.0625 Z M 0 -5.140625 "/>
</symbol>
<symbol overflow="visible" id="glyph1-2">
<path style="stroke:none;" d="M -5.765625 -1.65625 L -5.765625 -0.734375 L 0 -0.734375 L 0 -1.65625 Z M -8.015625 -1.65625 L -8.015625 -0.71875 L -6.859375 -0.71875 L -6.859375 -1.65625 Z M -8.015625 -1.65625 "/>
</symbol>
<symbol overflow="visible" id="glyph1-3">
<path style="stroke:none;" d="M -2.984375 -3.21875 L -5.765625 -5.140625 L -5.765625 -4.109375 L -3.671875 -2.734375 L -5.765625 -1.34375 L -5.765625 -0.296875 L -2.9375 -2.21875 L 0 -0.1875 L 0 -1.234375 L -2.21875 -2.6875 L 0 -4.140625 L 0 -5.203125 Z M -2.984375 -3.21875 "/>
</symbol>
<symbol overflow="visible" id="glyph1-4">
<path style="stroke:none;" d="M -2.578125 -5.640625 C -3.453125 -5.640625 -3.984375 -5.578125 -4.40625 -5.40625 C -5.359375 -5.03125 -5.921875 -4.15625 -5.921875 -3.078125 C -5.921875 -1.46875 -4.703125 -0.4375 -2.8125 -0.4375 C -0.90625 -0.4375 0.25 -1.4375 0.25 -3.0625 C 0.25 -4.375 -0.5 -5.296875 -1.75 -5.515625 L -1.75 -4.59375 C -0.984375 -4.34375 -0.59375 -3.828125 -0.59375 -3.09375 C -0.59375 -2.515625 -0.859375 -2.015625 -1.34375 -1.703125 C -1.671875 -1.484375 -2 -1.40625 -2.578125 -1.390625 Z M -3.328125 -1.421875 C -4.390625 -1.5 -5.078125 -2.140625 -5.078125 -3.0625 C -5.078125 -4 -4.359375 -4.65625 -3.328125 -4.65625 Z M -3.328125 -1.421875 "/>
</symbol>
<symbol overflow="visible" id="glyph1-5">
<path style="stroke:none;" d="M -8.015625 -5.4375 L -8.015625 -4.53125 L -5.03125 -4.53125 C -5.625 -4.140625 -5.921875 -3.53125 -5.921875 -2.765625 C -5.921875 -1.265625 -4.734375 -0.28125 -2.890625 -0.28125 C -0.953125 -0.28125 0.25 -1.234375 0.25 -2.796875 C 0.25 -3.59375 -0.046875 -4.140625 -0.765625 -4.625 L 0 -4.625 L 0 -5.4375 Z M -5.078125 -2.921875 C -5.078125 -3.90625 -4.203125 -4.53125 -2.8125 -4.53125 C -1.484375 -4.53125 -0.609375 -3.890625 -0.609375 -2.921875 C -0.609375 -1.90625 -1.5 -1.25 -2.84375 -1.25 C -4.1875 -1.25 -5.078125 -1.90625 -5.078125 -2.921875 Z M -5.078125 -2.921875 "/>
</symbol>
<symbol overflow="visible" id="glyph1-6">
<path style="stroke:none;" d=""/>
</symbol>
<symbol overflow="visible" id="glyph1-7">
<path style="stroke:none;" d="M -5.765625 -0.765625 L 0 -0.765625 L 0 -1.6875 L -3.625 -1.6875 C -4.453125 -1.6875 -5.125 -2.296875 -5.125 -3.046875 C -5.125 -3.734375 -4.703125 -4.109375 -3.96875 -4.109375 L 0 -4.109375 L 0 -5.03125 L -3.625 -5.03125 C -4.453125 -5.03125 -5.125 -5.640625 -5.125 -6.390625 C -5.125 -7.0625 -4.703125 -7.453125 -3.96875 -7.453125 L 0 -7.453125 L 0 -8.375 L -4.328125 -8.375 C -5.359375 -8.375 -5.921875 -7.78125 -5.921875 -6.703125 C -5.921875 -5.9375 -5.703125 -5.484375 -5.046875 -4.9375 C -5.671875 -4.59375 -5.921875 -4.140625 -5.921875 -3.390625 C -5.921875 -2.625 -5.640625 -2.09375 -4.953125 -1.609375 L -5.765625 -1.609375 Z M -5.765625 -0.765625 "/>
</symbol>
<symbol overflow="visible" id="glyph1-8">
<path style="stroke:none;" d="M -5.921875 -2.984375 C -5.921875 -1.359375 -4.78125 -0.390625 -2.84375 -0.390625 C -0.890625 -0.390625 0.25 -1.359375 0.25 -3 C 0.25 -4.625 -0.90625 -5.609375 -2.796875 -5.609375 C -4.796875 -5.609375 -5.921875 -4.65625 -5.921875 -2.984375 Z M -5.078125 -3 C -5.078125 -4.03125 -4.234375 -4.65625 -2.8125 -4.65625 C -1.4375 -4.65625 -0.59375 -4.015625 -0.59375 -3 C -0.59375 -1.984375 -1.4375 -1.359375 -2.84375 -1.359375 C -4.234375 -1.359375 -5.078125 -1.984375 -5.078125 -3 Z M -5.078125 -3 "/>
</symbol>
<symbol overflow="visible" id="glyph1-9">
<path style="stroke:none;" d="M -8.015625 -1.671875 L -8.015625 -0.75 L 0 -0.75 L 0 -1.671875 Z M -8.015625 -1.671875 "/>
</symbol>
<symbol overflow="visible" id="glyph2-0">
<path style="stroke:none;" d=""/>
</symbol>
<symbol overflow="visible" id="glyph2-1">
<path style="stroke:none;" d="M 6.5625 -5.671875 C 6.5625 -6.21875 6.515625 -6.375 6.34375 -6.75 C 5.90625 -7.671875 4.96875 -8.15625 3.625 -8.15625 C 1.859375 -8.15625 0.765625 -7.25 0.765625 -5.796875 C 0.765625 -4.8125 1.28125 -4.203125 2.34375 -3.921875 L 4.328125 -3.40625 C 5.359375 -3.140625 5.8125 -2.734375 5.8125 -2.09375 C 5.8125 -1.671875 5.578125 -1.234375 5.234375 -0.984375 C 4.921875 -0.765625 4.40625 -0.65625 3.765625 -0.65625 C 2.875 -0.65625 2.296875 -0.859375 1.90625 -1.3125 C 1.609375 -1.671875 1.484375 -2.0625 1.5 -2.546875 L 0.53125 -2.546875 C 0.53125 -1.8125 0.6875 -1.328125 1 -0.890625 C 1.546875 -0.125 2.46875 0.25 3.703125 0.25 C 4.65625 0.25 5.4375 0.03125 5.953125 -0.359375 C 6.484375 -0.796875 6.828125 -1.5 6.828125 -2.203125 C 6.828125 -3.1875 6.21875 -3.921875 5.125 -4.21875 L 3.109375 -4.75 C 2.140625 -5.015625 1.796875 -5.328125 1.796875 -5.9375 C 1.796875 -6.75 2.515625 -7.296875 3.59375 -7.296875 C 4.859375 -7.296875 5.578125 -6.71875 5.59375 -5.671875 Z M 6.5625 -5.671875 "/>
</symbol>
<symbol overflow="visible" id="glyph2-2">
<path style="stroke:none;" d="M 5.640625 -2.578125 C 5.640625 -3.453125 5.578125 -3.984375 5.40625 -4.40625 C 5.03125 -5.359375 4.15625 -5.921875 3.078125 -5.921875 C 1.46875 -5.921875 0.4375 -4.703125 0.4375 -2.8125 C 0.4375 -0.90625 1.4375 0.25 3.0625 0.25 C 4.375 0.25 5.296875 -0.5 5.515625 -1.75 L 4.59375 -1.75 C 4.34375 -0.984375 3.828125 -0.59375 3.09375 -0.59375 C 2.515625 -0.59375 2.015625 -0.859375 1.703125 -1.34375 C 1.484375 -1.671875 1.40625 -2 1.390625 -2.578125 Z M 1.421875 -3.328125 C 1.5 -4.390625 2.140625 -5.078125 3.0625 -5.078125 C 4 -5.078125 4.65625 -4.359375 4.65625 -3.328125 Z M 1.421875 -3.328125 "/>
</symbol>
<symbol overflow="visible" id="glyph2-3">
<path style="stroke:none;" d="M 0.59375 2.390625 L 1.515625 2.390625 L 1.515625 -0.609375 C 2 -0.015625 2.546875 0.25 3.28125 0.25 C 4.78125 0.25 5.75 -0.953125 5.75 -2.78125 C 5.75 -4.71875 4.8125 -5.921875 3.28125 -5.921875 C 2.5 -5.921875 1.875 -5.578125 1.4375 -4.890625 L 1.4375 -5.765625 L 0.59375 -5.765625 Z M 3.125 -5.078125 C 4.140625 -5.078125 4.796875 -4.1875 4.796875 -2.8125 C 4.796875 -1.5 4.125 -0.609375 3.125 -0.609375 C 2.140625 -0.609375 1.515625 -1.484375 1.515625 -2.84375 C 1.515625 -4.1875 2.140625 -5.078125 3.125 -5.078125 Z M 3.125 -5.078125 "/>
</symbol>
<symbol overflow="visible" id="glyph2-4">
<path style="stroke:none;" d="M 5.890625 -0.53125 C 5.78125 -0.515625 5.734375 -0.515625 5.6875 -0.515625 C 5.375 -0.515625 5.1875 -0.6875 5.1875 -0.96875 L 5.1875 -4.359375 C 5.1875 -5.375 4.4375 -5.921875 3.03125 -5.921875 C 2.171875 -5.921875 1.5 -5.6875 1.109375 -5.265625 C 0.84375 -4.96875 0.734375 -4.625 0.71875 -4.0625 L 1.640625 -4.0625 C 1.71875 -4.765625 2.140625 -5.078125 2.984375 -5.078125 C 3.828125 -5.078125 4.28125 -4.78125 4.28125 -4.21875 L 4.28125 -3.984375 C 4.265625 -3.59375 4.0625 -3.4375 3.328125 -3.34375 C 2.03125 -3.171875 1.828125 -3.140625 1.46875 -2.984375 C 0.796875 -2.703125 0.46875 -2.203125 0.46875 -1.453125 C 0.46875 -0.40625 1.1875 0.25 2.359375 0.25 C 3.078125 0.25 3.65625 0 4.3125 -0.59375 C 4.375 0 4.65625 0.25 5.265625 0.25 C 5.453125 0.25 5.578125 0.234375 5.890625 0.15625 Z M 4.28125 -1.8125 C 4.28125 -1.5 4.1875 -1.3125 3.921875 -1.0625 C 3.546875 -0.71875 3.09375 -0.546875 2.546875 -0.546875 C 1.84375 -0.546875 1.421875 -0.890625 1.421875 -1.46875 C 1.421875 -2.078125 1.8125 -2.390625 2.8125 -2.53125 C 3.78125 -2.65625 3.96875 -2.703125 4.28125 -2.84375 Z M 4.28125 -1.8125 "/>
</symbol>
<symbol overflow="visible" id="glyph2-5">
<path style="stroke:none;" d="M 0.765625 -5.765625 L 0.765625 0 L 1.6875 0 L 1.6875 -2.984375 C 1.6875 -4.375 2.265625 -5 3.53125 -4.96875 L 3.53125 -5.890625 C 3.375 -5.921875 3.28125 -5.921875 3.171875 -5.921875 C 2.578125 -5.921875 2.140625 -5.578125 1.609375 -4.71875 L 1.609375 -5.765625 Z M 0.765625 -5.765625 "/>
</symbol>
<symbol overflow="visible" id="glyph2-6">
<path style="stroke:none;" d="M 2.796875 -5.765625 L 1.84375 -5.765625 L 1.84375 -7.34375 L 0.9375 -7.34375 L 0.9375 -5.765625 L 0.15625 -5.765625 L 0.15625 -5.015625 L 0.9375 -5.015625 L 0.9375 -0.65625 C 0.9375 -0.0625 1.328125 0.25 2.046875 0.25 C 2.28125 0.25 2.484375 0.234375 2.796875 0.171875 L 2.796875 -0.59375 C 2.65625 -0.5625 2.546875 -0.546875 2.359375 -0.546875 C 1.953125 -0.546875 1.84375 -0.65625 1.84375 -1.0625 L 1.84375 -5.015625 L 2.796875 -5.015625 Z M 2.796875 -5.765625 "/>
</symbol>
<symbol overflow="visible" id="glyph2-7">
<path style="stroke:none;" d=""/>
</symbol>
<symbol overflow="visible" id="glyph2-8">
<path style="stroke:none;" d="M 1.671875 -8.015625 L 0.75 -8.015625 L 0.75 0 L 1.671875 0 Z M 1.671875 -8.015625 "/>
</symbol>
<symbol overflow="visible" id="glyph2-9">
<path style="stroke:none;" d="M 1.65625 -5.765625 L 0.734375 -5.765625 L 0.734375 0 L 1.65625 0 Z M 1.65625 -8.015625 L 0.71875 -8.015625 L 0.71875 -6.859375 L 1.65625 -6.859375 Z M 1.65625 -8.015625 "/>
</symbol>
<symbol overflow="visible" id="glyph2-10">
<path style="stroke:none;" d="M 0.765625 -5.765625 L 0.765625 0 L 1.6875 0 L 1.6875 -3.171875 C 1.6875 -4.359375 2.3125 -5.125 3.25 -5.125 C 3.984375 -5.125 4.4375 -4.6875 4.4375 -4 L 4.4375 0 L 5.359375 0 L 5.359375 -4.359375 C 5.359375 -5.3125 4.640625 -5.921875 3.53125 -5.921875 C 2.671875 -5.921875 2.125 -5.59375 1.609375 -4.796875 L 1.609375 -5.765625 Z M 0.765625 -5.765625 "/>
</symbol>
<symbol overflow="visible" id="glyph2-11">
<path style="stroke:none;" d="M 0.765625 -5.765625 L 0.765625 0 L 1.6875 0 L 1.6875 -3.625 C 1.6875 -4.453125 2.296875 -5.125 3.046875 -5.125 C 3.734375 -5.125 4.109375 -4.703125 4.109375 -3.96875 L 4.109375 0 L 5.03125 0 L 5.03125 -3.625 C 5.03125 -4.453125 5.640625 -5.125 6.390625 -5.125 C 7.0625 -5.125 7.453125 -4.703125 7.453125 -3.96875 L 7.453125 0 L 8.375 0 L 8.375 -4.328125 C 8.375 -5.359375 7.78125 -5.921875 6.703125 -5.921875 C 5.9375 -5.921875 5.484375 -5.703125 4.9375 -5.046875 C 4.59375 -5.671875 4.140625 -5.921875 3.390625 -5.921875 C 2.625 -5.921875 2.09375 -5.640625 1.609375 -4.953125 L 1.609375 -5.765625 Z M 0.765625 -5.765625 "/>
</symbol>
<symbol overflow="visible" id="glyph2-12">
<path style="stroke:none;" d="M 2.984375 -5.921875 C 1.359375 -5.921875 0.390625 -4.78125 0.390625 -2.84375 C 0.390625 -0.890625 1.359375 0.25 3 0.25 C 4.625 0.25 5.609375 -0.90625 5.609375 -2.796875 C 5.609375 -4.796875 4.65625 -5.921875 2.984375 -5.921875 Z M 3 -5.078125 C 4.03125 -5.078125 4.65625 -4.234375 4.65625 -2.8125 C 4.65625 -1.4375 4.015625 -0.59375 3 -0.59375 C 1.984375 -0.59375 1.359375 -1.4375 1.359375 -2.84375 C 1.359375 -4.234375 1.984375 -5.078125 3 -5.078125 Z M 3 -5.078125 "/>
</symbol>
<symbol overflow="visible" id="glyph2-13">
<path style="stroke:none;" d="M 5.4375 -8.015625 L 4.53125 -8.015625 L 4.53125 -5.03125 C 4.140625 -5.625 3.53125 -5.921875 2.765625 -5.921875 C 1.265625 -5.921875 0.28125 -4.734375 0.28125 -2.890625 C 0.28125 -0.953125 1.234375 0.25 2.796875 0.25 C 3.59375 0.25 4.140625 -0.046875 4.625 -0.765625 L 4.625 0 L 5.4375 0 Z M 2.921875 -5.078125 C 3.90625 -5.078125 4.53125 -4.203125 4.53125 -2.8125 C 4.53125 -1.484375 3.890625 -0.609375 2.921875 -0.609375 C 1.90625 -0.609375 1.25 -1.5 1.25 -2.84375 C 1.25 -4.1875 1.90625 -5.078125 2.921875 -5.078125 Z M 2.921875 -5.078125 "/>
</symbol>
<symbol overflow="visible" id="glyph2-14">
<path style="stroke:none;" d="M 2.84375 -5.765625 L 1.875 -5.765625 L 1.875 -6.671875 C 1.875 -7.046875 2.09375 -7.25 2.515625 -7.25 C 2.59375 -7.25 2.625 -7.25 2.84375 -7.234375 L 2.84375 -8 C 2.625 -8.046875 2.515625 -8.046875 2.328125 -8.046875 C 1.46875 -8.046875 0.96875 -7.5625 0.96875 -6.75 L 0.96875 -5.765625 L 0.203125 -5.765625 L 0.203125 -5.015625 L 0.96875 -5.015625 L 0.96875 0 L 1.875 0 L 1.875 -5.015625 L 2.84375 -5.015625 Z M 2.84375 -5.765625 "/>
</symbol>
<symbol overflow="visible" id="glyph2-15">
<path style="stroke:none;" d="M 5.1875 -3.828125 C 5.140625 -4.390625 5.015625 -4.75 4.796875 -5.078125 C 4.40625 -5.609375 3.703125 -5.921875 2.90625 -5.921875 C 1.34375 -5.921875 0.34375 -4.703125 0.34375 -2.78125 C 0.34375 -0.921875 1.328125 0.25 2.890625 0.25 C 4.265625 0.25 5.140625 -0.578125 5.25 -1.984375 L 4.328125 -1.984375 C 4.171875 -1.0625 3.703125 -0.59375 2.921875 -0.59375 C 1.90625 -0.59375 1.296875 -1.421875 1.296875 -2.78125 C 1.296875 -4.21875 1.890625 -5.078125 2.890625 -5.078125 C 3.65625 -5.078125 4.140625 -4.625 4.25 -3.828125 Z M 5.1875 -3.828125 "/>
</symbol>
<symbol overflow="visible" id="glyph2-16">
<path style="stroke:none;" d="M 0.765625 -8.015625 L 0.765625 0 L 1.6875 0 L 1.6875 -3.171875 C 1.6875 -4.359375 2.296875 -5.125 3.25 -5.125 C 3.546875 -5.125 3.84375 -5.03125 4.0625 -4.875 C 4.328125 -4.671875 4.4375 -4.40625 4.4375 -4 L 4.4375 0 L 5.34375 0 L 5.34375 -4.359375 C 5.34375 -5.328125 4.65625 -5.921875 3.53125 -5.921875 C 2.71875 -5.921875 2.21875 -5.671875 1.6875 -4.96875 L 1.6875 -8.015625 Z M 0.765625 -8.015625 "/>
</symbol>
<symbol overflow="visible" id="glyph2-17">
<path style="stroke:none;" d="M 4.8125 -4.15625 C 4.8125 -5.296875 4.0625 -5.921875 2.734375 -5.921875 C 1.390625 -5.921875 0.515625 -5.234375 0.515625 -4.171875 C 0.515625 -3.265625 0.984375 -2.84375 2.34375 -2.515625 L 3.203125 -2.296875 C 3.84375 -2.140625 4.09375 -1.90625 4.09375 -1.5 C 4.09375 -0.953125 3.546875 -0.59375 2.75 -0.59375 C 2.25 -0.59375 1.84375 -0.734375 1.609375 -0.984375 C 1.46875 -1.140625 1.390625 -1.3125 1.34375 -1.71875 L 0.375 -1.71875 C 0.421875 -0.390625 1.171875 0.25 2.671875 0.25 C 4.125 0.25 5.046875 -0.46875 5.046875 -1.578125 C 5.046875 -2.4375 4.5625 -2.90625 3.421875 -3.171875 L 2.546875 -3.390625 C 1.796875 -3.5625 1.46875 -3.8125 1.46875 -4.21875 C 1.46875 -4.75 1.953125 -5.078125 2.6875 -5.078125 C 3.4375 -5.078125 3.828125 -4.765625 3.84375 -4.15625 Z M 4.8125 -4.15625 "/>
</symbol>
<symbol overflow="visible" id="glyph2-18">
<path style="stroke:none;" d="M 5.296875 0 L 5.296875 -5.765625 L 4.390625 -5.765625 L 4.390625 -2.5 C 4.390625 -1.3125 3.765625 -0.546875 2.8125 -0.546875 C 2.09375 -0.546875 1.625 -0.984375 1.625 -1.6875 L 1.625 -5.765625 L 0.71875 -5.765625 L 0.71875 -1.3125 C 0.71875 -0.359375 1.4375 0.25 2.546875 0.25 C 3.40625 0.25 3.9375 -0.046875 4.484375 -0.796875 L 4.484375 0 Z M 5.296875 0 "/>
</symbol>
<symbol overflow="visible" id="glyph2-19">
<path style="stroke:none;" d="M 0.59375 -8.015625 L 0.59375 0 L 1.421875 0 L 1.421875 -0.734375 C 1.859375 -0.0625 2.4375 0.25 3.25 0.25 C 4.765625 0.25 5.75 -0.984375 5.75 -2.90625 C 5.75 -4.78125 4.8125 -5.921875 3.28125 -5.921875 C 2.5 -5.921875 1.9375 -5.625 1.5 -4.984375 L 1.5 -8.015625 Z M 3.109375 -5.078125 C 4.140625 -5.078125 4.796875 -4.1875 4.796875 -2.8125 C 4.796875 -1.5 4.109375 -0.609375 3.109375 -0.609375 C 2.140625 -0.609375 1.5 -1.484375 1.5 -2.84375 C 1.5 -4.1875 2.140625 -5.078125 3.109375 -5.078125 Z M 3.109375 -5.078125 "/>
</symbol>
<symbol overflow="visible" id="glyph2-20">
<path style="stroke:none;" d="M 0.765625 -5.765625 L 0.765625 0.84375 C 0.765625 1.40625 0.59375 1.59375 0.015625 1.59375 C -0.046875 1.59375 -0.078125 1.59375 -0.203125 1.578125 L -0.203125 2.359375 C -0.09375 2.390625 -0.03125 2.390625 0.109375 2.390625 C 1.140625 2.390625 1.6875 1.984375 1.6875 1.203125 L 1.6875 -5.765625 Z M 1.6875 -8.015625 L 0.765625 -8.015625 L 0.765625 -6.859375 L 1.6875 -6.859375 Z M 1.6875 -8.015625 "/>
</symbol>
<symbol overflow="visible" id="glyph3-0">
<path style="stroke:none;" d=""/>
</symbol>
<symbol overflow="visible" id="glyph3-1">
<path style="stroke:none;" d="M 6.171875 0 L 8.890625 -8.0625 L 8.890625 0 L 10.046875 0 L 10.046875 -9.625 L 8.34375 -9.625 L 5.546875 -1.234375 L 2.6875 -9.625 L 0.984375 -9.625 L 0.984375 0 L 2.15625 0 L 2.15625 -8.0625 L 4.890625 0 Z M 6.171875 0 "/>
</symbol>
<symbol overflow="visible" id="glyph3-2">
<path style="stroke:none;" d="M 3.59375 -7.109375 C 1.640625 -7.109375 0.46875 -5.734375 0.46875 -3.40625 C 0.46875 -1.0625 1.640625 0.296875 3.609375 0.296875 C 5.5625 0.296875 6.734375 -1.078125 6.734375 -3.359375 C 6.734375 -5.75 5.59375 -7.109375 3.59375 -7.109375 Z M 3.609375 -6.09375 C 4.84375 -6.09375 5.578125 -5.078125 5.578125 -3.359375 C 5.578125 -1.734375 4.8125 -0.71875 3.609375 -0.71875 C 2.375 -0.71875 1.625 -1.734375 1.625 -3.40625 C 1.625 -5.078125 2.375 -6.09375 3.609375 -6.09375 Z M 3.609375 -6.09375 "/>
</symbol>
<symbol overflow="visible" id="glyph3-3">
<path style="stroke:none;" d="M 6.53125 -9.625 L 5.4375 -9.625 L 5.4375 -6.046875 C 4.984375 -6.75 4.234375 -7.109375 3.3125 -7.109375 C 1.515625 -7.109375 0.34375 -5.671875 0.34375 -3.46875 C 0.34375 -1.140625 1.484375 0.296875 3.359375 0.296875 C 4.296875 0.296875 4.96875 -0.046875 5.5625 -0.90625 L 5.5625 0 L 6.53125 0 Z M 3.5 -6.09375 C 4.6875 -6.09375 5.4375 -5.046875 5.4375 -3.375 C 5.4375 -1.78125 4.671875 -0.71875 3.515625 -0.71875 C 2.296875 -0.71875 1.484375 -1.796875 1.484375 -3.40625 C 1.484375 -5.015625 2.296875 -6.09375 3.5 -6.09375 Z M 3.5 -6.09375 "/>
</symbol>
<symbol overflow="visible" id="glyph3-4">
<path style="stroke:none;" d="M 6.765625 -3.09375 C 6.765625 -4.140625 6.6875 -4.78125 6.5 -5.296875 C 6.046875 -6.4375 4.984375 -7.109375 3.703125 -7.109375 C 1.765625 -7.109375 0.53125 -5.65625 0.53125 -3.359375 C 0.53125 -1.078125 1.71875 0.296875 3.671875 0.296875 C 5.25 0.296875 6.34375 -0.59375 6.625 -2.09375 L 5.515625 -2.09375 C 5.21875 -1.1875 4.59375 -0.71875 3.703125 -0.71875 C 3.015625 -0.71875 2.421875 -1.03125 2.046875 -1.609375 C 1.78125 -2 1.6875 -2.40625 1.671875 -3.09375 Z M 1.703125 -3.984375 C 1.796875 -5.265625 2.578125 -6.09375 3.6875 -6.09375 C 4.8125 -6.09375 5.578125 -5.234375 5.578125 -3.984375 Z M 1.703125 -3.984375 "/>
</symbol>
<symbol overflow="visible" id="glyph3-5">
<path style="stroke:none;" d="M 2 -9.625 L 0.890625 -9.625 L 0.890625 0 L 2 0 Z M 2 -9.625 "/>
</symbol>
<symbol overflow="visible" id="glyph3-6">
<path style="stroke:none;" d="M 5.78125 -4.984375 C 5.765625 -6.34375 4.875 -7.109375 3.28125 -7.109375 C 1.65625 -7.109375 0.625 -6.28125 0.625 -5 C 0.625 -3.921875 1.171875 -3.40625 2.8125 -3.015625 L 3.84375 -2.765625 C 4.609375 -2.578125 4.90625 -2.296875 4.90625 -1.8125 C 4.90625 -1.15625 4.265625 -0.71875 3.296875 -0.71875 C 2.703125 -0.71875 2.203125 -0.890625 1.921875 -1.171875 C 1.75 -1.375 1.671875 -1.578125 1.609375 -2.0625 L 0.453125 -2.0625 C 0.5 -0.46875 1.40625 0.296875 3.203125 0.296875 C 4.953125 0.296875 6.0625 -0.546875 6.0625 -1.890625 C 6.0625 -2.921875 5.484375 -3.484375 4.109375 -3.8125 L 3.046875 -4.0625 C 2.15625 -4.28125 1.765625 -4.5625 1.765625 -5.0625 C 1.765625 -5.703125 2.34375 -6.09375 3.234375 -6.09375 C 4.125 -6.09375 4.59375 -5.71875 4.625 -4.984375 Z M 5.78125 -4.984375 "/>
</symbol>
<symbol overflow="visible" id="glyph3-7">
<path style="stroke:none;" d="M 0.640625 -9.359375 L 0.640625 -7.890625 L 0.984375 -6.125 L 1.515625 -6.125 L 1.875 -7.890625 L 1.875 -9.359375 Z M 0.640625 -9.359375 "/>
</symbol>
<symbol overflow="visible" id="glyph3-8">
<path style="stroke:none;" d=""/>
</symbol>
<symbol overflow="visible" id="glyph3-9">
<path style="stroke:none;" d="M 3.359375 -6.921875 L 2.21875 -6.921875 L 2.21875 -8.8125 L 1.125 -8.8125 L 1.125 -6.921875 L 0.1875 -6.921875 L 0.1875 -6.015625 L 1.125 -6.015625 L 1.125 -0.796875 C 1.125 -0.078125 1.59375 0.296875 2.453125 0.296875 C 2.75 0.296875 2.984375 0.28125 3.359375 0.21875 L 3.359375 -0.71875 C 3.1875 -0.671875 3.046875 -0.65625 2.828125 -0.65625 C 2.34375 -0.65625 2.21875 -0.796875 2.21875 -1.28125 L 2.21875 -6.015625 L 3.359375 -6.015625 Z M 3.359375 -6.921875 "/>
</symbol>
<symbol overflow="visible" id="glyph3-10">
<path style="stroke:none;" d="M 1.984375 -6.921875 L 0.890625 -6.921875 L 0.890625 0 L 1.984375 0 Z M 1.984375 -9.625 L 0.875 -9.625 L 0.875 -8.234375 L 1.984375 -8.234375 Z M 1.984375 -9.625 "/>
</symbol>
<symbol overflow="visible" id="glyph3-11">
<path style="stroke:none;" d="M 0.921875 -6.921875 L 0.921875 0 L 2.03125 0 L 2.03125 -4.34375 C 2.03125 -5.34375 2.765625 -6.15625 3.65625 -6.15625 C 4.46875 -6.15625 4.9375 -5.65625 4.9375 -4.765625 L 4.9375 0 L 6.046875 0 L 6.046875 -4.34375 C 6.046875 -5.34375 6.765625 -6.15625 7.671875 -6.15625 C 8.46875 -6.15625 8.953125 -5.640625 8.953125 -4.765625 L 8.953125 0 L 10.0625 0 L 10.0625 -5.1875 C 10.0625 -6.4375 9.34375 -7.109375 8.046875 -7.109375 C 7.125 -7.109375 6.578125 -6.84375 5.921875 -6.0625 C 5.515625 -6.796875 4.96875 -7.109375 4.0625 -7.109375 C 3.140625 -7.109375 2.515625 -6.765625 1.9375 -5.9375 L 1.9375 -6.921875 Z M 0.921875 -6.921875 "/>
</symbol>
<symbol overflow="visible" id="glyph3-12">
<path style="stroke:none;" d="M 7.0625 -0.640625 C 6.9375 -0.625 6.890625 -0.625 6.828125 -0.625 C 6.4375 -0.625 6.234375 -0.8125 6.234375 -1.15625 L 6.234375 -5.234375 C 6.234375 -6.453125 5.328125 -7.109375 3.625 -7.109375 C 2.609375 -7.109375 1.8125 -6.828125 1.328125 -6.3125 C 1.015625 -5.953125 0.890625 -5.5625 0.859375 -4.875 L 1.96875 -4.875 C 2.0625 -5.71875 2.5625 -6.09375 3.59375 -6.09375 C 4.59375 -6.09375 5.140625 -5.734375 5.140625 -5.0625 L 5.140625 -4.78125 C 5.125 -4.296875 4.890625 -4.125 3.984375 -4.015625 C 2.421875 -3.8125 2.1875 -3.765625 1.765625 -3.59375 C 0.96875 -3.25 0.546875 -2.640625 0.546875 -1.75 C 0.546875 -0.484375 1.421875 0.296875 2.828125 0.296875 C 3.703125 0.296875 4.390625 0 5.171875 -0.71875 C 5.25 0 5.59375 0.296875 6.3125 0.296875 C 6.546875 0.296875 6.6875 0.28125 7.0625 0.1875 Z M 5.140625 -2.171875 C 5.140625 -1.8125 5.03125 -1.578125 4.703125 -1.28125 C 4.25 -0.875 3.703125 -0.65625 3.0625 -0.65625 C 2.203125 -0.65625 1.703125 -1.0625 1.703125 -1.765625 C 1.703125 -2.5 2.171875 -2.859375 3.359375 -3.03125 C 4.546875 -3.1875 4.765625 -3.25 5.140625 -3.421875 Z M 5.140625 -2.171875 "/>
</symbol>
</g>
<clipPath id="clip1">
  <path d="M 106.269531 144 L 265.355469 144 L 265.355469 146 L 106.269531 146 Z M 106.269531 144 "/>
</clipPath>
<clipPath id="clip2">
  <path d="M 106.269531 102 L 265.355469 102 L 265.355469 104 L 106.269531 104 Z M 106.269531 102 "/>
</clipPath>
<clipPath id="clip3">
  <path d="M 106.269531 61 L 265.355469 61 L 265.355469 62 L 106.269531 62 Z M 106.269531 61 "/>
</clipPath>
<clipPath id="clip4">
  <path d="M 142 29.4375 L 143 29.4375 L 143 176.367188 L 142 176.367188 Z M 142 29.4375 "/>
</clipPath>
<clipPath id="clip5">
  <path d="M 183 29.4375 L 185 29.4375 L 185 176.367188 L 183 176.367188 Z M 183 29.4375 "/>
</clipPath>
<clipPath id="clip6">
  <path d="M 225 29.4375 L 226 29.4375 L 226 176.367188 L 225 176.367188 Z M 225 29.4375 "/>
</clipPath>
<clipPath id="clip7">
  <path d="M 106.269531 165 L 265.355469 165 L 265.355469 167 L 106.269531 167 Z M 106.269531 165 "/>
</clipPath>
<clipPath id="clip8">
  <path d="M 106.269531 123 L 265.355469 123 L 265.355469 125 L 106.269531 125 Z M 106.269531 123 "/>
</clipPath>
<clipPath id="clip9">
  <path d="M 106.269531 81 L 265.355469 81 L 265.355469 84 L 106.269531 84 Z M 106.269531 81 "/>
</clipPath>
<clipPath id="clip10">
  <path d="M 106.269531 40 L 265.355469 40 L 265.355469 42 L 106.269531 42 Z M 106.269531 40 "/>
</clipPath>
<clipPath id="clip11">
  <path d="M 121 29.4375 L 123 29.4375 L 123 176.367188 L 121 176.367188 Z M 121 29.4375 "/>
</clipPath>
<clipPath id="clip12">
  <path d="M 162 29.4375 L 164 29.4375 L 164 176.367188 L 162 176.367188 Z M 162 29.4375 "/>
</clipPath>
<clipPath id="clip13">
  <path d="M 204 29.4375 L 206 29.4375 L 206 176.367188 L 204 176.367188 Z M 204 29.4375 "/>
</clipPath>
<clipPath id="clip14">
  <path d="M 245 29.4375 L 247 29.4375 L 247 176.367188 L 245 176.367188 Z M 245 29.4375 "/>
</clipPath>
<clipPath id="clip15">
  <path d="M 106.269531 29.4375 L 265.355469 29.4375 L 265.355469 176.367188 L 106.269531 176.367188 Z M 106.269531 29.4375 "/>
</clipPath>
<clipPath id="clip16">
  <path d="M 307.984375 166 L 499.398438 166 L 499.398438 167 L 307.984375 167 Z M 307.984375 166 "/>
</clipPath>
<clipPath id="clip17">
  <path d="M 307.984375 129 L 499.398438 129 L 499.398438 130 L 307.984375 130 Z M 307.984375 129 "/>
</clipPath>
<clipPath id="clip18">
  <path d="M 307.984375 92 L 499.398438 92 L 499.398438 94 L 307.984375 94 Z M 307.984375 92 "/>
</clipPath>
<clipPath id="clip19">
  <path d="M 307.984375 55 L 499.398438 55 L 499.398438 57 L 307.984375 57 Z M 307.984375 55 "/>
</clipPath>
<clipPath id="clip20">
  <path d="M 331 29.4375 L 333 29.4375 L 333 176.367188 L 331 176.367188 Z M 331 29.4375 "/>
</clipPath>
<clipPath id="clip21">
  <path d="M 377 29.4375 L 379 29.4375 L 379 176.367188 L 377 176.367188 Z M 377 29.4375 "/>
</clipPath>
<clipPath id="clip22">
  <path d="M 423 29.4375 L 425 29.4375 L 425 176.367188 L 423 176.367188 Z M 423 29.4375 "/>
</clipPath>
<clipPath id="clip23">
  <path d="M 469 29.4375 L 471 29.4375 L 471 176.367188 L 469 176.367188 Z M 469 29.4375 "/>
</clipPath>
<clipPath id="clip24">
  <path d="M 307.984375 147 L 499.398438 147 L 499.398438 149 L 307.984375 149 Z M 307.984375 147 "/>
</clipPath>
<clipPath id="clip25">
  <path d="M 307.984375 110 L 499.398438 110 L 499.398438 112 L 307.984375 112 Z M 307.984375 110 "/>
</clipPath>
<clipPath id="clip26">
  <path d="M 307.984375 73 L 499.398438 73 L 499.398438 75 L 307.984375 75 Z M 307.984375 73 "/>
</clipPath>
<clipPath id="clip27">
  <path d="M 307.984375 37 L 499.398438 37 L 499.398438 39 L 307.984375 39 Z M 307.984375 37 "/>
</clipPath>
<clipPath id="clip28">
  <path d="M 308 29.4375 L 310 29.4375 L 310 176.367188 L 308 176.367188 Z M 308 29.4375 "/>
</clipPath>
<clipPath id="clip29">
  <path d="M 354 29.4375 L 356 29.4375 L 356 176.367188 L 354 176.367188 Z M 354 29.4375 "/>
</clipPath>
<clipPath id="clip30">
  <path d="M 400 29.4375 L 402 29.4375 L 402 176.367188 L 400 176.367188 Z M 400 29.4375 "/>
</clipPath>
<clipPath id="clip31">
  <path d="M 446 29.4375 L 448 29.4375 L 448 176.367188 L 446 176.367188 Z M 446 29.4375 "/>
</clipPath>
<clipPath id="clip32">
  <path d="M 492 29.4375 L 494 29.4375 L 494 176.367188 L 492 176.367188 Z M 492 29.4375 "/>
</clipPath>
<clipPath id="clip33">
  <path d="M 307.984375 29.4375 L 499.398438 29.4375 L 499.398438 176.367188 L 307.984375 176.367188 Z M 307.984375 29.4375 "/>
</clipPath>
</defs>
<g id="surface155">
<rect x="0" y="0" width="576" height="216" style="fill:rgb(100%,100%,100%);fill-opacity:1;stroke:none;"/>
<g clip-path="url(#clip1)" clip-rule="nonzero">
<path style="fill:none;stroke-width:0.533489;stroke-linecap:butt;stroke-linejoin:round;stroke:rgb(92.156863%,92.156863%,92.156863%);stroke-opacity:1;stroke-miterlimit:10;" d="M 106.269531 144.789062 L 265.355469 144.789062 "/>
</g>
<g clip-path="url(#clip2)" clip-rule="nonzero">
<path style="fill:none;stroke-width:0.533489;stroke-linecap:butt;stroke-linejoin:round;stroke:rgb(92.156863%,92.156863%,92.156863%);stroke-opacity:1;stroke-miterlimit:10;" d="M 106.269531 103.261719 L 265.355469 103.261719 "/>
</g>
<g clip-path="url(#clip3)" clip-rule="nonzero">
<path style="fill:none;stroke-width:0.533489;stroke-linecap:butt;stroke-linejoin:round;stroke:rgb(92.156863%,92.156863%,92.156863%);stroke-opacity:1;stroke-miterlimit:10;" d="M 106.269531 61.734375 L 265.355469 61.734375 "/>
</g>
<g clip-path="url(#clip4)" clip-rule="nonzero">
<path style="fill:none;stroke-width:0.533489;stroke-linecap:butt;stroke-linejoin:round;stroke:rgb(92.156863%,92.156863%,92.156863%);stroke-opacity:1;stroke-miterlimit:10;" d="M 142.59375 176.371094 L 142.59375 29.4375 "/>
</g>
<g clip-path="url(#clip5)" clip-rule="nonzero">
<path style="fill:none;stroke-width:0.533489;stroke-linecap:butt;stroke-linejoin:round;stroke:rgb(92.156863%,92.156863%,92.156863%);stroke-opacity:1;stroke-miterlimit:10;" d="M 184.121094 176.371094 L 184.121094 29.4375 "/>
</g>
<g clip-path="url(#clip6)" clip-rule="nonzero">
<path style="fill:none;stroke-width:0.533489;stroke-linecap:butt;stroke-linejoin:round;stroke:rgb(92.156863%,92.156863%,92.156863%);stroke-opacity:1;stroke-miterlimit:10;" d="M 225.648438 176.371094 L 225.648438 29.4375 "/>
</g>
<g clip-path="url(#clip7)" clip-rule="nonzero">
<path style="fill:none;stroke-width:1.066978;stroke-linecap:butt;stroke-linejoin:round;stroke:rgb(92.156863%,92.156863%,92.156863%);stroke-opacity:1;stroke-miterlimit:10;" d="M 106.269531 165.550781 L 265.355469 165.550781 "/>
</g>
<g clip-path="url(#clip8)" clip-rule="nonzero">
<path style="fill:none;stroke-width:1.066978;stroke-linecap:butt;stroke-linejoin:round;stroke:rgb(92.156863%,92.156863%,92.156863%);stroke-opacity:1;stroke-miterlimit:10;" d="M 106.269531 124.023438 L 265.355469 124.023438 "/>
</g>
<g clip-path="url(#clip9)" clip-rule="nonzero">
<path style="fill:none;stroke-width:1.066978;stroke-linecap:butt;stroke-linejoin:round;stroke:rgb(92.156863%,92.156863%,92.156863%);stroke-opacity:1;stroke-miterlimit:10;" d="M 106.269531 82.496094 L 265.355469 82.496094 "/>
</g>
<g clip-path="url(#clip10)" clip-rule="nonzero">
<path style="fill:none;stroke-width:1.066978;stroke-linecap:butt;stroke-linejoin:round;stroke:rgb(92.156863%,92.156863%,92.156863%);stroke-opacity:1;stroke-miterlimit:10;" d="M 106.269531 40.96875 L 265.355469 40.96875 "/>
</g>
<g clip-path="url(#clip11)" clip-rule="nonzero">
<path style="fill:none;stroke-width:1.066978;stroke-linecap:butt;stroke-linejoin:round;stroke:rgb(92.156863%,92.156863%,92.156863%);stroke-opacity:1;stroke-miterlimit:10;" d="M 121.832031 176.371094 L 121.832031 29.4375 "/>
</g>
<g clip-path="url(#clip12)" clip-rule="nonzero">
<path style="fill:none;stroke-width:1.066978;stroke-linecap:butt;stroke-linejoin:round;stroke:rgb(92.156863%,92.156863%,92.156863%);stroke-opacity:1;stroke-miterlimit:10;" d="M 163.359375 176.371094 L 163.359375 29.4375 "/>
</g>
<g clip-path="url(#clip13)" clip-rule="nonzero">
<path style="fill:none;stroke-width:1.066978;stroke-linecap:butt;stroke-linejoin:round;stroke:rgb(92.156863%,92.156863%,92.156863%);stroke-opacity:1;stroke-miterlimit:10;" d="M 204.886719 176.371094 L 204.886719 29.4375 "/>
</g>
<g clip-path="url(#clip14)" clip-rule="nonzero">
<path style="fill:none;stroke-width:1.066978;stroke-linecap:butt;stroke-linejoin:round;stroke:rgb(92.156863%,92.156863%,92.156863%);stroke-opacity:1;stroke-miterlimit:10;" d="M 246.414062 176.371094 L 246.414062 29.4375 "/>
</g>
<path style="fill-rule:nonzero;fill:rgb(0%,0%,0%);fill-opacity:1;stroke-width:0.708661;stroke-linecap:round;stroke-linejoin:round;stroke:rgb(0%,0%,0%);stroke-opacity:1;stroke-miterlimit:10;" d="M 193.753906 87.976562 C 193.753906 90.582031 189.84375 90.582031 189.84375 87.976562 C 189.84375 85.367188 193.753906 85.367188 193.753906 87.976562 "/>
<path style="fill-rule:nonzero;fill:rgb(0%,0%,0%);fill-opacity:1;stroke-width:0.708661;stroke-linecap:round;stroke-linejoin:round;stroke:rgb(0%,0%,0%);stroke-opacity:1;stroke-miterlimit:10;" d="M 115.457031 169.691406 C 115.457031 172.296875 111.546875 172.296875 111.546875 169.691406 C 111.546875 167.085938 115.457031 167.085938 115.457031 169.691406 "/>
<path style="fill-rule:nonzero;fill:rgb(0%,0%,0%);fill-opacity:1;stroke-width:0.708661;stroke-linecap:round;stroke-linejoin:round;stroke:rgb(0%,0%,0%);stroke-opacity:1;stroke-miterlimit:10;" d="M 260.078125 36.117188 C 260.078125 38.722656 256.171875 38.722656 256.171875 36.117188 C 256.171875 33.511719 260.078125 33.511719 260.078125 36.117188 "/>
<path style="fill-rule:nonzero;fill:rgb(0%,0%,0%);fill-opacity:1;stroke-width:0.708661;stroke-linecap:round;stroke-linejoin:round;stroke:rgb(0%,0%,0%);stroke-opacity:1;stroke-miterlimit:10;" d="M 198.914062 95.878906 C 198.914062 98.484375 195.003906 98.484375 195.003906 95.878906 C 195.003906 93.269531 198.914062 93.269531 198.914062 95.878906 "/>
<path style="fill-rule:nonzero;fill:rgb(0%,0%,0%);fill-opacity:1;stroke-width:0.708661;stroke-linecap:round;stroke-linejoin:round;stroke:rgb(0%,0%,0%);stroke-opacity:1;stroke-miterlimit:10;" d="M 173.726562 115.097656 C 173.726562 117.703125 169.816406 117.703125 169.816406 115.097656 C 169.816406 112.492188 173.726562 112.492188 173.726562 115.097656 "/>
<g clip-path="url(#clip15)" clip-rule="nonzero">
<path style="fill:none;stroke-width:1.066978;stroke-linecap:butt;stroke-linejoin:round;stroke:rgb(0%,0%,0%);stroke-opacity:1;stroke-dasharray:4.267913,4.267913;stroke-miterlimit:10;" d="M -52.816406 340.199219 L 424.441406 -137.058594 "/>
</g>
<g style="fill:rgb(30.196078%,30.196078%,30.196078%);fill-opacity:1;">
  <use xlink:href="#glyph0-1" x="96.339844" y="168.46582"/>
</g>
<g style="fill:rgb(30.196078%,30.196078%,30.196078%);fill-opacity:1;">
  <use xlink:href="#glyph0-2" x="91.339844" y="126.938477"/>
  <use xlink:href="#glyph0-3" x="96.339844" y="126.938477"/>
</g>
<g style="fill:rgb(30.196078%,30.196078%,30.196078%);fill-opacity:1;">
  <use xlink:href="#glyph0-2" x="91.339844" y="85.411133"/>
  <use xlink:href="#glyph0-1" x="96.339844" y="85.411133"/>
</g>
<g style="fill:rgb(30.196078%,30.196078%,30.196078%);fill-opacity:1;">
  <use xlink:href="#glyph0-4" x="91.339844" y="43.883789"/>
  <use xlink:href="#glyph0-3" x="96.339844" y="43.883789"/>
</g>
<g style="fill:rgb(0%,0%,0%);fill-opacity:1;">
  <use xlink:href="#glyph1-1" x="84.616211" y="132.902344"/>
  <use xlink:href="#glyph1-2" x="84.616211" y="123.902344"/>
  <use xlink:href="#glyph1-3" x="84.616211" y="121.902344"/>
  <use xlink:href="#glyph1-4" x="84.616211" y="116.902344"/>
  <use xlink:href="#glyph1-5" x="84.616211" y="110.902344"/>
  <use xlink:href="#glyph1-6" x="84.616211" y="104.902344"/>
  <use xlink:href="#glyph1-7" x="84.616211" y="101.902344"/>
  <use xlink:href="#glyph1-8" x="84.616211" y="92.902344"/>
  <use xlink:href="#glyph1-5" x="84.616211" y="86.902344"/>
  <use xlink:href="#glyph1-4" x="84.616211" y="80.902344"/>
  <use xlink:href="#glyph1-9" x="84.616211" y="74.902344"/>
</g>
<g style="fill:rgb(30.196078%,30.196078%,30.196078%);fill-opacity:1;">
  <use xlink:href="#glyph0-1" x="119.332031" y="187.71582"/>
</g>
<g style="fill:rgb(30.196078%,30.196078%,30.196078%);fill-opacity:1;">
  <use xlink:href="#glyph0-2" x="158.359375" y="187.71582"/>
  <use xlink:href="#glyph0-3" x="163.359375" y="187.71582"/>
</g>
<g style="fill:rgb(30.196078%,30.196078%,30.196078%);fill-opacity:1;">
  <use xlink:href="#glyph0-2" x="199.886719" y="187.71582"/>
  <use xlink:href="#glyph0-1" x="204.886719" y="187.71582"/>
</g>
<g style="fill:rgb(30.196078%,30.196078%,30.196078%);fill-opacity:1;">
  <use xlink:href="#glyph0-4" x="241.414062" y="187.71582"/>
  <use xlink:href="#glyph0-3" x="246.414062" y="187.71582"/>
</g>
<g style="fill:rgb(0%,0%,0%);fill-opacity:1;">
  <use xlink:href="#glyph2-1" x="93.8125" y="201.061523"/>
  <use xlink:href="#glyph2-2" x="100.8125" y="201.061523"/>
  <use xlink:href="#glyph2-3" x="106.8125" y="201.061523"/>
  <use xlink:href="#glyph2-4" x="112.8125" y="201.061523"/>
  <use xlink:href="#glyph2-5" x="118.8125" y="201.061523"/>
  <use xlink:href="#glyph2-4" x="122.8125" y="201.061523"/>
  <use xlink:href="#glyph2-6" x="128.8125" y="201.061523"/>
  <use xlink:href="#glyph2-2" x="131.8125" y="201.061523"/>
  <use xlink:href="#glyph2-7" x="137.8125" y="201.061523"/>
  <use xlink:href="#glyph2-8" x="140.8125" y="201.061523"/>
  <use xlink:href="#glyph2-9" x="142.8125" y="201.061523"/>
  <use xlink:href="#glyph2-10" x="144.8125" y="201.061523"/>
  <use xlink:href="#glyph2-2" x="150.8125" y="201.061523"/>
  <use xlink:href="#glyph2-4" x="156.8125" y="201.061523"/>
  <use xlink:href="#glyph2-5" x="162.8125" y="201.061523"/>
  <use xlink:href="#glyph2-7" x="166.8125" y="201.061523"/>
  <use xlink:href="#glyph2-11" x="169.8125" y="201.061523"/>
  <use xlink:href="#glyph2-12" x="178.8125" y="201.061523"/>
  <use xlink:href="#glyph2-13" x="184.8125" y="201.061523"/>
  <use xlink:href="#glyph2-2" x="190.8125" y="201.061523"/>
  <use xlink:href="#glyph2-8" x="196.8125" y="201.061523"/>
  <use xlink:href="#glyph2-7" x="198.8125" y="201.061523"/>
  <use xlink:href="#glyph2-14" x="201.8125" y="201.061523"/>
  <use xlink:href="#glyph2-12" x="204.8125" y="201.061523"/>
  <use xlink:href="#glyph2-5" x="210.8125" y="201.061523"/>
  <use xlink:href="#glyph2-7" x="214.8125" y="201.061523"/>
  <use xlink:href="#glyph2-2" x="217.8125" y="201.061523"/>
  <use xlink:href="#glyph2-4" x="223.8125" y="201.061523"/>
  <use xlink:href="#glyph2-15" x="229.8125" y="201.061523"/>
  <use xlink:href="#glyph2-16" x="234.8125" y="201.061523"/>
  <use xlink:href="#glyph2-7" x="240.8125" y="201.061523"/>
  <use xlink:href="#glyph2-17" x="243.8125" y="201.061523"/>
  <use xlink:href="#glyph2-18" x="248.8125" y="201.061523"/>
  <use xlink:href="#glyph2-19" x="254.8125" y="201.061523"/>
  <use xlink:href="#glyph2-20" x="260.8125" y="201.061523"/>
  <use xlink:href="#glyph2-2" x="262.8125" y="201.061523"/>
  <use xlink:href="#glyph2-15" x="268.8125" y="201.061523"/>
  <use xlink:href="#glyph2-6" x="274.8125" y="201.061523"/>
</g>
<g style="fill:rgb(0%,0%,0%);fill-opacity:1;">
  <use xlink:href="#glyph3-1" x="106.269531" y="20.579102"/>
  <use xlink:href="#glyph3-2" x="117.269531" y="20.579102"/>
  <use xlink:href="#glyph3-3" x="124.269531" y="20.579102"/>
  <use xlink:href="#glyph3-4" x="131.269531" y="20.579102"/>
  <use xlink:href="#glyph3-5" x="138.269531" y="20.579102"/>
  <use xlink:href="#glyph3-6" x="141.269531" y="20.579102"/>
  <use xlink:href="#glyph3-7" x="148.269531" y="20.579102"/>
  <use xlink:href="#glyph3-8" x="151.269531" y="20.579102"/>
  <use xlink:href="#glyph3-4" x="155.269531" y="20.579102"/>
  <use xlink:href="#glyph3-6" x="162.269531" y="20.579102"/>
  <use xlink:href="#glyph3-9" x="169.269531" y="20.579102"/>
  <use xlink:href="#glyph3-10" x="173.269531" y="20.579102"/>
  <use xlink:href="#glyph3-11" x="176.269531" y="20.579102"/>
  <use xlink:href="#glyph3-12" x="187.269531" y="20.579102"/>
  <use xlink:href="#glyph3-9" x="194.269531" y="20.579102"/>
  <use xlink:href="#glyph3-4" x="197.269531" y="20.579102"/>
  <use xlink:href="#glyph3-6" x="204.269531" y="20.579102"/>
</g>
<g clip-path="url(#clip16)" clip-rule="nonzero">
<path style="fill:none;stroke-width:0.533489;stroke-linecap:butt;stroke-linejoin:round;stroke:rgb(92.156863%,92.156863%,92.156863%);stroke-opacity:1;stroke-miterlimit:10;" d="M 307.984375 166.429688 L 499.402344 166.429688 "/>
</g>
<g clip-path="url(#clip17)" clip-rule="nonzero">
<path style="fill:none;stroke-width:0.533489;stroke-linecap:butt;stroke-linejoin:round;stroke:rgb(92.156863%,92.156863%,92.156863%);stroke-opacity:1;stroke-miterlimit:10;" d="M 307.984375 129.628906 L 499.402344 129.628906 "/>
</g>
<g clip-path="url(#clip18)" clip-rule="nonzero">
<path style="fill:none;stroke-width:0.533489;stroke-linecap:butt;stroke-linejoin:round;stroke:rgb(92.156863%,92.156863%,92.156863%);stroke-opacity:1;stroke-miterlimit:10;" d="M 307.984375 92.828125 L 499.402344 92.828125 "/>
</g>
<g clip-path="url(#clip19)" clip-rule="nonzero">
<path style="fill:none;stroke-width:0.533489;stroke-linecap:butt;stroke-linejoin:round;stroke:rgb(92.156863%,92.156863%,92.156863%);stroke-opacity:1;stroke-miterlimit:10;" d="M 307.984375 56.027344 L 499.402344 56.027344 "/>
</g>
<g clip-path="url(#clip20)" clip-rule="nonzero">
<path style="fill:none;stroke-width:0.533489;stroke-linecap:butt;stroke-linejoin:round;stroke:rgb(92.156863%,92.156863%,92.156863%);stroke-opacity:1;stroke-miterlimit:10;" d="M 331.800781 176.371094 L 331.800781 29.4375 "/>
</g>
<g clip-path="url(#clip21)" clip-rule="nonzero">
<path style="fill:none;stroke-width:0.533489;stroke-linecap:butt;stroke-linejoin:round;stroke:rgb(92.156863%,92.156863%,92.156863%);stroke-opacity:1;stroke-miterlimit:10;" d="M 377.800781 176.371094 L 377.800781 29.4375 "/>
</g>
<g clip-path="url(#clip22)" clip-rule="nonzero">
<path style="fill:none;stroke-width:0.533489;stroke-linecap:butt;stroke-linejoin:round;stroke:rgb(92.156863%,92.156863%,92.156863%);stroke-opacity:1;stroke-miterlimit:10;" d="M 423.800781 176.371094 L 423.800781 29.4375 "/>
</g>
<g clip-path="url(#clip23)" clip-rule="nonzero">
<path style="fill:none;stroke-width:0.533489;stroke-linecap:butt;stroke-linejoin:round;stroke:rgb(92.156863%,92.156863%,92.156863%);stroke-opacity:1;stroke-miterlimit:10;" d="M 469.800781 176.371094 L 469.800781 29.4375 "/>
</g>
<g clip-path="url(#clip24)" clip-rule="nonzero">
<path style="fill:none;stroke-width:1.066978;stroke-linecap:butt;stroke-linejoin:round;stroke:rgb(92.156863%,92.156863%,92.156863%);stroke-opacity:1;stroke-miterlimit:10;" d="M 307.984375 148.027344 L 499.402344 148.027344 "/>
</g>
<g clip-path="url(#clip25)" clip-rule="nonzero">
<path style="fill:none;stroke-width:1.066978;stroke-linecap:butt;stroke-linejoin:round;stroke:rgb(92.156863%,92.156863%,92.156863%);stroke-opacity:1;stroke-miterlimit:10;" d="M 307.984375 111.226562 L 499.402344 111.226562 "/>
</g>
<g clip-path="url(#clip26)" clip-rule="nonzero">
<path style="fill:none;stroke-width:1.066978;stroke-linecap:butt;stroke-linejoin:round;stroke:rgb(92.156863%,92.156863%,92.156863%);stroke-opacity:1;stroke-miterlimit:10;" d="M 307.984375 74.425781 L 499.402344 74.425781 "/>
</g>
<g clip-path="url(#clip27)" clip-rule="nonzero">
<path style="fill:none;stroke-width:1.066978;stroke-linecap:butt;stroke-linejoin:round;stroke:rgb(92.156863%,92.156863%,92.156863%);stroke-opacity:1;stroke-miterlimit:10;" d="M 307.984375 37.625 L 499.402344 37.625 "/>
</g>
<g clip-path="url(#clip28)" clip-rule="nonzero">
<path style="fill:none;stroke-width:1.066978;stroke-linecap:butt;stroke-linejoin:round;stroke:rgb(92.156863%,92.156863%,92.156863%);stroke-opacity:1;stroke-miterlimit:10;" d="M 308.800781 176.371094 L 308.800781 29.4375 "/>
</g>
<g clip-path="url(#clip29)" clip-rule="nonzero">
<path style="fill:none;stroke-width:1.066978;stroke-linecap:butt;stroke-linejoin:round;stroke:rgb(92.156863%,92.156863%,92.156863%);stroke-opacity:1;stroke-miterlimit:10;" d="M 354.800781 176.371094 L 354.800781 29.4375 "/>
</g>
<g clip-path="url(#clip30)" clip-rule="nonzero">
<path style="fill:none;stroke-width:1.066978;stroke-linecap:butt;stroke-linejoin:round;stroke:rgb(92.156863%,92.156863%,92.156863%);stroke-opacity:1;stroke-miterlimit:10;" d="M 400.800781 176.371094 L 400.800781 29.4375 "/>
</g>
<g clip-path="url(#clip31)" clip-rule="nonzero">
<path style="fill:none;stroke-width:1.066978;stroke-linecap:butt;stroke-linejoin:round;stroke:rgb(92.156863%,92.156863%,92.156863%);stroke-opacity:1;stroke-miterlimit:10;" d="M 446.800781 176.371094 L 446.800781 29.4375 "/>
</g>
<g clip-path="url(#clip32)" clip-rule="nonzero">
<path style="fill:none;stroke-width:1.066978;stroke-linecap:butt;stroke-linejoin:round;stroke:rgb(92.156863%,92.156863%,92.156863%);stroke-opacity:1;stroke-miterlimit:10;" d="M 492.804688 176.371094 L 492.804688 29.4375 "/>
</g>
<path style="fill-rule:nonzero;fill:rgb(0%,0%,0%);fill-opacity:1;stroke-width:0.708661;stroke-linecap:round;stroke-linejoin:round;stroke:rgb(0%,0%,0%);stroke-opacity:1;stroke-miterlimit:10;" d="M 492.65625 36.117188 C 492.65625 38.722656 488.746094 38.722656 488.746094 36.117188 C 488.746094 33.511719 492.65625 33.511719 492.65625 36.117188 "/>
<path style="fill-rule:nonzero;fill:rgb(0%,0%,0%);fill-opacity:1;stroke-width:0.708661;stroke-linecap:round;stroke-linejoin:round;stroke:rgb(0%,0%,0%);stroke-opacity:1;stroke-miterlimit:10;" d="M 440.3125 72.554688 C 440.3125 75.160156 436.402344 75.160156 436.402344 72.554688 C 436.402344 69.949219 440.3125 69.949219 440.3125 72.554688 "/>
<path style="fill-rule:nonzero;fill:rgb(0%,0%,0%);fill-opacity:1;stroke-width:0.708661;stroke-linecap:round;stroke-linejoin:round;stroke:rgb(0%,0%,0%);stroke-opacity:1;stroke-miterlimit:10;" d="M 318.640625 169.691406 C 318.640625 172.296875 314.730469 172.296875 314.730469 169.691406 C 314.730469 167.085938 318.640625 167.085938 318.640625 169.691406 "/>
<path style="fill-rule:nonzero;fill:rgb(0%,0%,0%);fill-opacity:1;stroke-width:0.708661;stroke-linecap:round;stroke-linejoin:round;stroke:rgb(0%,0%,0%);stroke-opacity:1;stroke-miterlimit:10;" d="M 328.992188 159.566406 C 328.992188 162.171875 325.082031 162.171875 325.082031 159.566406 C 325.082031 156.960938 328.992188 156.960938 328.992188 159.566406 "/>
<path style="fill-rule:nonzero;fill:rgb(0%,0%,0%);fill-opacity:1;stroke-width:0.708661;stroke-linecap:round;stroke-linejoin:round;stroke:rgb(0%,0%,0%);stroke-opacity:1;stroke-miterlimit:10;" d="M 401.046875 104.34375 C 401.046875 106.949219 397.136719 106.949219 397.136719 104.34375 C 397.136719 101.738281 401.046875 101.738281 401.046875 104.34375 "/>
<g clip-path="url(#clip33)" clip-rule="nonzero">
<path style="fill:none;stroke-width:1.066978;stroke-linecap:butt;stroke-linejoin:round;stroke:rgb(0%,0%,0%);stroke-opacity:1;stroke-dasharray:4.267913,4.267913;stroke-miterlimit:10;" d="M 116.570312 386.257812 L 690.816406 -187.984375 "/>
</g>
<g style="fill:rgb(30.196078%,30.196078%,30.196078%);fill-opacity:1;">
  <use xlink:href="#glyph0-3" x="291.054688" y="150.942383"/>
  <use xlink:href="#glyph0-5" x="296.054688" y="150.942383"/>
  <use xlink:href="#glyph0-3" x="298.054688" y="150.942383"/>
</g>
<g style="fill:rgb(30.196078%,30.196078%,30.196078%);fill-opacity:1;">
  <use xlink:href="#glyph0-3" x="291.054688" y="114.141602"/>
  <use xlink:href="#glyph0-5" x="296.054688" y="114.141602"/>
  <use xlink:href="#glyph0-6" x="298.054688" y="114.141602"/>
</g>
<g style="fill:rgb(30.196078%,30.196078%,30.196078%);fill-opacity:1;">
  <use xlink:href="#glyph0-3" x="291.054688" y="77.34082"/>
  <use xlink:href="#glyph0-5" x="296.054688" y="77.34082"/>
  <use xlink:href="#glyph0-7" x="298.054688" y="77.34082"/>
</g>
<g style="fill:rgb(30.196078%,30.196078%,30.196078%);fill-opacity:1;">
  <use xlink:href="#glyph0-2" x="291.054688" y="40.540039"/>
  <use xlink:href="#glyph0-5" x="296.054688" y="40.540039"/>
  <use xlink:href="#glyph0-4" x="298.054688" y="40.540039"/>
</g>
<g style="fill:rgb(0%,0%,0%);fill-opacity:1;">
  <use xlink:href="#glyph1-1" x="284.334961" y="132.902344"/>
  <use xlink:href="#glyph1-2" x="284.334961" y="123.902344"/>
  <use xlink:href="#glyph1-3" x="284.334961" y="121.902344"/>
  <use xlink:href="#glyph1-4" x="284.334961" y="116.902344"/>
  <use xlink:href="#glyph1-5" x="284.334961" y="110.902344"/>
  <use xlink:href="#glyph1-6" x="284.334961" y="104.902344"/>
  <use xlink:href="#glyph1-7" x="284.334961" y="101.902344"/>
  <use xlink:href="#glyph1-8" x="284.334961" y="92.902344"/>
  <use xlink:href="#glyph1-5" x="284.334961" y="86.902344"/>
  <use xlink:href="#glyph1-4" x="284.334961" y="80.902344"/>
  <use xlink:href="#glyph1-9" x="284.334961" y="74.902344"/>
</g>
<g style="fill:rgb(30.196078%,30.196078%,30.196078%);fill-opacity:1;">
  <use xlink:href="#glyph0-8" x="301.300781" y="187.71582"/>
  <use xlink:href="#glyph0-3" x="304.300781" y="187.71582"/>
  <use xlink:href="#glyph0-5" x="309.300781" y="187.71582"/>
  <use xlink:href="#glyph0-1" x="311.300781" y="187.71582"/>
</g>
<g style="fill:rgb(30.196078%,30.196078%,30.196078%);fill-opacity:1;">
  <use xlink:href="#glyph0-3" x="348.800781" y="187.71582"/>
  <use xlink:href="#glyph0-5" x="353.800781" y="187.71582"/>
  <use xlink:href="#glyph0-3" x="355.800781" y="187.71582"/>
</g>
<g style="fill:rgb(30.196078%,30.196078%,30.196078%);fill-opacity:1;">
  <use xlink:href="#glyph0-3" x="394.800781" y="187.71582"/>
  <use xlink:href="#glyph0-5" x="399.800781" y="187.71582"/>
  <use xlink:href="#glyph0-1" x="401.800781" y="187.71582"/>
</g>
<g style="fill:rgb(30.196078%,30.196078%,30.196078%);fill-opacity:1;">
  <use xlink:href="#glyph0-2" x="440.800781" y="187.71582"/>
  <use xlink:href="#glyph0-5" x="445.800781" y="187.71582"/>
  <use xlink:href="#glyph0-3" x="447.800781" y="187.71582"/>
</g>
<g style="fill:rgb(30.196078%,30.196078%,30.196078%);fill-opacity:1;">
  <use xlink:href="#glyph0-2" x="486.804688" y="187.71582"/>
  <use xlink:href="#glyph0-5" x="491.804688" y="187.71582"/>
  <use xlink:href="#glyph0-1" x="493.804688" y="187.71582"/>
</g>
<g style="fill:rgb(0%,0%,0%);fill-opacity:1;">
  <use xlink:href="#glyph2-1" x="311.695312" y="201.061523"/>
  <use xlink:href="#glyph2-2" x="318.695312" y="201.061523"/>
  <use xlink:href="#glyph2-3" x="324.695312" y="201.061523"/>
  <use xlink:href="#glyph2-4" x="330.695312" y="201.061523"/>
  <use xlink:href="#glyph2-5" x="336.695312" y="201.061523"/>
  <use xlink:href="#glyph2-4" x="340.695312" y="201.061523"/>
  <use xlink:href="#glyph2-6" x="346.695312" y="201.061523"/>
  <use xlink:href="#glyph2-2" x="349.695312" y="201.061523"/>
  <use xlink:href="#glyph2-7" x="355.695312" y="201.061523"/>
  <use xlink:href="#glyph2-8" x="358.695312" y="201.061523"/>
  <use xlink:href="#glyph2-9" x="360.695312" y="201.061523"/>
  <use xlink:href="#glyph2-10" x="362.695312" y="201.061523"/>
  <use xlink:href="#glyph2-2" x="368.695312" y="201.061523"/>
  <use xlink:href="#glyph2-4" x="374.695312" y="201.061523"/>
  <use xlink:href="#glyph2-5" x="380.695312" y="201.061523"/>
  <use xlink:href="#glyph2-7" x="384.695312" y="201.061523"/>
  <use xlink:href="#glyph2-11" x="387.695312" y="201.061523"/>
  <use xlink:href="#glyph2-12" x="396.695312" y="201.061523"/>
  <use xlink:href="#glyph2-13" x="402.695312" y="201.061523"/>
  <use xlink:href="#glyph2-2" x="408.695312" y="201.061523"/>
  <use xlink:href="#glyph2-8" x="414.695312" y="201.061523"/>
  <use xlink:href="#glyph2-7" x="416.695312" y="201.061523"/>
  <use xlink:href="#glyph2-14" x="419.695312" y="201.061523"/>
  <use xlink:href="#glyph2-12" x="422.695312" y="201.061523"/>
  <use xlink:href="#glyph2-5" x="428.695312" y="201.061523"/>
  <use xlink:href="#glyph2-7" x="432.695312" y="201.061523"/>
  <use xlink:href="#glyph2-2" x="435.695312" y="201.061523"/>
  <use xlink:href="#glyph2-4" x="441.695312" y="201.061523"/>
  <use xlink:href="#glyph2-15" x="447.695312" y="201.061523"/>
  <use xlink:href="#glyph2-16" x="452.695312" y="201.061523"/>
  <use xlink:href="#glyph2-7" x="458.695312" y="201.061523"/>
  <use xlink:href="#glyph2-17" x="461.695312" y="201.061523"/>
  <use xlink:href="#glyph2-18" x="466.695312" y="201.061523"/>
  <use xlink:href="#glyph2-19" x="472.695312" y="201.061523"/>
  <use xlink:href="#glyph2-20" x="478.695312" y="201.061523"/>
  <use xlink:href="#glyph2-2" x="480.695312" y="201.061523"/>
  <use xlink:href="#glyph2-15" x="486.695312" y="201.061523"/>
  <use xlink:href="#glyph2-6" x="492.695312" y="201.061523"/>
</g>
<g style="fill:rgb(0%,0%,0%);fill-opacity:1;">
  <use xlink:href="#glyph3-1" x="307.984375" y="20.579102"/>
  <use xlink:href="#glyph3-2" x="318.984375" y="20.579102"/>
  <use xlink:href="#glyph3-3" x="325.984375" y="20.579102"/>
  <use xlink:href="#glyph3-4" x="332.984375" y="20.579102"/>
  <use xlink:href="#glyph3-5" x="339.984375" y="20.579102"/>
  <use xlink:href="#glyph3-6" x="342.984375" y="20.579102"/>
  <use xlink:href="#glyph3-7" x="349.984375" y="20.579102"/>
  <use xlink:href="#glyph3-8" x="352.984375" y="20.579102"/>
  <use xlink:href="#glyph3-4" x="356.984375" y="20.579102"/>
  <use xlink:href="#glyph3-6" x="363.984375" y="20.579102"/>
  <use xlink:href="#glyph3-9" x="370.984375" y="20.579102"/>
  <use xlink:href="#glyph3-10" x="374.984375" y="20.579102"/>
  <use xlink:href="#glyph3-11" x="377.984375" y="20.579102"/>
  <use xlink:href="#glyph3-12" x="388.984375" y="20.579102"/>
  <use xlink:href="#glyph3-9" x="395.984375" y="20.579102"/>
  <use xlink:href="#glyph3-4" x="398.984375" y="20.579102"/>
  <use xlink:href="#glyph3-6" x="405.984375" y="20.579102"/>
</g>
</g>
</svg>
