<?xml version="1.0" encoding="UTF-8"?>
<svg xmlns="http://www.w3.org/2000/svg" xmlns:xlink="http://www.w3.org/1999/xlink" class="svglite" width="576.00pt" height="288.00pt" viewBox="0 0 576.00 288.00">
<defs>
  <style type="text/css"><![CDATA[
    .svglite line, .svglite polyline, .svglite polygon, .svglite path, .svglite rect, .svglite circle {
      fill: none;
      stroke: #000000;
      stroke-linecap: round;
      stroke-linejoin: round;
      stroke-miterlimit: 10.00;
    }
    .svglite text {
      white-space: pre;
    }
  ]]></style>
</defs>
<rect width="100%" height="100%" style="stroke: none; fill: none;"/>
<defs>
  <clipPath id="cpMC4wMHw1NzYuMDB8MC4wMHwyODguMDA=">
    <rect x="0.00" y="0.00" width="576.00" height="288.00"/>
  </clipPath>
</defs>
<g clip-path="url(#cpMC4wMHw1NzYuMDB8MC4wMHwyODguMDA=)">
<rect x="0.00" y="0.00" width="576.00" height="288.00" style="stroke-width: 1.07; stroke: none;"/>
</g>
<defs>
  <clipPath id="cpMjMuNzR8NTcwLjUyfDUuNDh8MjU5LjQy">
    <rect x="23.74" y="5.48" width="546.78" height="253.94"/>
  </clipPath>
</defs>
<g clip-path="url(#cpMjMuNzR8NTcwLjUyfDUuNDh8MjU5LjQy)">
<circle cx="191.46" cy="215.33" r="1.95" style="stroke-width: 0.71; stroke: #D55E00; stroke-opacity: 0.50; fill: #D55E00; fill-opacity: 0.50;"/>
<circle cx="440.62" cy="115.34" r="1.95" style="stroke-width: 0.71; stroke: #D55E00; stroke-opacity: 0.50; fill: #D55E00; fill-opacity: 0.50;"/>
<circle cx="251.87" cy="181.02" r="1.95" style="stroke-width: 0.71; stroke: #D55E00; stroke-opacity: 0.50; fill: #D55E00; fill-opacity: 0.50;"/>
<circle cx="487.75" cy="143.26" r="1.95" style="stroke-width: 0.71; stroke: #D55E00; stroke-opacity: 0.50; fill: #D55E00; fill-opacity: 0.50;"/>
<circle cx="516.34" cy="143.13" r="1.95" style="stroke-width: 0.71; stroke: #D55E00; stroke-opacity: 0.50; fill: #D55E00; fill-opacity: 0.50;"/>
<circle cx="71.03" cy="122.81" r="1.95" style="stroke-width: 0.71; stroke: #D55E00; stroke-opacity: 0.50; fill: #D55E00; fill-opacity: 0.50;"/>
<circle cx="311.15" cy="19.47" r="1.95" style="stroke-width: 0.71; stroke: #D55E00; stroke-opacity: 0.50; fill: #D55E00; fill-opacity: 0.50;"/>
<circle cx="492.43" cy="138.08" r="1.95" style="stroke-width: 0.71; stroke: #D55E00; stroke-opacity: 0.50; fill: #D55E00; fill-opacity: 0.50;"/>
<circle cx="322.76" cy="67.11" r="1.95" style="stroke-width: 0.71; stroke: #D55E00; stroke-opacity: 0.50; fill: #D55E00; fill-opacity: 0.50;"/>
<circle cx="275.57" cy="123.55" r="1.95" style="stroke-width: 0.71; stroke: #D55E00; stroke-opacity: 0.50; fill: #D55E00; fill-opacity: 0.50;"/>
<circle cx="524.48" cy="188.07" r="1.95" style="stroke-width: 0.71; stroke: #D55E00; stroke-opacity: 0.50; fill: #D55E00; fill-opacity: 0.50;"/>
<circle cx="273.94" cy="111.72" r="1.95" style="stroke-width: 0.71; stroke: #D55E00; stroke-opacity: 0.50; fill: #D55E00; fill-opacity: 0.50;"/>
<circle cx="385.52" cy="89.67" r="1.95" style="stroke-width: 0.71; stroke: #D55E00; stroke-opacity: 0.50; fill: #D55E00; fill-opacity: 0.50;"/>
<circle cx="333.30" cy="62.62" r="1.95" style="stroke-width: 0.71; stroke: #D55E00; stroke-opacity: 0.50; fill: #D55E00; fill-opacity: 0.50;"/>
<circle cx="99.58" cy="106.40" r="1.95" style="stroke-width: 0.71; stroke: #D55E00; stroke-opacity: 0.50; fill: #D55E00; fill-opacity: 0.50;"/>
<circle cx="496.12" cy="125.21" r="1.95" style="stroke-width: 0.71; stroke: #D55E00; stroke-opacity: 0.50; fill: #D55E00; fill-opacity: 0.50;"/>
<circle cx="170.81" cy="205.28" r="1.95" style="stroke-width: 0.71; stroke: #D55E00; stroke-opacity: 0.50; fill: #D55E00; fill-opacity: 0.50;"/>
<circle cx="69.29" cy="151.18" r="1.95" style="stroke-width: 0.71; stroke: #D55E00; stroke-opacity: 0.50; fill: #D55E00; fill-opacity: 0.50;"/>
<circle cx="211.53" cy="214.88" r="1.95" style="stroke-width: 0.71; stroke: #D55E00; stroke-opacity: 0.50; fill: #D55E00; fill-opacity: 0.50;"/>
<circle cx="523.32" cy="176.18" r="1.95" style="stroke-width: 0.71; stroke: #D55E00; stroke-opacity: 0.50; fill: #D55E00; fill-opacity: 0.50;"/>
<circle cx="491.00" cy="132.87" r="1.95" style="stroke-width: 0.71; stroke: #D55E00; stroke-opacity: 0.50; fill: #D55E00; fill-opacity: 0.50;"/>
<circle cx="393.10" cy="72.68" r="1.95" style="stroke-width: 0.71; stroke: #D55E00; stroke-opacity: 0.50; fill: #D55E00; fill-opacity: 0.50;"/>
<circle cx="367.08" cy="82.73" r="1.95" style="stroke-width: 0.71; stroke: #D55E00; stroke-opacity: 0.50; fill: #D55E00; fill-opacity: 0.50;"/>
<circle cx="543.11" cy="217.73" r="1.95" style="stroke-width: 0.71; stroke: #D55E00; stroke-opacity: 0.50; fill: #D55E00; fill-opacity: 0.50;"/>
<circle cx="374.64" cy="77.57" r="1.95" style="stroke-width: 0.71; stroke: #D55E00; stroke-opacity: 0.50; fill: #D55E00; fill-opacity: 0.50;"/>
<circle cx="400.93" cy="98.15" r="1.95" style="stroke-width: 0.71; stroke: #D55E00; stroke-opacity: 0.50; fill: #D55E00; fill-opacity: 0.50;"/>
<circle cx="319.09" cy="53.26" r="1.95" style="stroke-width: 0.71; stroke: #D55E00; stroke-opacity: 0.50; fill: #D55E00; fill-opacity: 0.50;"/>
<circle cx="344.01" cy="95.05" r="1.95" style="stroke-width: 0.71; stroke: #D55E00; stroke-opacity: 0.50; fill: #D55E00; fill-opacity: 0.50;"/>
<circle cx="192.25" cy="201.05" r="1.95" style="stroke-width: 0.71; stroke: #D55E00; stroke-opacity: 0.50; fill: #D55E00; fill-opacity: 0.50;"/>
<circle cx="121.56" cy="167.72" r="1.95" style="stroke-width: 0.71; stroke: #D55E00; stroke-opacity: 0.50; fill: #D55E00; fill-opacity: 0.50;"/>
<circle cx="527.56" cy="211.11" r="1.95" style="stroke-width: 0.71; stroke: #D55E00; stroke-opacity: 0.50; fill: #D55E00; fill-opacity: 0.50;"/>
<circle cx="497.35" cy="140.89" r="1.95" style="stroke-width: 0.71; stroke: #D55E00; stroke-opacity: 0.50; fill: #D55E00; fill-opacity: 0.50;"/>
<circle cx="392.06" cy="83.02" r="1.95" style="stroke-width: 0.71; stroke: #D55E00; stroke-opacity: 0.50; fill: #D55E00; fill-opacity: 0.50;"/>
<circle cx="444.19" cy="112.41" r="1.95" style="stroke-width: 0.71; stroke: #D55E00; stroke-opacity: 0.50; fill: #D55E00; fill-opacity: 0.50;"/>
<circle cx="60.61" cy="110.76" r="1.95" style="stroke-width: 0.71; stroke: #D55E00; stroke-opacity: 0.50; fill: #D55E00; fill-opacity: 0.50;"/>
<circle cx="286.11" cy="52.54" r="1.95" style="stroke-width: 0.71; stroke: #D55E00; stroke-opacity: 0.50; fill: #D55E00; fill-opacity: 0.50;"/>
<circle cx="425.77" cy="93.13" r="1.95" style="stroke-width: 0.71; stroke: #D55E00; stroke-opacity: 0.50; fill: #D55E00; fill-opacity: 0.50;"/>
<circle cx="156.05" cy="165.82" r="1.95" style="stroke-width: 0.71; stroke: #D55E00; stroke-opacity: 0.50; fill: #D55E00; fill-opacity: 0.50;"/>
<circle cx="206.69" cy="212.60" r="1.95" style="stroke-width: 0.71; stroke: #D55E00; stroke-opacity: 0.50; fill: #D55E00; fill-opacity: 0.50;"/>
<circle cx="163.62" cy="196.47" r="1.95" style="stroke-width: 0.71; stroke: #D55E00; stroke-opacity: 0.50; fill: #D55E00; fill-opacity: 0.50;"/>
<circle cx="119.42" cy="145.30" r="1.95" style="stroke-width: 0.71; stroke: #D55E00; stroke-opacity: 0.50; fill: #D55E00; fill-opacity: 0.50;"/>
<circle cx="254.64" cy="149.90" r="1.95" style="stroke-width: 0.71; stroke: #D55E00; stroke-opacity: 0.50; fill: #D55E00; fill-opacity: 0.50;"/>
<circle cx="254.23" cy="149.23" r="1.95" style="stroke-width: 0.71; stroke: #D55E00; stroke-opacity: 0.50; fill: #D55E00; fill-opacity: 0.50;"/>
<circle cx="231.90" cy="210.05" r="1.95" style="stroke-width: 0.71; stroke: #D55E00; stroke-opacity: 0.50; fill: #D55E00; fill-opacity: 0.50;"/>
<circle cx="124.22" cy="134.74" r="1.95" style="stroke-width: 0.71; stroke: #D55E00; stroke-opacity: 0.50; fill: #D55E00; fill-opacity: 0.50;"/>
<circle cx="117.43" cy="163.17" r="1.95" style="stroke-width: 0.71; stroke: #D55E00; stroke-opacity: 0.50; fill: #D55E00; fill-opacity: 0.50;"/>
<circle cx="164.32" cy="166.46" r="1.95" style="stroke-width: 0.71; stroke: #D55E00; stroke-opacity: 0.50; fill: #D55E00; fill-opacity: 0.50;"/>
<circle cx="280.22" cy="101.06" r="1.95" style="stroke-width: 0.71; stroke: #D55E00; stroke-opacity: 0.50; fill: #D55E00; fill-opacity: 0.50;"/>
<circle cx="180.71" cy="206.04" r="1.95" style="stroke-width: 0.71; stroke: #D55E00; stroke-opacity: 0.50; fill: #D55E00; fill-opacity: 0.50;"/>
<circle cx="475.22" cy="110.72" r="1.95" style="stroke-width: 0.71; stroke: #D55E00; stroke-opacity: 0.50; fill: #D55E00; fill-opacity: 0.50;"/>
<circle cx="71.17" cy="134.13" r="1.95" style="stroke-width: 0.71; stroke: #D55E00; stroke-opacity: 0.50; fill: #D55E00; fill-opacity: 0.50;"/>
<circle cx="268.40" cy="138.85" r="1.95" style="stroke-width: 0.71; stroke: #D55E00; stroke-opacity: 0.50; fill: #D55E00; fill-opacity: 0.50;"/>
<circle cx="445.91" cy="125.63" r="1.95" style="stroke-width: 0.71; stroke: #D55E00; stroke-opacity: 0.50; fill: #D55E00; fill-opacity: 0.50;"/>
<circle cx="109.02" cy="175.26" r="1.95" style="stroke-width: 0.71; stroke: #D55E00; stroke-opacity: 0.50; fill: #D55E00; fill-opacity: 0.50;"/>
<circle cx="327.49" cy="83.31" r="1.95" style="stroke-width: 0.71; stroke: #D55E00; stroke-opacity: 0.50; fill: #D55E00; fill-opacity: 0.50;"/>
<circle cx="151.13" cy="186.08" r="1.95" style="stroke-width: 0.71; stroke: #D55E00; stroke-opacity: 0.50; fill: #D55E00; fill-opacity: 0.50;"/>
<circle cx="111.82" cy="195.12" r="1.95" style="stroke-width: 0.71; stroke: #D55E00; stroke-opacity: 0.50; fill: #D55E00; fill-opacity: 0.50;"/>
<circle cx="423.21" cy="92.17" r="1.95" style="stroke-width: 0.71; stroke: #D55E00; stroke-opacity: 0.50; fill: #D55E00; fill-opacity: 0.50;"/>
<circle cx="493.74" cy="128.49" r="1.95" style="stroke-width: 0.71; stroke: #D55E00; stroke-opacity: 0.50; fill: #D55E00; fill-opacity: 0.50;"/>
<circle cx="234.69" cy="161.24" r="1.95" style="stroke-width: 0.71; stroke: #D55E00; stroke-opacity: 0.50; fill: #D55E00; fill-opacity: 0.50;"/>
<circle cx="379.32" cy="68.35" r="1.95" style="stroke-width: 0.71; stroke: #D55E00; stroke-opacity: 0.50; fill: #D55E00; fill-opacity: 0.50;"/>
<circle cx="95.55" cy="130.02" r="1.95" style="stroke-width: 0.71; stroke: #D55E00; stroke-opacity: 0.50; fill: #D55E00; fill-opacity: 0.50;"/>
<circle cx="239.42" cy="224.30" r="1.95" style="stroke-width: 0.71; stroke: #D55E00; stroke-opacity: 0.50; fill: #D55E00; fill-opacity: 0.50;"/>
<circle cx="184.89" cy="218.24" r="1.95" style="stroke-width: 0.71; stroke: #D55E00; stroke-opacity: 0.50; fill: #D55E00; fill-opacity: 0.50;"/>
<circle cx="453.73" cy="120.93" r="1.95" style="stroke-width: 0.71; stroke: #D55E00; stroke-opacity: 0.50; fill: #D55E00; fill-opacity: 0.50;"/>
<circle cx="271.54" cy="100.28" r="1.95" style="stroke-width: 0.71; stroke: #D55E00; stroke-opacity: 0.50; fill: #D55E00; fill-opacity: 0.50;"/>
<circle cx="451.45" cy="114.78" r="1.95" style="stroke-width: 0.71; stroke: #D55E00; stroke-opacity: 0.50; fill: #D55E00; fill-opacity: 0.50;"/>
<circle cx="452.61" cy="136.28" r="1.95" style="stroke-width: 0.71; stroke: #D55E00; stroke-opacity: 0.50; fill: #D55E00; fill-opacity: 0.50;"/>
<circle cx="443.63" cy="77.15" r="1.95" style="stroke-width: 0.71; stroke: #D55E00; stroke-opacity: 0.50; fill: #D55E00; fill-opacity: 0.50;"/>
<circle cx="267.22" cy="113.60" r="1.95" style="stroke-width: 0.71; stroke: #D55E00; stroke-opacity: 0.50; fill: #D55E00; fill-opacity: 0.50;"/>
<circle cx="423.79" cy="91.96" r="1.95" style="stroke-width: 0.71; stroke: #D55E00; stroke-opacity: 0.50; fill: #D55E00; fill-opacity: 0.50;"/>
<circle cx="361.46" cy="74.83" r="1.95" style="stroke-width: 0.71; stroke: #D55E00; stroke-opacity: 0.50; fill: #D55E00; fill-opacity: 0.50;"/>
<circle cx="401.75" cy="114.18" r="1.95" style="stroke-width: 0.71; stroke: #D55E00; stroke-opacity: 0.50; fill: #D55E00; fill-opacity: 0.50;"/>
<circle cx="48.67" cy="92.75" r="1.95" style="stroke-width: 0.71; stroke: #D55E00; stroke-opacity: 0.50; fill: #D55E00; fill-opacity: 0.50;"/>
<circle cx="284.88" cy="68.53" r="1.95" style="stroke-width: 0.71; stroke: #D55E00; stroke-opacity: 0.50; fill: #D55E00; fill-opacity: 0.50;"/>
<circle cx="157.89" cy="184.05" r="1.95" style="stroke-width: 0.71; stroke: #D55E00; stroke-opacity: 0.50; fill: #D55E00; fill-opacity: 0.50;"/>
<circle cx="237.36" cy="196.51" r="1.95" style="stroke-width: 0.71; stroke: #D55E00; stroke-opacity: 0.50; fill: #D55E00; fill-opacity: 0.50;"/>
<circle cx="353.28" cy="86.80" r="1.95" style="stroke-width: 0.71; stroke: #D55E00; stroke-opacity: 0.50; fill: #D55E00; fill-opacity: 0.50;"/>
<circle cx="223.42" cy="180.42" r="1.95" style="stroke-width: 0.71; stroke: #D55E00; stroke-opacity: 0.50; fill: #D55E00; fill-opacity: 0.50;"/>
<circle cx="103.66" cy="151.19" r="1.95" style="stroke-width: 0.71; stroke: #D55E00; stroke-opacity: 0.50; fill: #D55E00; fill-opacity: 0.50;"/>
<circle cx="169.59" cy="184.16" r="1.95" style="stroke-width: 0.71; stroke: #D55E00; stroke-opacity: 0.50; fill: #D55E00; fill-opacity: 0.50;"/>
<circle cx="380.79" cy="112.57" r="1.95" style="stroke-width: 0.71; stroke: #D55E00; stroke-opacity: 0.50; fill: #D55E00; fill-opacity: 0.50;"/>
<circle cx="256.18" cy="177.89" r="1.95" style="stroke-width: 0.71; stroke: #D55E00; stroke-opacity: 0.50; fill: #D55E00; fill-opacity: 0.50;"/>
<circle cx="440.57" cy="78.09" r="1.95" style="stroke-width: 0.71; stroke: #D55E00; stroke-opacity: 0.50; fill: #D55E00; fill-opacity: 0.50;"/>
<circle cx="99.55" cy="140.63" r="1.95" style="stroke-width: 0.71; stroke: #D55E00; stroke-opacity: 0.50; fill: #D55E00; fill-opacity: 0.50;"/>
<circle cx="264.76" cy="175.58" r="1.95" style="stroke-width: 0.71; stroke: #D55E00; stroke-opacity: 0.50; fill: #D55E00; fill-opacity: 0.50;"/>
<circle cx="538.48" cy="214.00" r="1.95" style="stroke-width: 0.71; stroke: #D55E00; stroke-opacity: 0.50; fill: #D55E00; fill-opacity: 0.50;"/>
<circle cx="492.75" cy="153.25" r="1.95" style="stroke-width: 0.71; stroke: #D55E00; stroke-opacity: 0.50; fill: #D55E00; fill-opacity: 0.50;"/>
<circle cx="489.47" cy="131.04" r="1.95" style="stroke-width: 0.71; stroke: #D55E00; stroke-opacity: 0.50; fill: #D55E00; fill-opacity: 0.50;"/>
<circle cx="135.47" cy="182.07" r="1.95" style="stroke-width: 0.71; stroke: #D55E00; stroke-opacity: 0.50; fill: #D55E00; fill-opacity: 0.50;"/>
<circle cx="113.39" cy="149.42" r="1.95" style="stroke-width: 0.71; stroke: #D55E00; stroke-opacity: 0.50; fill: #D55E00; fill-opacity: 0.50;"/>
<circle cx="373.35" cy="75.96" r="1.95" style="stroke-width: 0.71; stroke: #D55E00; stroke-opacity: 0.50; fill: #D55E00; fill-opacity: 0.50;"/>
<circle cx="219.30" cy="175.99" r="1.95" style="stroke-width: 0.71; stroke: #D55E00; stroke-opacity: 0.50; fill: #D55E00; fill-opacity: 0.50;"/>
<circle cx="375.17" cy="91.62" r="1.95" style="stroke-width: 0.71; stroke: #D55E00; stroke-opacity: 0.50; fill: #D55E00; fill-opacity: 0.50;"/>
<circle cx="207.78" cy="209.47" r="1.95" style="stroke-width: 0.71; stroke: #D55E00; stroke-opacity: 0.50; fill: #D55E00; fill-opacity: 0.50;"/>
<circle cx="141.76" cy="216.60" r="1.95" style="stroke-width: 0.71; stroke: #D55E00; stroke-opacity: 0.50; fill: #D55E00; fill-opacity: 0.50;"/>
<circle cx="437.63" cy="101.65" r="1.95" style="stroke-width: 0.71; stroke: #D55E00; stroke-opacity: 0.50; fill: #D55E00; fill-opacity: 0.50;"/>
<circle cx="94.93" cy="153.20" r="1.95" style="stroke-width: 0.71; stroke: #D55E00; stroke-opacity: 0.50; fill: #D55E00; fill-opacity: 0.50;"/>
<circle cx="280.63" cy="92.69" r="1.95" style="stroke-width: 0.71; stroke: #D55E00; stroke-opacity: 0.50; fill: #D55E00; fill-opacity: 0.50;"/>
<circle cx="302.89" cy="31.97" r="1.95" style="stroke-width: 0.71; stroke: #D55E00; stroke-opacity: 0.50; fill: #D55E00; fill-opacity: 0.50;"/>
<circle cx="346.92" cy="79.36" r="1.95" style="stroke-width: 0.71; stroke: #D55E00; stroke-opacity: 0.50; fill: #D55E00; fill-opacity: 0.50;"/>
<circle cx="213.97" cy="243.03" r="1.95" style="stroke-width: 0.71; stroke: #D55E00; stroke-opacity: 0.50; fill: #D55E00; fill-opacity: 0.50;"/>
<circle cx="291.50" cy="47.22" r="1.95" style="stroke-width: 0.71; stroke: #D55E00; stroke-opacity: 0.50; fill: #D55E00; fill-opacity: 0.50;"/>
<circle cx="523.31" cy="175.68" r="1.95" style="stroke-width: 0.71; stroke: #D55E00; stroke-opacity: 0.50; fill: #D55E00; fill-opacity: 0.50;"/>
<circle cx="288.65" cy="62.96" r="1.95" style="stroke-width: 0.71; stroke: #D55E00; stroke-opacity: 0.50; fill: #D55E00; fill-opacity: 0.50;"/>
<circle cx="491.40" cy="142.40" r="1.95" style="stroke-width: 0.71; stroke: #D55E00; stroke-opacity: 0.50; fill: #D55E00; fill-opacity: 0.50;"/>
<circle cx="503.39" cy="152.45" r="1.95" style="stroke-width: 0.71; stroke: #D55E00; stroke-opacity: 0.50; fill: #D55E00; fill-opacity: 0.50;"/>
<circle cx="351.27" cy="98.74" r="1.95" style="stroke-width: 0.71; stroke: #D55E00; stroke-opacity: 0.50; fill: #D55E00; fill-opacity: 0.50;"/>
<circle cx="252.72" cy="217.18" r="1.95" style="stroke-width: 0.71; stroke: #D55E00; stroke-opacity: 0.50; fill: #D55E00; fill-opacity: 0.50;"/>
<circle cx="121.56" cy="122.16" r="1.95" style="stroke-width: 0.71; stroke: #D55E00; stroke-opacity: 0.50; fill: #D55E00; fill-opacity: 0.50;"/>
<circle cx="513.77" cy="173.09" r="1.95" style="stroke-width: 0.71; stroke: #D55E00; stroke-opacity: 0.50; fill: #D55E00; fill-opacity: 0.50;"/>
<circle cx="198.25" cy="197.44" r="1.95" style="stroke-width: 0.71; stroke: #D55E00; stroke-opacity: 0.50; fill: #D55E00; fill-opacity: 0.50;"/>
<circle cx="78.58" cy="122.89" r="1.95" style="stroke-width: 0.71; stroke: #D55E00; stroke-opacity: 0.50; fill: #D55E00; fill-opacity: 0.50;"/>
<circle cx="519.95" cy="156.57" r="1.95" style="stroke-width: 0.71; stroke: #D55E00; stroke-opacity: 0.50; fill: #D55E00; fill-opacity: 0.50;"/>
<circle cx="406.93" cy="76.37" r="1.95" style="stroke-width: 0.71; stroke: #D55E00; stroke-opacity: 0.50; fill: #D55E00; fill-opacity: 0.50;"/>
<circle cx="119.17" cy="169.71" r="1.95" style="stroke-width: 0.71; stroke: #D55E00; stroke-opacity: 0.50; fill: #D55E00; fill-opacity: 0.50;"/>
<circle cx="321.69" cy="55.81" r="1.95" style="stroke-width: 0.71; stroke: #D55E00; stroke-opacity: 0.50; fill: #D55E00; fill-opacity: 0.50;"/>
<circle cx="523.12" cy="194.51" r="1.95" style="stroke-width: 0.71; stroke: #D55E00; stroke-opacity: 0.50; fill: #D55E00; fill-opacity: 0.50;"/>
<circle cx="339.70" cy="78.14" r="1.95" style="stroke-width: 0.71; stroke: #D55E00; stroke-opacity: 0.50; fill: #D55E00; fill-opacity: 0.50;"/>
<circle cx="249.65" cy="187.42" r="1.95" style="stroke-width: 0.71; stroke: #D55E00; stroke-opacity: 0.50; fill: #D55E00; fill-opacity: 0.50;"/>
<circle cx="370.75" cy="50.64" r="1.95" style="stroke-width: 0.71; stroke: #D55E00; stroke-opacity: 0.50; fill: #D55E00; fill-opacity: 0.50;"/>
<circle cx="207.50" cy="238.11" r="1.95" style="stroke-width: 0.71; stroke: #D55E00; stroke-opacity: 0.50; fill: #D55E00; fill-opacity: 0.50;"/>
<circle cx="201.48" cy="217.36" r="1.95" style="stroke-width: 0.71; stroke: #D55E00; stroke-opacity: 0.50; fill: #D55E00; fill-opacity: 0.50;"/>
<circle cx="157.72" cy="181.42" r="1.95" style="stroke-width: 0.71; stroke: #D55E00; stroke-opacity: 0.50; fill: #D55E00; fill-opacity: 0.50;"/>
<circle cx="232.22" cy="190.38" r="1.95" style="stroke-width: 0.71; stroke: #D55E00; stroke-opacity: 0.50; fill: #D55E00; fill-opacity: 0.50;"/>
<circle cx="538.11" cy="199.88" r="1.95" style="stroke-width: 0.71; stroke: #D55E00; stroke-opacity: 0.50; fill: #D55E00; fill-opacity: 0.50;"/>
<circle cx="125.09" cy="189.16" r="1.95" style="stroke-width: 0.71; stroke: #D55E00; stroke-opacity: 0.50; fill: #D55E00; fill-opacity: 0.50;"/>
<circle cx="93.66" cy="139.18" r="1.95" style="stroke-width: 0.71; stroke: #D55E00; stroke-opacity: 0.50; fill: #D55E00; fill-opacity: 0.50;"/>
<circle cx="118.97" cy="166.04" r="1.95" style="stroke-width: 0.71; stroke: #D55E00; stroke-opacity: 0.50; fill: #D55E00; fill-opacity: 0.50;"/>
<circle cx="391.71" cy="121.96" r="1.95" style="stroke-width: 0.71; stroke: #D55E00; stroke-opacity: 0.50; fill: #D55E00; fill-opacity: 0.50;"/>
<circle cx="356.50" cy="97.12" r="1.95" style="stroke-width: 0.71; stroke: #D55E00; stroke-opacity: 0.50; fill: #D55E00; fill-opacity: 0.50;"/>
<circle cx="491.92" cy="145.47" r="1.95" style="stroke-width: 0.71; stroke: #D55E00; stroke-opacity: 0.50; fill: #D55E00; fill-opacity: 0.50;"/>
<circle cx="383.25" cy="87.73" r="1.95" style="stroke-width: 0.71; stroke: #D55E00; stroke-opacity: 0.50; fill: #D55E00; fill-opacity: 0.50;"/>
<circle cx="415.13" cy="111.88" r="1.95" style="stroke-width: 0.71; stroke: #D55E00; stroke-opacity: 0.50; fill: #D55E00; fill-opacity: 0.50;"/>
<circle cx="307.68" cy="24.60" r="1.95" style="stroke-width: 0.71; stroke: #D55E00; stroke-opacity: 0.50; fill: #D55E00; fill-opacity: 0.50;"/>
<circle cx="376.70" cy="67.58" r="1.95" style="stroke-width: 0.71; stroke: #D55E00; stroke-opacity: 0.50; fill: #D55E00; fill-opacity: 0.50;"/>
<circle cx="457.29" cy="109.31" r="1.95" style="stroke-width: 0.71; stroke: #D55E00; stroke-opacity: 0.50; fill: #D55E00; fill-opacity: 0.50;"/>
<circle cx="439.62" cy="124.96" r="1.95" style="stroke-width: 0.71; stroke: #D55E00; stroke-opacity: 0.50; fill: #D55E00; fill-opacity: 0.50;"/>
<circle cx="535.92" cy="195.55" r="1.95" style="stroke-width: 0.71; stroke: #D55E00; stroke-opacity: 0.50; fill: #D55E00; fill-opacity: 0.50;"/>
<circle cx="267.02" cy="124.46" r="1.95" style="stroke-width: 0.71; stroke: #D55E00; stroke-opacity: 0.50; fill: #D55E00; fill-opacity: 0.50;"/>
<circle cx="203.46" cy="220.54" r="1.95" style="stroke-width: 0.71; stroke: #D55E00; stroke-opacity: 0.50; fill: #D55E00; fill-opacity: 0.50;"/>
<circle cx="252.12" cy="212.94" r="1.95" style="stroke-width: 0.71; stroke: #D55E00; stroke-opacity: 0.50; fill: #D55E00; fill-opacity: 0.50;"/>
<circle cx="53.57" cy="91.98" r="1.95" style="stroke-width: 0.71; stroke: #D55E00; stroke-opacity: 0.50; fill: #D55E00; fill-opacity: 0.50;"/>
<circle cx="139.84" cy="198.59" r="1.95" style="stroke-width: 0.71; stroke: #D55E00; stroke-opacity: 0.50; fill: #D55E00; fill-opacity: 0.50;"/>
<circle cx="467.70" cy="136.55" r="1.95" style="stroke-width: 0.71; stroke: #D55E00; stroke-opacity: 0.50; fill: #D55E00; fill-opacity: 0.50;"/>
<circle cx="163.39" cy="172.46" r="1.95" style="stroke-width: 0.71; stroke: #D55E00; stroke-opacity: 0.50; fill: #D55E00; fill-opacity: 0.50;"/>
<circle cx="167.34" cy="215.18" r="1.95" style="stroke-width: 0.71; stroke: #D55E00; stroke-opacity: 0.50; fill: #D55E00; fill-opacity: 0.50;"/>
<circle cx="86.52" cy="119.91" r="1.95" style="stroke-width: 0.71; stroke: #D55E00; stroke-opacity: 0.50; fill: #D55E00; fill-opacity: 0.50;"/>
<circle cx="170.63" cy="225.36" r="1.95" style="stroke-width: 0.71; stroke: #D55E00; stroke-opacity: 0.50; fill: #D55E00; fill-opacity: 0.50;"/>
<circle cx="412.67" cy="98.64" r="1.95" style="stroke-width: 0.71; stroke: #D55E00; stroke-opacity: 0.50; fill: #D55E00; fill-opacity: 0.50;"/>
<circle cx="470.06" cy="129.70" r="1.95" style="stroke-width: 0.71; stroke: #D55E00; stroke-opacity: 0.50; fill: #D55E00; fill-opacity: 0.50;"/>
<circle cx="295.93" cy="52.53" r="1.95" style="stroke-width: 0.71; stroke: #D55E00; stroke-opacity: 0.50; fill: #D55E00; fill-opacity: 0.50;"/>
<circle cx="241.38" cy="202.64" r="1.95" style="stroke-width: 0.71; stroke: #D55E00; stroke-opacity: 0.50; fill: #D55E00; fill-opacity: 0.50;"/>
<circle cx="170.99" cy="203.49" r="1.95" style="stroke-width: 0.71; stroke: #D55E00; stroke-opacity: 0.50; fill: #D55E00; fill-opacity: 0.50;"/>
<circle cx="103.64" cy="139.31" r="1.95" style="stroke-width: 0.71; stroke: #D55E00; stroke-opacity: 0.50; fill: #D55E00; fill-opacity: 0.50;"/>
<circle cx="242.42" cy="219.58" r="1.95" style="stroke-width: 0.71; stroke: #D55E00; stroke-opacity: 0.50; fill: #D55E00; fill-opacity: 0.50;"/>
<circle cx="332.96" cy="91.60" r="1.95" style="stroke-width: 0.71; stroke: #D55E00; stroke-opacity: 0.50; fill: #D55E00; fill-opacity: 0.50;"/>
<circle cx="156.29" cy="181.79" r="1.95" style="stroke-width: 0.71; stroke: #D55E00; stroke-opacity: 0.50; fill: #D55E00; fill-opacity: 0.50;"/>
<circle cx="269.68" cy="130.02" r="1.95" style="stroke-width: 0.71; stroke: #D55E00; stroke-opacity: 0.50; fill: #D55E00; fill-opacity: 0.50;"/>
<circle cx="156.83" cy="191.58" r="1.95" style="stroke-width: 0.71; stroke: #D55E00; stroke-opacity: 0.50; fill: #D55E00; fill-opacity: 0.50;"/>
<circle cx="298.31" cy="20.53" r="1.95" style="stroke-width: 0.71; stroke: #D55E00; stroke-opacity: 0.50; fill: #D55E00; fill-opacity: 0.50;"/>
<circle cx="224.46" cy="199.06" r="1.95" style="stroke-width: 0.71; stroke: #D55E00; stroke-opacity: 0.50; fill: #D55E00; fill-opacity: 0.50;"/>
<circle cx="371.79" cy="81.87" r="1.95" style="stroke-width: 0.71; stroke: #D55E00; stroke-opacity: 0.50; fill: #D55E00; fill-opacity: 0.50;"/>
<circle cx="234.82" cy="199.78" r="1.95" style="stroke-width: 0.71; stroke: #D55E00; stroke-opacity: 0.50; fill: #D55E00; fill-opacity: 0.50;"/>
<circle cx="225.23" cy="210.89" r="1.95" style="stroke-width: 0.71; stroke: #D55E00; stroke-opacity: 0.50; fill: #D55E00; fill-opacity: 0.50;"/>
<circle cx="313.92" cy="91.72" r="1.95" style="stroke-width: 0.71; stroke: #D55E00; stroke-opacity: 0.50; fill: #D55E00; fill-opacity: 0.50;"/>
<circle cx="416.75" cy="95.19" r="1.95" style="stroke-width: 0.71; stroke: #D55E00; stroke-opacity: 0.50; fill: #D55E00; fill-opacity: 0.50;"/>
<circle cx="158.38" cy="188.88" r="1.95" style="stroke-width: 0.71; stroke: #D55E00; stroke-opacity: 0.50; fill: #D55E00; fill-opacity: 0.50;"/>
<circle cx="253.74" cy="161.25" r="1.95" style="stroke-width: 0.71; stroke: #D55E00; stroke-opacity: 0.50; fill: #D55E00; fill-opacity: 0.50;"/>
<circle cx="180.57" cy="216.31" r="1.95" style="stroke-width: 0.71; stroke: #D55E00; stroke-opacity: 0.50; fill: #D55E00; fill-opacity: 0.50;"/>
<circle cx="361.84" cy="64.68" r="1.95" style="stroke-width: 0.71; stroke: #D55E00; stroke-opacity: 0.50; fill: #D55E00; fill-opacity: 0.50;"/>
<circle cx="139.83" cy="178.63" r="1.95" style="stroke-width: 0.71; stroke: #D55E00; stroke-opacity: 0.50; fill: #D55E00; fill-opacity: 0.50;"/>
<circle cx="478.11" cy="133.50" r="1.95" style="stroke-width: 0.71; stroke: #D55E00; stroke-opacity: 0.50; fill: #D55E00; fill-opacity: 0.50;"/>
<circle cx="419.85" cy="71.87" r="1.95" style="stroke-width: 0.71; stroke: #D55E00; stroke-opacity: 0.50; fill: #D55E00; fill-opacity: 0.50;"/>
<circle cx="380.90" cy="104.14" r="1.95" style="stroke-width: 0.71; stroke: #D55E00; stroke-opacity: 0.50; fill: #D55E00; fill-opacity: 0.50;"/>
<circle cx="355.89" cy="105.89" r="1.95" style="stroke-width: 0.71; stroke: #D55E00; stroke-opacity: 0.50; fill: #D55E00; fill-opacity: 0.50;"/>
<circle cx="233.59" cy="155.65" r="1.95" style="stroke-width: 0.71; stroke: #D55E00; stroke-opacity: 0.50; fill: #D55E00; fill-opacity: 0.50;"/>
<circle cx="312.01" cy="40.27" r="1.95" style="stroke-width: 0.71; stroke: #D55E00; stroke-opacity: 0.50; fill: #D55E00; fill-opacity: 0.50;"/>
<circle cx="483.60" cy="111.71" r="1.95" style="stroke-width: 0.71; stroke: #D55E00; stroke-opacity: 0.50; fill: #D55E00; fill-opacity: 0.50;"/>
<circle cx="337.84" cy="117.41" r="1.95" style="stroke-width: 0.71; stroke: #D55E00; stroke-opacity: 0.50; fill: #D55E00; fill-opacity: 0.50;"/>
<circle cx="466.23" cy="128.40" r="1.95" style="stroke-width: 0.71; stroke: #D55E00; stroke-opacity: 0.50; fill: #D55E00; fill-opacity: 0.50;"/>
<circle cx="203.84" cy="202.18" r="1.95" style="stroke-width: 0.71; stroke: #D55E00; stroke-opacity: 0.50; fill: #D55E00; fill-opacity: 0.50;"/>
<circle cx="400.81" cy="84.78" r="1.95" style="stroke-width: 0.71; stroke: #D55E00; stroke-opacity: 0.50; fill: #D55E00; fill-opacity: 0.50;"/>
<circle cx="180.23" cy="224.27" r="1.95" style="stroke-width: 0.71; stroke: #D55E00; stroke-opacity: 0.50; fill: #D55E00; fill-opacity: 0.50;"/>
<circle cx="344.11" cy="96.09" r="1.95" style="stroke-width: 0.71; stroke: #D55E00; stroke-opacity: 0.50; fill: #D55E00; fill-opacity: 0.50;"/>
<circle cx="287.85" cy="68.64" r="1.95" style="stroke-width: 0.71; stroke: #D55E00; stroke-opacity: 0.50; fill: #D55E00; fill-opacity: 0.50;"/>
<circle cx="180.24" cy="193.54" r="1.95" style="stroke-width: 0.71; stroke: #D55E00; stroke-opacity: 0.50; fill: #D55E00; fill-opacity: 0.50;"/>
<circle cx="329.30" cy="59.66" r="1.95" style="stroke-width: 0.71; stroke: #D55E00; stroke-opacity: 0.50; fill: #D55E00; fill-opacity: 0.50;"/>
<circle cx="502.77" cy="199.01" r="1.95" style="stroke-width: 0.71; stroke: #D55E00; stroke-opacity: 0.50; fill: #D55E00; fill-opacity: 0.50;"/>
<circle cx="497.14" cy="131.76" r="1.95" style="stroke-width: 0.71; stroke: #D55E00; stroke-opacity: 0.50; fill: #D55E00; fill-opacity: 0.50;"/>
<circle cx="184.79" cy="229.65" r="1.95" style="stroke-width: 0.71; stroke: #D55E00; stroke-opacity: 0.50; fill: #D55E00; fill-opacity: 0.50;"/>
<circle cx="208.33" cy="200.33" r="1.95" style="stroke-width: 0.71; stroke: #D55E00; stroke-opacity: 0.50; fill: #D55E00; fill-opacity: 0.50;"/>
<circle cx="538.82" cy="178.04" r="1.95" style="stroke-width: 0.71; stroke: #D55E00; stroke-opacity: 0.50; fill: #D55E00; fill-opacity: 0.50;"/>
<circle cx="356.87" cy="101.24" r="1.95" style="stroke-width: 0.71; stroke: #D55E00; stroke-opacity: 0.50; fill: #D55E00; fill-opacity: 0.50;"/>
<circle cx="514.77" cy="181.86" r="1.95" style="stroke-width: 0.71; stroke: #D55E00; stroke-opacity: 0.50; fill: #D55E00; fill-opacity: 0.50;"/>
<circle cx="280.51" cy="72.80" r="1.95" style="stroke-width: 0.71; stroke: #D55E00; stroke-opacity: 0.50; fill: #D55E00; fill-opacity: 0.50;"/>
<circle cx="250.80" cy="169.15" r="1.95" style="stroke-width: 0.71; stroke: #D55E00; stroke-opacity: 0.50; fill: #D55E00; fill-opacity: 0.50;"/>
<circle cx="376.40" cy="76.51" r="1.95" style="stroke-width: 0.71; stroke: #D55E00; stroke-opacity: 0.50; fill: #D55E00; fill-opacity: 0.50;"/>
<circle cx="124.17" cy="207.22" r="1.95" style="stroke-width: 0.71; stroke: #D55E00; stroke-opacity: 0.50; fill: #D55E00; fill-opacity: 0.50;"/>
<circle cx="333.42" cy="115.32" r="1.95" style="stroke-width: 0.71; stroke: #D55E00; stroke-opacity: 0.50; fill: #D55E00; fill-opacity: 0.50;"/>
<circle cx="167.15" cy="175.66" r="1.95" style="stroke-width: 0.71; stroke: #D55E00; stroke-opacity: 0.50; fill: #D55E00; fill-opacity: 0.50;"/>
<circle cx="527.23" cy="162.30" r="1.95" style="stroke-width: 0.71; stroke: #D55E00; stroke-opacity: 0.50; fill: #D55E00; fill-opacity: 0.50;"/>
<circle cx="347.60" cy="89.90" r="1.95" style="stroke-width: 0.71; stroke: #D55E00; stroke-opacity: 0.50; fill: #D55E00; fill-opacity: 0.50;"/>
<circle cx="304.64" cy="17.02" r="1.95" style="stroke-width: 0.71; stroke: #D55E00; stroke-opacity: 0.50; fill: #D55E00; fill-opacity: 0.50;"/>
<circle cx="248.68" cy="164.49" r="1.95" style="stroke-width: 0.71; stroke: #D55E00; stroke-opacity: 0.50; fill: #D55E00; fill-opacity: 0.50;"/>
<circle cx="486.37" cy="191.15" r="1.95" style="stroke-width: 0.71; stroke: #D55E00; stroke-opacity: 0.50; fill: #D55E00; fill-opacity: 0.50;"/>
<circle cx="229.53" cy="181.36" r="1.95" style="stroke-width: 0.71; stroke: #D55E00; stroke-opacity: 0.50; fill: #D55E00; fill-opacity: 0.50;"/>
<circle cx="191.79" cy="217.32" r="1.95" style="stroke-width: 0.71; stroke: #D55E00; stroke-opacity: 0.50; fill: #D55E00; fill-opacity: 0.50;"/>
<circle cx="133.27" cy="174.30" r="1.95" style="stroke-width: 0.71; stroke: #D55E00; stroke-opacity: 0.50; fill: #D55E00; fill-opacity: 0.50;"/>
<circle cx="134.03" cy="184.34" r="1.95" style="stroke-width: 0.71; stroke: #D55E00; stroke-opacity: 0.50; fill: #D55E00; fill-opacity: 0.50;"/>
<circle cx="288.23" cy="32.65" r="1.95" style="stroke-width: 0.71; stroke: #D55E00; stroke-opacity: 0.50; fill: #D55E00; fill-opacity: 0.50;"/>
<circle cx="174.24" cy="210.50" r="1.95" style="stroke-width: 0.71; stroke: #D55E00; stroke-opacity: 0.50; fill: #D55E00; fill-opacity: 0.50;"/>
<circle cx="155.97" cy="185.85" r="1.95" style="stroke-width: 0.71; stroke: #D55E00; stroke-opacity: 0.50; fill: #D55E00; fill-opacity: 0.50;"/>
<circle cx="383.93" cy="97.73" r="1.95" style="stroke-width: 0.71; stroke: #D55E00; stroke-opacity: 0.50; fill: #D55E00; fill-opacity: 0.50;"/>
<circle cx="72.08" cy="141.66" r="1.95" style="stroke-width: 0.71; stroke: #D55E00; stroke-opacity: 0.50; fill: #D55E00; fill-opacity: 0.50;"/>
<circle cx="397.11" cy="68.27" r="1.95" style="stroke-width: 0.71; stroke: #D55E00; stroke-opacity: 0.50; fill: #D55E00; fill-opacity: 0.50;"/>
<circle cx="223.46" cy="191.04" r="1.95" style="stroke-width: 0.71; stroke: #D55E00; stroke-opacity: 0.50; fill: #D55E00; fill-opacity: 0.50;"/>
<circle cx="251.85" cy="144.07" r="1.95" style="stroke-width: 0.71; stroke: #D55E00; stroke-opacity: 0.50; fill: #D55E00; fill-opacity: 0.50;"/>
<circle cx="456.87" cy="115.96" r="1.95" style="stroke-width: 0.71; stroke: #D55E00; stroke-opacity: 0.50; fill: #D55E00; fill-opacity: 0.50;"/>
<circle cx="505.59" cy="141.76" r="1.95" style="stroke-width: 0.71; stroke: #D55E00; stroke-opacity: 0.50; fill: #D55E00; fill-opacity: 0.50;"/>
<circle cx="188.95" cy="172.93" r="1.95" style="stroke-width: 0.71; stroke: #D55E00; stroke-opacity: 0.50; fill: #D55E00; fill-opacity: 0.50;"/>
<circle cx="526.61" cy="185.54" r="1.95" style="stroke-width: 0.71; stroke: #D55E00; stroke-opacity: 0.50; fill: #D55E00; fill-opacity: 0.50;"/>
<circle cx="410.81" cy="115.49" r="1.95" style="stroke-width: 0.71; stroke: #D55E00; stroke-opacity: 0.50; fill: #D55E00; fill-opacity: 0.50;"/>
<circle cx="389.90" cy="94.33" r="1.95" style="stroke-width: 0.71; stroke: #D55E00; stroke-opacity: 0.50; fill: #D55E00; fill-opacity: 0.50;"/>
<circle cx="74.66" cy="128.16" r="1.95" style="stroke-width: 0.71; stroke: #D55E00; stroke-opacity: 0.50; fill: #D55E00; fill-opacity: 0.50;"/>
<circle cx="245.02" cy="183.93" r="1.95" style="stroke-width: 0.71; stroke: #D55E00; stroke-opacity: 0.50; fill: #D55E00; fill-opacity: 0.50;"/>
<circle cx="286.14" cy="24.23" r="1.95" style="stroke-width: 0.71; stroke: #D55E00; stroke-opacity: 0.50; fill: #D55E00; fill-opacity: 0.50;"/>
<circle cx="327.14" cy="80.62" r="1.95" style="stroke-width: 0.71; stroke: #D55E00; stroke-opacity: 0.50; fill: #D55E00; fill-opacity: 0.50;"/>
<circle cx="395.82" cy="83.21" r="1.95" style="stroke-width: 0.71; stroke: #D55E00; stroke-opacity: 0.50; fill: #D55E00; fill-opacity: 0.50;"/>
<circle cx="504.01" cy="164.46" r="1.95" style="stroke-width: 0.71; stroke: #D55E00; stroke-opacity: 0.50; fill: #D55E00; fill-opacity: 0.50;"/>
<circle cx="356.05" cy="97.44" r="1.95" style="stroke-width: 0.71; stroke: #D55E00; stroke-opacity: 0.50; fill: #D55E00; fill-opacity: 0.50;"/>
<circle cx="261.54" cy="144.06" r="1.95" style="stroke-width: 0.71; stroke: #D55E00; stroke-opacity: 0.50; fill: #D55E00; fill-opacity: 0.50;"/>
<circle cx="318.10" cy="30.27" r="1.95" style="stroke-width: 0.71; stroke: #D55E00; stroke-opacity: 0.50; fill: #D55E00; fill-opacity: 0.50;"/>
<circle cx="77.46" cy="124.63" r="1.95" style="stroke-width: 0.71; stroke: #D55E00; stroke-opacity: 0.50; fill: #D55E00; fill-opacity: 0.50;"/>
<circle cx="178.16" cy="192.90" r="1.95" style="stroke-width: 0.71; stroke: #D55E00; stroke-opacity: 0.50; fill: #D55E00; fill-opacity: 0.50;"/>
<circle cx="245.98" cy="171.31" r="1.95" style="stroke-width: 0.71; stroke: #D55E00; stroke-opacity: 0.50; fill: #D55E00; fill-opacity: 0.50;"/>
<circle cx="146.76" cy="172.60" r="1.95" style="stroke-width: 0.71; stroke: #D55E00; stroke-opacity: 0.50; fill: #D55E00; fill-opacity: 0.50;"/>
<circle cx="462.33" cy="131.91" r="1.95" style="stroke-width: 0.71; stroke: #D55E00; stroke-opacity: 0.50; fill: #D55E00; fill-opacity: 0.50;"/>
<circle cx="124.44" cy="141.66" r="1.95" style="stroke-width: 0.71; stroke: #D55E00; stroke-opacity: 0.50; fill: #D55E00; fill-opacity: 0.50;"/>
<circle cx="448.14" cy="117.25" r="1.95" style="stroke-width: 0.71; stroke: #D55E00; stroke-opacity: 0.50; fill: #D55E00; fill-opacity: 0.50;"/>
<circle cx="320.46" cy="61.56" r="1.95" style="stroke-width: 0.71; stroke: #D55E00; stroke-opacity: 0.50; fill: #D55E00; fill-opacity: 0.50;"/>
<circle cx="377.93" cy="66.82" r="1.95" style="stroke-width: 0.71; stroke: #D55E00; stroke-opacity: 0.50; fill: #D55E00; fill-opacity: 0.50;"/>
<circle cx="133.80" cy="155.72" r="1.95" style="stroke-width: 0.71; stroke: #D55E00; stroke-opacity: 0.50; fill: #D55E00; fill-opacity: 0.50;"/>
<circle cx="363.37" cy="115.57" r="1.95" style="stroke-width: 0.71; stroke: #D55E00; stroke-opacity: 0.50; fill: #D55E00; fill-opacity: 0.50;"/>
<circle cx="203.55" cy="224.58" r="1.95" style="stroke-width: 0.71; stroke: #D55E00; stroke-opacity: 0.50; fill: #D55E00; fill-opacity: 0.50;"/>
<circle cx="408.90" cy="115.68" r="1.95" style="stroke-width: 0.71; stroke: #D55E00; stroke-opacity: 0.50; fill: #D55E00; fill-opacity: 0.50;"/>
<circle cx="246.87" cy="180.63" r="1.95" style="stroke-width: 0.71; stroke: #D55E00; stroke-opacity: 0.50; fill: #D55E00; fill-opacity: 0.50;"/>
<circle cx="530.71" cy="180.85" r="1.95" style="stroke-width: 0.71; stroke: #D55E00; stroke-opacity: 0.50; fill: #D55E00; fill-opacity: 0.50;"/>
<circle cx="529.74" cy="176.52" r="1.95" style="stroke-width: 0.71; stroke: #D55E00; stroke-opacity: 0.50; fill: #D55E00; fill-opacity: 0.50;"/>
<circle cx="409.97" cy="81.75" r="1.95" style="stroke-width: 0.71; stroke: #D55E00; stroke-opacity: 0.50; fill: #D55E00; fill-opacity: 0.50;"/>
<circle cx="176.35" cy="215.80" r="1.95" style="stroke-width: 0.71; stroke: #D55E00; stroke-opacity: 0.50; fill: #D55E00; fill-opacity: 0.50;"/>
<circle cx="158.72" cy="214.54" r="1.95" style="stroke-width: 0.71; stroke: #D55E00; stroke-opacity: 0.50; fill: #D55E00; fill-opacity: 0.50;"/>
<circle cx="343.46" cy="77.74" r="1.95" style="stroke-width: 0.71; stroke: #D55E00; stroke-opacity: 0.50; fill: #D55E00; fill-opacity: 0.50;"/>
<circle cx="181.48" cy="193.20" r="1.95" style="stroke-width: 0.71; stroke: #D55E00; stroke-opacity: 0.50; fill: #D55E00; fill-opacity: 0.50;"/>
<circle cx="312.62" cy="68.70" r="1.95" style="stroke-width: 0.71; stroke: #D55E00; stroke-opacity: 0.50; fill: #D55E00; fill-opacity: 0.50;"/>
<circle cx="439.12" cy="106.04" r="1.95" style="stroke-width: 0.71; stroke: #D55E00; stroke-opacity: 0.50; fill: #D55E00; fill-opacity: 0.50;"/>
<circle cx="131.99" cy="193.36" r="1.95" style="stroke-width: 0.71; stroke: #D55E00; stroke-opacity: 0.50; fill: #D55E00; fill-opacity: 0.50;"/>
<circle cx="249.59" cy="216.31" r="1.95" style="stroke-width: 0.71; stroke: #D55E00; stroke-opacity: 0.50; fill: #D55E00; fill-opacity: 0.50;"/>
<circle cx="283.02" cy="63.29" r="1.95" style="stroke-width: 0.71; stroke: #D55E00; stroke-opacity: 0.50; fill: #D55E00; fill-opacity: 0.50;"/>
<circle cx="480.33" cy="139.26" r="1.95" style="stroke-width: 0.71; stroke: #D55E00; stroke-opacity: 0.50; fill: #D55E00; fill-opacity: 0.50;"/>
<circle cx="509.00" cy="166.79" r="1.95" style="stroke-width: 0.71; stroke: #D55E00; stroke-opacity: 0.50; fill: #D55E00; fill-opacity: 0.50;"/>
<circle cx="487.23" cy="140.52" r="1.95" style="stroke-width: 0.71; stroke: #D55E00; stroke-opacity: 0.50; fill: #D55E00; fill-opacity: 0.50;"/>
<circle cx="383.84" cy="74.98" r="1.95" style="stroke-width: 0.71; stroke: #D55E00; stroke-opacity: 0.50; fill: #D55E00; fill-opacity: 0.50;"/>
<circle cx="521.17" cy="172.27" r="1.95" style="stroke-width: 0.71; stroke: #D55E00; stroke-opacity: 0.50; fill: #D55E00; fill-opacity: 0.50;"/>
<circle cx="305.34" cy="41.44" r="1.95" style="stroke-width: 0.71; stroke: #D55E00; stroke-opacity: 0.50; fill: #D55E00; fill-opacity: 0.50;"/>
<circle cx="335.24" cy="101.74" r="1.95" style="stroke-width: 0.71; stroke: #D55E00; stroke-opacity: 0.50; fill: #D55E00; fill-opacity: 0.50;"/>
<circle cx="215.72" cy="209.31" r="1.95" style="stroke-width: 0.71; stroke: #D55E00; stroke-opacity: 0.50; fill: #D55E00; fill-opacity: 0.50;"/>
<circle cx="221.19" cy="199.65" r="1.95" style="stroke-width: 0.71; stroke: #D55E00; stroke-opacity: 0.50; fill: #D55E00; fill-opacity: 0.50;"/>
<circle cx="58.32" cy="129.76" r="1.95" style="stroke-width: 0.71; stroke: #D55E00; stroke-opacity: 0.50; fill: #D55E00; fill-opacity: 0.50;"/>
<circle cx="298.56" cy="32.46" r="1.95" style="stroke-width: 0.71; stroke: #D55E00; stroke-opacity: 0.50; fill: #D55E00; fill-opacity: 0.50;"/>
<circle cx="481.79" cy="121.92" r="1.95" style="stroke-width: 0.71; stroke: #D55E00; stroke-opacity: 0.50; fill: #D55E00; fill-opacity: 0.50;"/>
<circle cx="51.50" cy="108.33" r="1.95" style="stroke-width: 0.71; stroke: #D55E00; stroke-opacity: 0.50; fill: #D55E00; fill-opacity: 0.50;"/>
<circle cx="84.22" cy="145.40" r="1.95" style="stroke-width: 0.71; stroke: #D55E00; stroke-opacity: 0.50; fill: #D55E00; fill-opacity: 0.50;"/>
<circle cx="130.07" cy="180.64" r="1.95" style="stroke-width: 0.71; stroke: #D55E00; stroke-opacity: 0.50; fill: #D55E00; fill-opacity: 0.50;"/>
<circle cx="431.68" cy="80.08" r="1.95" style="stroke-width: 0.71; stroke: #D55E00; stroke-opacity: 0.50; fill: #D55E00; fill-opacity: 0.50;"/>
<circle cx="414.19" cy="82.89" r="1.95" style="stroke-width: 0.71; stroke: #D55E00; stroke-opacity: 0.50; fill: #D55E00; fill-opacity: 0.50;"/>
<circle cx="531.97" cy="162.66" r="1.95" style="stroke-width: 0.71; stroke: #D55E00; stroke-opacity: 0.50; fill: #D55E00; fill-opacity: 0.50;"/>
<circle cx="280.48" cy="73.39" r="1.95" style="stroke-width: 0.71; stroke: #D55E00; stroke-opacity: 0.50; fill: #D55E00; fill-opacity: 0.50;"/>
<circle cx="85.37" cy="126.64" r="1.95" style="stroke-width: 0.71; stroke: #D55E00; stroke-opacity: 0.50; fill: #D55E00; fill-opacity: 0.50;"/>
<circle cx="371.21" cy="103.71" r="1.95" style="stroke-width: 0.71; stroke: #D55E00; stroke-opacity: 0.50; fill: #D55E00; fill-opacity: 0.50;"/>
<circle cx="425.84" cy="86.29" r="1.95" style="stroke-width: 0.71; stroke: #D55E00; stroke-opacity: 0.50; fill: #D55E00; fill-opacity: 0.50;"/>
<circle cx="116.58" cy="172.63" r="1.95" style="stroke-width: 0.71; stroke: #D55E00; stroke-opacity: 0.50; fill: #D55E00; fill-opacity: 0.50;"/>
<circle cx="245.70" cy="211.06" r="1.95" style="stroke-width: 0.71; stroke: #D55E00; stroke-opacity: 0.50; fill: #D55E00; fill-opacity: 0.50;"/>
<circle cx="160.31" cy="195.40" r="1.95" style="stroke-width: 0.71; stroke: #D55E00; stroke-opacity: 0.50; fill: #D55E00; fill-opacity: 0.50;"/>
<circle cx="77.20" cy="91.77" r="1.95" style="stroke-width: 0.71; stroke: #D55E00; stroke-opacity: 0.50; fill: #D55E00; fill-opacity: 0.50;"/>
<circle cx="245.36" cy="171.84" r="1.95" style="stroke-width: 0.71; stroke: #D55E00; stroke-opacity: 0.50; fill: #D55E00; fill-opacity: 0.50;"/>
<circle cx="80.67" cy="108.83" r="1.95" style="stroke-width: 0.71; stroke: #D55E00; stroke-opacity: 0.50; fill: #D55E00; fill-opacity: 0.50;"/>
<circle cx="160.76" cy="191.52" r="1.95" style="stroke-width: 0.71; stroke: #D55E00; stroke-opacity: 0.50; fill: #D55E00; fill-opacity: 0.50;"/>
<circle cx="75.54" cy="135.99" r="1.95" style="stroke-width: 0.71; stroke: #D55E00; stroke-opacity: 0.50; fill: #D55E00; fill-opacity: 0.50;"/>
<circle cx="381.89" cy="94.71" r="1.95" style="stroke-width: 0.71; stroke: #D55E00; stroke-opacity: 0.50; fill: #D55E00; fill-opacity: 0.50;"/>
<circle cx="196.52" cy="213.92" r="1.95" style="stroke-width: 0.71; stroke: #D55E00; stroke-opacity: 0.50; fill: #D55E00; fill-opacity: 0.50;"/>
<circle cx="98.48" cy="154.74" r="1.95" style="stroke-width: 0.71; stroke: #D55E00; stroke-opacity: 0.50; fill: #D55E00; fill-opacity: 0.50;"/>
<circle cx="84.14" cy="120.24" r="1.95" style="stroke-width: 0.71; stroke: #D55E00; stroke-opacity: 0.50; fill: #D55E00; fill-opacity: 0.50;"/>
<circle cx="486.47" cy="165.07" r="1.95" style="stroke-width: 0.71; stroke: #D55E00; stroke-opacity: 0.50; fill: #D55E00; fill-opacity: 0.50;"/>
<circle cx="423.68" cy="80.66" r="1.95" style="stroke-width: 0.71; stroke: #D55E00; stroke-opacity: 0.50; fill: #D55E00; fill-opacity: 0.50;"/>
<circle cx="454.71" cy="99.95" r="1.95" style="stroke-width: 0.71; stroke: #D55E00; stroke-opacity: 0.50; fill: #D55E00; fill-opacity: 0.50;"/>
<circle cx="537.08" cy="210.04" r="1.95" style="stroke-width: 0.71; stroke: #D55E00; stroke-opacity: 0.50; fill: #D55E00; fill-opacity: 0.50;"/>
<circle cx="99.91" cy="136.29" r="1.95" style="stroke-width: 0.71; stroke: #D55E00; stroke-opacity: 0.50; fill: #D55E00; fill-opacity: 0.50;"/>
<circle cx="97.64" cy="102.09" r="1.95" style="stroke-width: 0.71; stroke: #D55E00; stroke-opacity: 0.50; fill: #D55E00; fill-opacity: 0.50;"/>
<circle cx="445.86" cy="118.78" r="1.95" style="stroke-width: 0.71; stroke: #D55E00; stroke-opacity: 0.50; fill: #D55E00; fill-opacity: 0.50;"/>
<circle cx="438.77" cy="89.01" r="1.95" style="stroke-width: 0.71; stroke: #D55E00; stroke-opacity: 0.50; fill: #D55E00; fill-opacity: 0.50;"/>
<circle cx="53.05" cy="121.43" r="1.95" style="stroke-width: 0.71; stroke: #D55E00; stroke-opacity: 0.50; fill: #D55E00; fill-opacity: 0.50;"/>
<circle cx="436.03" cy="82.60" r="1.95" style="stroke-width: 0.71; stroke: #D55E00; stroke-opacity: 0.50; fill: #D55E00; fill-opacity: 0.50;"/>
<circle cx="411.31" cy="87.48" r="1.95" style="stroke-width: 0.71; stroke: #D55E00; stroke-opacity: 0.50; fill: #D55E00; fill-opacity: 0.50;"/>
<circle cx="361.92" cy="66.94" r="1.95" style="stroke-width: 0.71; stroke: #D55E00; stroke-opacity: 0.50; fill: #D55E00; fill-opacity: 0.50;"/>
<circle cx="287.66" cy="76.04" r="1.95" style="stroke-width: 0.71; stroke: #D55E00; stroke-opacity: 0.50; fill: #D55E00; fill-opacity: 0.50;"/>
<circle cx="126.30" cy="173.33" r="1.95" style="stroke-width: 0.71; stroke: #D55E00; stroke-opacity: 0.50; fill: #D55E00; fill-opacity: 0.50;"/>
<circle cx="52.45" cy="116.46" r="1.95" style="stroke-width: 0.71; stroke: #D55E00; stroke-opacity: 0.50; fill: #D55E00; fill-opacity: 0.50;"/>
<circle cx="273.50" cy="108.30" r="1.95" style="stroke-width: 0.71; stroke: #D55E00; stroke-opacity: 0.50; fill: #D55E00; fill-opacity: 0.50;"/>
<circle cx="293.33" cy="47.00" r="1.95" style="stroke-width: 0.71; stroke: #D55E00; stroke-opacity: 0.50; fill: #D55E00; fill-opacity: 0.50;"/>
<circle cx="242.22" cy="205.22" r="1.95" style="stroke-width: 0.71; stroke: #D55E00; stroke-opacity: 0.50; fill: #D55E00; fill-opacity: 0.50;"/>
<circle cx="279.58" cy="69.16" r="1.95" style="stroke-width: 0.71; stroke: #D55E00; stroke-opacity: 0.50; fill: #D55E00; fill-opacity: 0.50;"/>
<circle cx="403.29" cy="109.87" r="1.95" style="stroke-width: 0.71; stroke: #D55E00; stroke-opacity: 0.50; fill: #D55E00; fill-opacity: 0.50;"/>
<circle cx="75.88" cy="98.86" r="1.95" style="stroke-width: 0.71; stroke: #D55E00; stroke-opacity: 0.50; fill: #D55E00; fill-opacity: 0.50;"/>
<circle cx="224.90" cy="224.86" r="1.95" style="stroke-width: 0.71; stroke: #D55E00; stroke-opacity: 0.50; fill: #D55E00; fill-opacity: 0.50;"/>
<circle cx="447.84" cy="108.42" r="1.95" style="stroke-width: 0.71; stroke: #D55E00; stroke-opacity: 0.50; fill: #D55E00; fill-opacity: 0.50;"/>
<circle cx="464.21" cy="113.71" r="1.95" style="stroke-width: 0.71; stroke: #D55E00; stroke-opacity: 0.50; fill: #D55E00; fill-opacity: 0.50;"/>
<circle cx="166.67" cy="190.52" r="1.95" style="stroke-width: 0.71; stroke: #D55E00; stroke-opacity: 0.50; fill: #D55E00; fill-opacity: 0.50;"/>
<circle cx="224.50" cy="209.23" r="1.95" style="stroke-width: 0.71; stroke: #D55E00; stroke-opacity: 0.50; fill: #D55E00; fill-opacity: 0.50;"/>
<circle cx="474.75" cy="131.22" r="1.95" style="stroke-width: 0.71; stroke: #D55E00; stroke-opacity: 0.50; fill: #D55E00; fill-opacity: 0.50;"/>
<circle cx="473.20" cy="114.03" r="1.95" style="stroke-width: 0.71; stroke: #D55E00; stroke-opacity: 0.50; fill: #D55E00; fill-opacity: 0.50;"/>
<circle cx="195.60" cy="235.04" r="1.95" style="stroke-width: 0.71; stroke: #D55E00; stroke-opacity: 0.50; fill: #D55E00; fill-opacity: 0.50;"/>
<circle cx="121.53" cy="182.11" r="1.95" style="stroke-width: 0.71; stroke: #D55E00; stroke-opacity: 0.50; fill: #D55E00; fill-opacity: 0.50;"/>
<circle cx="398.67" cy="84.26" r="1.95" style="stroke-width: 0.71; stroke: #D55E00; stroke-opacity: 0.50; fill: #D55E00; fill-opacity: 0.50;"/>
<circle cx="100.01" cy="155.78" r="1.95" style="stroke-width: 0.71; stroke: #D55E00; stroke-opacity: 0.50; fill: #D55E00; fill-opacity: 0.50;"/>
<circle cx="65.14" cy="91.89" r="1.95" style="stroke-width: 0.71; stroke: #D55E00; stroke-opacity: 0.50; fill: #D55E00; fill-opacity: 0.50;"/>
<circle cx="545.67" cy="182.38" r="1.95" style="stroke-width: 0.71; stroke: #D55E00; stroke-opacity: 0.50; fill: #D55E00; fill-opacity: 0.50;"/>
<circle cx="65.71" cy="115.56" r="1.95" style="stroke-width: 0.71; stroke: #D55E00; stroke-opacity: 0.50; fill: #D55E00; fill-opacity: 0.50;"/>
<circle cx="216.74" cy="233.63" r="1.95" style="stroke-width: 0.71; stroke: #D55E00; stroke-opacity: 0.50; fill: #D55E00; fill-opacity: 0.50;"/>
<circle cx="503.70" cy="159.63" r="1.95" style="stroke-width: 0.71; stroke: #D55E00; stroke-opacity: 0.50; fill: #D55E00; fill-opacity: 0.50;"/>
<circle cx="355.50" cy="103.55" r="1.95" style="stroke-width: 0.71; stroke: #D55E00; stroke-opacity: 0.50; fill: #D55E00; fill-opacity: 0.50;"/>
<circle cx="190.82" cy="210.36" r="1.95" style="stroke-width: 0.71; stroke: #D55E00; stroke-opacity: 0.50; fill: #D55E00; fill-opacity: 0.50;"/>
<circle cx="415.49" cy="114.26" r="1.95" style="stroke-width: 0.71; stroke: #D55E00; stroke-opacity: 0.50; fill: #D55E00; fill-opacity: 0.50;"/>
<circle cx="463.39" cy="113.62" r="1.95" style="stroke-width: 0.71; stroke: #D55E00; stroke-opacity: 0.50; fill: #D55E00; fill-opacity: 0.50;"/>
<circle cx="204.74" cy="227.45" r="1.95" style="stroke-width: 0.71; stroke: #D55E00; stroke-opacity: 0.50; fill: #D55E00; fill-opacity: 0.50;"/>
<circle cx="293.46" cy="39.53" r="1.95" style="stroke-width: 0.71; stroke: #D55E00; stroke-opacity: 0.50; fill: #D55E00; fill-opacity: 0.50;"/>
<circle cx="395.38" cy="83.05" r="1.95" style="stroke-width: 0.71; stroke: #D55E00; stroke-opacity: 0.50; fill: #D55E00; fill-opacity: 0.50;"/>
<circle cx="367.55" cy="108.84" r="1.95" style="stroke-width: 0.71; stroke: #D55E00; stroke-opacity: 0.50; fill: #D55E00; fill-opacity: 0.50;"/>
<circle cx="368.78" cy="84.02" r="1.95" style="stroke-width: 0.71; stroke: #D55E00; stroke-opacity: 0.50; fill: #D55E00; fill-opacity: 0.50;"/>
<circle cx="534.94" cy="210.58" r="1.95" style="stroke-width: 0.71; stroke: #D55E00; stroke-opacity: 0.50; fill: #D55E00; fill-opacity: 0.50;"/>
<circle cx="254.73" cy="218.79" r="1.95" style="stroke-width: 0.71; stroke: #D55E00; stroke-opacity: 0.50; fill: #D55E00; fill-opacity: 0.50;"/>
<circle cx="107.78" cy="146.94" r="1.95" style="stroke-width: 0.71; stroke: #D55E00; stroke-opacity: 0.50; fill: #D55E00; fill-opacity: 0.50;"/>
<circle cx="310.11" cy="21.89" r="1.95" style="stroke-width: 0.71; stroke: #D55E00; stroke-opacity: 0.50; fill: #D55E00; fill-opacity: 0.50;"/>
<circle cx="160.36" cy="202.82" r="1.95" style="stroke-width: 0.71; stroke: #D55E00; stroke-opacity: 0.50; fill: #D55E00; fill-opacity: 0.50;"/>
<circle cx="290.40" cy="33.22" r="1.95" style="stroke-width: 0.71; stroke: #D55E00; stroke-opacity: 0.50; fill: #D55E00; fill-opacity: 0.50;"/>
<circle cx="232.58" cy="219.92" r="1.95" style="stroke-width: 0.71; stroke: #D55E00; stroke-opacity: 0.50; fill: #D55E00; fill-opacity: 0.50;"/>
<circle cx="537.68" cy="191.31" r="1.95" style="stroke-width: 0.71; stroke: #D55E00; stroke-opacity: 0.50; fill: #D55E00; fill-opacity: 0.50;"/>
<circle cx="241.59" cy="225.77" r="1.95" style="stroke-width: 0.71; stroke: #D55E00; stroke-opacity: 0.50; fill: #D55E00; fill-opacity: 0.50;"/>
<circle cx="162.43" cy="177.73" r="1.95" style="stroke-width: 0.71; stroke: #D55E00; stroke-opacity: 0.50; fill: #D55E00; fill-opacity: 0.50;"/>
<circle cx="358.51" cy="64.08" r="1.95" style="stroke-width: 0.71; stroke: #D55E00; stroke-opacity: 0.50; fill: #D55E00; fill-opacity: 0.50;"/>
<circle cx="116.30" cy="144.10" r="1.95" style="stroke-width: 0.71; stroke: #D55E00; stroke-opacity: 0.50; fill: #D55E00; fill-opacity: 0.50;"/>
<circle cx="529.78" cy="183.55" r="1.95" style="stroke-width: 0.71; stroke: #D55E00; stroke-opacity: 0.50; fill: #D55E00; fill-opacity: 0.50;"/>
<circle cx="304.66" cy="30.43" r="1.95" style="stroke-width: 0.71; stroke: #D55E00; stroke-opacity: 0.50; fill: #D55E00; fill-opacity: 0.50;"/>
<circle cx="129.50" cy="202.33" r="1.95" style="stroke-width: 0.71; stroke: #D55E00; stroke-opacity: 0.50; fill: #D55E00; fill-opacity: 0.50;"/>
<circle cx="357.82" cy="83.35" r="1.95" style="stroke-width: 0.71; stroke: #D55E00; stroke-opacity: 0.50; fill: #D55E00; fill-opacity: 0.50;"/>
<circle cx="538.97" cy="193.72" r="1.95" style="stroke-width: 0.71; stroke: #D55E00; stroke-opacity: 0.50; fill: #D55E00; fill-opacity: 0.50;"/>
<circle cx="381.14" cy="102.99" r="1.95" style="stroke-width: 0.71; stroke: #D55E00; stroke-opacity: 0.50; fill: #D55E00; fill-opacity: 0.50;"/>
<circle cx="256.81" cy="188.61" r="1.95" style="stroke-width: 0.71; stroke: #D55E00; stroke-opacity: 0.50; fill: #D55E00; fill-opacity: 0.50;"/>
<circle cx="209.26" cy="213.69" r="1.95" style="stroke-width: 0.71; stroke: #D55E00; stroke-opacity: 0.50; fill: #D55E00; fill-opacity: 0.50;"/>
<circle cx="463.99" cy="138.23" r="1.95" style="stroke-width: 0.71; stroke: #D55E00; stroke-opacity: 0.50; fill: #D55E00; fill-opacity: 0.50;"/>
<circle cx="119.92" cy="173.76" r="1.95" style="stroke-width: 0.71; stroke: #D55E00; stroke-opacity: 0.50; fill: #D55E00; fill-opacity: 0.50;"/>
<circle cx="144.31" cy="208.94" r="1.95" style="stroke-width: 0.71; stroke: #D55E00; stroke-opacity: 0.50; fill: #D55E00; fill-opacity: 0.50;"/>
<circle cx="494.58" cy="121.24" r="1.95" style="stroke-width: 0.71; stroke: #D55E00; stroke-opacity: 0.50; fill: #D55E00; fill-opacity: 0.50;"/>
<circle cx="201.68" cy="209.34" r="1.95" style="stroke-width: 0.71; stroke: #D55E00; stroke-opacity: 0.50; fill: #D55E00; fill-opacity: 0.50;"/>
<circle cx="229.14" cy="182.22" r="1.95" style="stroke-width: 0.71; stroke: #D55E00; stroke-opacity: 0.50; fill: #D55E00; fill-opacity: 0.50;"/>
<circle cx="438.45" cy="150.46" r="1.95" style="stroke-width: 0.71; stroke: #D55E00; stroke-opacity: 0.50; fill: #D55E00; fill-opacity: 0.50;"/>
<circle cx="144.59" cy="195.48" r="1.95" style="stroke-width: 0.71; stroke: #D55E00; stroke-opacity: 0.50; fill: #D55E00; fill-opacity: 0.50;"/>
<circle cx="57.20" cy="122.43" r="1.95" style="stroke-width: 0.71; stroke: #D55E00; stroke-opacity: 0.50; fill: #D55E00; fill-opacity: 0.50;"/>
<circle cx="250.69" cy="199.09" r="1.95" style="stroke-width: 0.71; stroke: #D55E00; stroke-opacity: 0.50; fill: #D55E00; fill-opacity: 0.50;"/>
<circle cx="288.79" cy="18.95" r="1.95" style="stroke-width: 0.71; stroke: #D55E00; stroke-opacity: 0.50; fill: #D55E00; fill-opacity: 0.50;"/>
<circle cx="258.27" cy="184.73" r="1.95" style="stroke-width: 0.71; stroke: #D55E00; stroke-opacity: 0.50; fill: #D55E00; fill-opacity: 0.50;"/>
<circle cx="218.94" cy="200.30" r="1.95" style="stroke-width: 0.71; stroke: #D55E00; stroke-opacity: 0.50; fill: #D55E00; fill-opacity: 0.50;"/>
<circle cx="479.52" cy="121.94" r="1.95" style="stroke-width: 0.71; stroke: #D55E00; stroke-opacity: 0.50; fill: #D55E00; fill-opacity: 0.50;"/>
<circle cx="274.82" cy="96.08" r="1.95" style="stroke-width: 0.71; stroke: #D55E00; stroke-opacity: 0.50; fill: #D55E00; fill-opacity: 0.50;"/>
<circle cx="313.96" cy="60.19" r="1.95" style="stroke-width: 0.71; stroke: #D55E00; stroke-opacity: 0.50; fill: #D55E00; fill-opacity: 0.50;"/>
<circle cx="527.97" cy="164.79" r="1.95" style="stroke-width: 0.71; stroke: #D55E00; stroke-opacity: 0.50; fill: #D55E00; fill-opacity: 0.50;"/>
<circle cx="433.80" cy="98.13" r="1.95" style="stroke-width: 0.71; stroke: #D55E00; stroke-opacity: 0.50; fill: #D55E00; fill-opacity: 0.50;"/>
<circle cx="152.30" cy="211.80" r="1.95" style="stroke-width: 0.71; stroke: #D55E00; stroke-opacity: 0.50; fill: #D55E00; fill-opacity: 0.50;"/>
<circle cx="202.01" cy="233.87" r="1.95" style="stroke-width: 0.71; stroke: #D55E00; stroke-opacity: 0.50; fill: #D55E00; fill-opacity: 0.50;"/>
<circle cx="531.70" cy="147.25" r="1.95" style="stroke-width: 0.71; stroke: #D55E00; stroke-opacity: 0.50; fill: #D55E00; fill-opacity: 0.50;"/>
<circle cx="339.41" cy="105.34" r="1.95" style="stroke-width: 0.71; stroke: #D55E00; stroke-opacity: 0.50; fill: #D55E00; fill-opacity: 0.50;"/>
<circle cx="426.95" cy="130.82" r="1.95" style="stroke-width: 0.71; stroke: #D55E00; stroke-opacity: 0.50; fill: #D55E00; fill-opacity: 0.50;"/>
<circle cx="233.82" cy="188.82" r="1.95" style="stroke-width: 0.71; stroke: #D55E00; stroke-opacity: 0.50; fill: #D55E00; fill-opacity: 0.50;"/>
<circle cx="431.11" cy="94.17" r="1.95" style="stroke-width: 0.71; stroke: #D55E00; stroke-opacity: 0.50; fill: #D55E00; fill-opacity: 0.50;"/>
<circle cx="315.91" cy="73.11" r="1.95" style="stroke-width: 0.71; stroke: #D55E00; stroke-opacity: 0.50; fill: #D55E00; fill-opacity: 0.50;"/>
<circle cx="503.17" cy="194.35" r="1.95" style="stroke-width: 0.71; stroke: #D55E00; stroke-opacity: 0.50; fill: #D55E00; fill-opacity: 0.50;"/>
<circle cx="140.56" cy="186.40" r="1.95" style="stroke-width: 0.71; stroke: #D55E00; stroke-opacity: 0.50; fill: #D55E00; fill-opacity: 0.50;"/>
<circle cx="188.79" cy="187.85" r="1.95" style="stroke-width: 0.71; stroke: #D55E00; stroke-opacity: 0.50; fill: #D55E00; fill-opacity: 0.50;"/>
<circle cx="95.61" cy="132.24" r="1.95" style="stroke-width: 0.71; stroke: #D55E00; stroke-opacity: 0.50; fill: #D55E00; fill-opacity: 0.50;"/>
<circle cx="153.10" cy="202.12" r="1.95" style="stroke-width: 0.71; stroke: #D55E00; stroke-opacity: 0.50; fill: #D55E00; fill-opacity: 0.50;"/>
<circle cx="534.57" cy="201.67" r="1.95" style="stroke-width: 0.71; stroke: #D55E00; stroke-opacity: 0.50; fill: #D55E00; fill-opacity: 0.50;"/>
<circle cx="195.80" cy="204.15" r="1.95" style="stroke-width: 0.71; stroke: #D55E00; stroke-opacity: 0.50; fill: #D55E00; fill-opacity: 0.50;"/>
<circle cx="409.61" cy="88.73" r="1.95" style="stroke-width: 0.71; stroke: #D55E00; stroke-opacity: 0.50; fill: #D55E00; fill-opacity: 0.50;"/>
<circle cx="439.32" cy="93.20" r="1.95" style="stroke-width: 0.71; stroke: #D55E00; stroke-opacity: 0.50; fill: #D55E00; fill-opacity: 0.50;"/>
<circle cx="100.82" cy="155.67" r="1.95" style="stroke-width: 0.71; stroke: #D55E00; stroke-opacity: 0.50; fill: #D55E00; fill-opacity: 0.50;"/>
<circle cx="167.58" cy="185.36" r="1.95" style="stroke-width: 0.71; stroke: #D55E00; stroke-opacity: 0.50; fill: #D55E00; fill-opacity: 0.50;"/>
<circle cx="182.98" cy="221.88" r="1.95" style="stroke-width: 0.71; stroke: #D55E00; stroke-opacity: 0.50; fill: #D55E00; fill-opacity: 0.50;"/>
<circle cx="98.65" cy="152.43" r="1.95" style="stroke-width: 0.71; stroke: #D55E00; stroke-opacity: 0.50; fill: #D55E00; fill-opacity: 0.50;"/>
<circle cx="107.03" cy="141.30" r="1.95" style="stroke-width: 0.71; stroke: #D55E00; stroke-opacity: 0.50; fill: #D55E00; fill-opacity: 0.50;"/>
<circle cx="541.60" cy="174.06" r="1.95" style="stroke-width: 0.71; stroke: #D55E00; stroke-opacity: 0.50; fill: #D55E00; fill-opacity: 0.50;"/>
<circle cx="539.02" cy="224.66" r="1.95" style="stroke-width: 0.71; stroke: #D55E00; stroke-opacity: 0.50; fill: #D55E00; fill-opacity: 0.50;"/>
<circle cx="116.57" cy="161.64" r="1.95" style="stroke-width: 0.71; stroke: #D55E00; stroke-opacity: 0.50; fill: #D55E00; fill-opacity: 0.50;"/>
<circle cx="498.84" cy="144.61" r="1.95" style="stroke-width: 0.71; stroke: #D55E00; stroke-opacity: 0.50; fill: #D55E00; fill-opacity: 0.50;"/>
<circle cx="335.13" cy="114.41" r="1.95" style="stroke-width: 0.71; stroke: #D55E00; stroke-opacity: 0.50; fill: #D55E00; fill-opacity: 0.50;"/>
<circle cx="245.14" cy="177.88" r="1.95" style="stroke-width: 0.71; stroke: #D55E00; stroke-opacity: 0.50; fill: #D55E00; fill-opacity: 0.50;"/>
<circle cx="272.18" cy="125.05" r="1.95" style="stroke-width: 0.71; stroke: #D55E00; stroke-opacity: 0.50; fill: #D55E00; fill-opacity: 0.50;"/>
<circle cx="399.92" cy="71.83" r="1.95" style="stroke-width: 0.71; stroke: #D55E00; stroke-opacity: 0.50; fill: #D55E00; fill-opacity: 0.50;"/>
<circle cx="89.41" cy="128.11" r="1.95" style="stroke-width: 0.71; stroke: #D55E00; stroke-opacity: 0.50; fill: #D55E00; fill-opacity: 0.50;"/>
<circle cx="217.20" cy="192.78" r="1.95" style="stroke-width: 0.71; stroke: #D55E00; stroke-opacity: 0.50; fill: #D55E00; fill-opacity: 0.50;"/>
<circle cx="387.12" cy="88.15" r="1.95" style="stroke-width: 0.71; stroke: #D55E00; stroke-opacity: 0.50; fill: #D55E00; fill-opacity: 0.50;"/>
<circle cx="206.08" cy="193.30" r="1.95" style="stroke-width: 0.71; stroke: #D55E00; stroke-opacity: 0.50; fill: #D55E00; fill-opacity: 0.50;"/>
<circle cx="462.15" cy="96.80" r="1.95" style="stroke-width: 0.71; stroke: #D55E00; stroke-opacity: 0.50; fill: #D55E00; fill-opacity: 0.50;"/>
<circle cx="155.43" cy="159.62" r="1.95" style="stroke-width: 0.71; stroke: #D55E00; stroke-opacity: 0.50; fill: #D55E00; fill-opacity: 0.50;"/>
<circle cx="296.14" cy="31.88" r="1.95" style="stroke-width: 0.71; stroke: #D55E00; stroke-opacity: 0.50; fill: #D55E00; fill-opacity: 0.50;"/>
<circle cx="185.72" cy="247.88" r="1.95" style="stroke-width: 0.71; stroke: #D55E00; stroke-opacity: 0.50; fill: #D55E00; fill-opacity: 0.50;"/>
<circle cx="143.91" cy="186.31" r="1.95" style="stroke-width: 0.71; stroke: #D55E00; stroke-opacity: 0.50; fill: #D55E00; fill-opacity: 0.50;"/>
<circle cx="521.39" cy="172.46" r="1.95" style="stroke-width: 0.71; stroke: #D55E00; stroke-opacity: 0.50; fill: #D55E00; fill-opacity: 0.50;"/>
<circle cx="208.45" cy="211.23" r="1.95" style="stroke-width: 0.71; stroke: #D55E00; stroke-opacity: 0.50; fill: #D55E00; fill-opacity: 0.50;"/>
<circle cx="286.44" cy="43.68" r="1.95" style="stroke-width: 0.71; stroke: #D55E00; stroke-opacity: 0.50; fill: #D55E00; fill-opacity: 0.50;"/>
<circle cx="62.29" cy="96.08" r="1.95" style="stroke-width: 0.71; stroke: #D55E00; stroke-opacity: 0.50; fill: #D55E00; fill-opacity: 0.50;"/>
<circle cx="320.78" cy="69.68" r="1.95" style="stroke-width: 0.71; stroke: #D55E00; stroke-opacity: 0.50; fill: #D55E00; fill-opacity: 0.50;"/>
<circle cx="368.94" cy="99.66" r="1.95" style="stroke-width: 0.71; stroke: #D55E00; stroke-opacity: 0.50; fill: #D55E00; fill-opacity: 0.50;"/>
<circle cx="345.06" cy="89.75" r="1.95" style="stroke-width: 0.71; stroke: #D55E00; stroke-opacity: 0.50; fill: #D55E00; fill-opacity: 0.50;"/>
<circle cx="208.56" cy="218.27" r="1.95" style="stroke-width: 0.71; stroke: #D55E00; stroke-opacity: 0.50; fill: #D55E00; fill-opacity: 0.50;"/>
<circle cx="491.78" cy="147.10" r="1.95" style="stroke-width: 0.71; stroke: #D55E00; stroke-opacity: 0.50; fill: #D55E00; fill-opacity: 0.50;"/>
<circle cx="359.99" cy="132.08" r="1.95" style="stroke-width: 0.71; stroke: #D55E00; stroke-opacity: 0.50; fill: #D55E00; fill-opacity: 0.50;"/>
<circle cx="199.09" cy="229.13" r="1.95" style="stroke-width: 0.71; stroke: #D55E00; stroke-opacity: 0.50; fill: #D55E00; fill-opacity: 0.50;"/>
<circle cx="241.53" cy="214.86" r="1.95" style="stroke-width: 0.71; stroke: #D55E00; stroke-opacity: 0.50; fill: #D55E00; fill-opacity: 0.50;"/>
<circle cx="128.21" cy="189.36" r="1.95" style="stroke-width: 0.71; stroke: #D55E00; stroke-opacity: 0.50; fill: #D55E00; fill-opacity: 0.50;"/>
<circle cx="477.57" cy="147.65" r="1.95" style="stroke-width: 0.71; stroke: #D55E00; stroke-opacity: 0.50; fill: #D55E00; fill-opacity: 0.50;"/>
<circle cx="522.63" cy="170.35" r="1.95" style="stroke-width: 0.71; stroke: #D55E00; stroke-opacity: 0.50; fill: #D55E00; fill-opacity: 0.50;"/>
<circle cx="328.83" cy="60.60" r="1.95" style="stroke-width: 0.71; stroke: #D55E00; stroke-opacity: 0.50; fill: #D55E00; fill-opacity: 0.50;"/>
<circle cx="212.34" cy="220.77" r="1.95" style="stroke-width: 0.71; stroke: #D55E00; stroke-opacity: 0.50; fill: #D55E00; fill-opacity: 0.50;"/>
<circle cx="544.28" cy="211.36" r="1.95" style="stroke-width: 0.71; stroke: #D55E00; stroke-opacity: 0.50; fill: #D55E00; fill-opacity: 0.50;"/>
<circle cx="165.21" cy="218.92" r="1.95" style="stroke-width: 0.71; stroke: #D55E00; stroke-opacity: 0.50; fill: #D55E00; fill-opacity: 0.50;"/>
<circle cx="353.23" cy="105.53" r="1.95" style="stroke-width: 0.71; stroke: #D55E00; stroke-opacity: 0.50; fill: #D55E00; fill-opacity: 0.50;"/>
<circle cx="102.19" cy="154.18" r="1.95" style="stroke-width: 0.71; stroke: #D55E00; stroke-opacity: 0.50; fill: #D55E00; fill-opacity: 0.50;"/>
<circle cx="290.71" cy="32.81" r="1.95" style="stroke-width: 0.71; stroke: #D55E00; stroke-opacity: 0.50; fill: #D55E00; fill-opacity: 0.50;"/>
<circle cx="97.84" cy="151.49" r="1.95" style="stroke-width: 0.71; stroke: #D55E00; stroke-opacity: 0.50; fill: #D55E00; fill-opacity: 0.50;"/>
<circle cx="128.56" cy="211.56" r="1.95" style="stroke-width: 0.71; stroke: #D55E00; stroke-opacity: 0.50; fill: #D55E00; fill-opacity: 0.50;"/>
<circle cx="189.18" cy="209.93" r="1.95" style="stroke-width: 0.71; stroke: #D55E00; stroke-opacity: 0.50; fill: #D55E00; fill-opacity: 0.50;"/>
<circle cx="338.90" cy="71.50" r="1.95" style="stroke-width: 0.71; stroke: #D55E00; stroke-opacity: 0.50; fill: #D55E00; fill-opacity: 0.50;"/>
<circle cx="412.46" cy="70.94" r="1.95" style="stroke-width: 0.71; stroke: #D55E00; stroke-opacity: 0.50; fill: #D55E00; fill-opacity: 0.50;"/>
<circle cx="130.72" cy="190.37" r="1.95" style="stroke-width: 0.71; stroke: #D55E00; stroke-opacity: 0.50; fill: #D55E00; fill-opacity: 0.50;"/>
<circle cx="479.52" cy="164.75" r="1.95" style="stroke-width: 0.71; stroke: #D55E00; stroke-opacity: 0.50; fill: #D55E00; fill-opacity: 0.50;"/>
<circle cx="400.95" cy="46.20" r="1.95" style="stroke-width: 0.71; stroke: #D55E00; stroke-opacity: 0.50; fill: #D55E00; fill-opacity: 0.50;"/>
<circle cx="426.74" cy="100.44" r="1.95" style="stroke-width: 0.71; stroke: #D55E00; stroke-opacity: 0.50; fill: #D55E00; fill-opacity: 0.50;"/>
<circle cx="121.55" cy="169.89" r="1.95" style="stroke-width: 0.71; stroke: #D55E00; stroke-opacity: 0.50; fill: #D55E00; fill-opacity: 0.50;"/>
<circle cx="226.53" cy="195.34" r="1.95" style="stroke-width: 0.71; stroke: #D55E00; stroke-opacity: 0.50; fill: #D55E00; fill-opacity: 0.50;"/>
<circle cx="383.41" cy="119.70" r="1.95" style="stroke-width: 0.71; stroke: #D55E00; stroke-opacity: 0.50; fill: #D55E00; fill-opacity: 0.50;"/>
<circle cx="309.02" cy="48.12" r="1.95" style="stroke-width: 0.71; stroke: #D55E00; stroke-opacity: 0.50; fill: #D55E00; fill-opacity: 0.50;"/>
<circle cx="222.42" cy="232.27" r="1.95" style="stroke-width: 0.71; stroke: #D55E00; stroke-opacity: 0.50; fill: #D55E00; fill-opacity: 0.50;"/>
<circle cx="168.05" cy="214.06" r="1.95" style="stroke-width: 0.71; stroke: #D55E00; stroke-opacity: 0.50; fill: #D55E00; fill-opacity: 0.50;"/>
<circle cx="77.32" cy="124.54" r="1.95" style="stroke-width: 0.71; stroke: #D55E00; stroke-opacity: 0.50; fill: #D55E00; fill-opacity: 0.50;"/>
<circle cx="166.10" cy="225.14" r="1.95" style="stroke-width: 0.71; stroke: #D55E00; stroke-opacity: 0.50; fill: #D55E00; fill-opacity: 0.50;"/>
<circle cx="491.27" cy="137.69" r="1.95" style="stroke-width: 0.71; stroke: #D55E00; stroke-opacity: 0.50; fill: #D55E00; fill-opacity: 0.50;"/>
<circle cx="452.33" cy="108.38" r="1.95" style="stroke-width: 0.71; stroke: #D55E00; stroke-opacity: 0.50; fill: #D55E00; fill-opacity: 0.50;"/>
<circle cx="420.33" cy="110.97" r="1.95" style="stroke-width: 0.71; stroke: #D55E00; stroke-opacity: 0.50; fill: #D55E00; fill-opacity: 0.50;"/>
<circle cx="125.44" cy="167.60" r="1.95" style="stroke-width: 0.71; stroke: #D55E00; stroke-opacity: 0.50; fill: #D55E00; fill-opacity: 0.50;"/>
<circle cx="110.43" cy="144.40" r="1.95" style="stroke-width: 0.71; stroke: #D55E00; stroke-opacity: 0.50; fill: #D55E00; fill-opacity: 0.50;"/>
<circle cx="533.39" cy="166.89" r="1.95" style="stroke-width: 0.71; stroke: #D55E00; stroke-opacity: 0.50; fill: #D55E00; fill-opacity: 0.50;"/>
<circle cx="265.38" cy="140.49" r="1.95" style="stroke-width: 0.71; stroke: #D55E00; stroke-opacity: 0.50; fill: #D55E00; fill-opacity: 0.50;"/>
<circle cx="279.26" cy="82.50" r="1.95" style="stroke-width: 0.71; stroke: #D55E00; stroke-opacity: 0.50; fill: #D55E00; fill-opacity: 0.50;"/>
<circle cx="130.61" cy="177.72" r="1.95" style="stroke-width: 0.71; stroke: #D55E00; stroke-opacity: 0.50; fill: #D55E00; fill-opacity: 0.50;"/>
<circle cx="339.43" cy="67.44" r="1.95" style="stroke-width: 0.71; stroke: #D55E00; stroke-opacity: 0.50; fill: #D55E00; fill-opacity: 0.50;"/>
<circle cx="183.10" cy="186.93" r="1.95" style="stroke-width: 0.71; stroke: #D55E00; stroke-opacity: 0.50; fill: #D55E00; fill-opacity: 0.50;"/>
<circle cx="162.86" cy="184.16" r="1.95" style="stroke-width: 0.71; stroke: #D55E00; stroke-opacity: 0.50; fill: #D55E00; fill-opacity: 0.50;"/>
<circle cx="392.31" cy="95.06" r="1.95" style="stroke-width: 0.71; stroke: #D55E00; stroke-opacity: 0.50; fill: #D55E00; fill-opacity: 0.50;"/>
<circle cx="189.11" cy="201.61" r="1.95" style="stroke-width: 0.71; stroke: #D55E00; stroke-opacity: 0.50; fill: #D55E00; fill-opacity: 0.50;"/>
<circle cx="451.62" cy="105.80" r="1.95" style="stroke-width: 0.71; stroke: #D55E00; stroke-opacity: 0.50; fill: #D55E00; fill-opacity: 0.50;"/>
<circle cx="95.09" cy="161.75" r="1.95" style="stroke-width: 0.71; stroke: #D55E00; stroke-opacity: 0.50; fill: #D55E00; fill-opacity: 0.50;"/>
<circle cx="457.40" cy="148.46" r="1.95" style="stroke-width: 0.71; stroke: #D55E00; stroke-opacity: 0.50; fill: #D55E00; fill-opacity: 0.50;"/>
<circle cx="261.05" cy="139.75" r="1.95" style="stroke-width: 0.71; stroke: #D55E00; stroke-opacity: 0.50; fill: #D55E00; fill-opacity: 0.50;"/>
<circle cx="424.49" cy="123.86" r="1.95" style="stroke-width: 0.71; stroke: #D55E00; stroke-opacity: 0.50; fill: #D55E00; fill-opacity: 0.50;"/>
<circle cx="377.97" cy="91.90" r="1.95" style="stroke-width: 0.71; stroke: #D55E00; stroke-opacity: 0.50; fill: #D55E00; fill-opacity: 0.50;"/>
<circle cx="269.56" cy="116.38" r="1.95" style="stroke-width: 0.71; stroke: #D55E00; stroke-opacity: 0.50; fill: #D55E00; fill-opacity: 0.50;"/>
<circle cx="360.43" cy="86.80" r="1.95" style="stroke-width: 0.71; stroke: #D55E00; stroke-opacity: 0.50; fill: #D55E00; fill-opacity: 0.50;"/>
<circle cx="48.59" cy="101.13" r="1.95" style="stroke-width: 0.71; stroke: #D55E00; stroke-opacity: 0.50; fill: #D55E00; fill-opacity: 0.50;"/>
<circle cx="156.46" cy="208.53" r="1.95" style="stroke-width: 0.71; stroke: #D55E00; stroke-opacity: 0.50; fill: #D55E00; fill-opacity: 0.50;"/>
<circle cx="399.11" cy="72.37" r="1.95" style="stroke-width: 0.71; stroke: #D55E00; stroke-opacity: 0.50; fill: #D55E00; fill-opacity: 0.50;"/>
<circle cx="155.43" cy="163.69" r="1.95" style="stroke-width: 0.71; stroke: #D55E00; stroke-opacity: 0.50; fill: #D55E00; fill-opacity: 0.50;"/>
<circle cx="453.38" cy="98.61" r="1.95" style="stroke-width: 0.71; stroke: #D55E00; stroke-opacity: 0.50; fill: #D55E00; fill-opacity: 0.50;"/>
<circle cx="201.50" cy="243.82" r="1.95" style="stroke-width: 0.71; stroke: #D55E00; stroke-opacity: 0.50; fill: #D55E00; fill-opacity: 0.50;"/>
<circle cx="390.58" cy="64.97" r="1.95" style="stroke-width: 0.71; stroke: #D55E00; stroke-opacity: 0.50; fill: #D55E00; fill-opacity: 0.50;"/>
<circle cx="512.47" cy="169.24" r="1.95" style="stroke-width: 0.71; stroke: #D55E00; stroke-opacity: 0.50; fill: #D55E00; fill-opacity: 0.50;"/>
<circle cx="105.97" cy="144.14" r="1.95" style="stroke-width: 0.71; stroke: #D55E00; stroke-opacity: 0.50; fill: #D55E00; fill-opacity: 0.50;"/>
<circle cx="111.91" cy="148.06" r="1.95" style="stroke-width: 0.71; stroke: #D55E00; stroke-opacity: 0.50; fill: #D55E00; fill-opacity: 0.50;"/>
<circle cx="385.85" cy="92.20" r="1.95" style="stroke-width: 0.71; stroke: #D55E00; stroke-opacity: 0.50; fill: #D55E00; fill-opacity: 0.50;"/>
<circle cx="261.81" cy="150.18" r="1.95" style="stroke-width: 0.71; stroke: #D55E00; stroke-opacity: 0.50; fill: #D55E00; fill-opacity: 0.50;"/>
<circle cx="463.56" cy="104.46" r="1.95" style="stroke-width: 0.71; stroke: #D55E00; stroke-opacity: 0.50; fill: #D55E00; fill-opacity: 0.50;"/>
<circle cx="531.75" cy="171.88" r="1.95" style="stroke-width: 0.71; stroke: #D55E00; stroke-opacity: 0.50; fill: #D55E00; fill-opacity: 0.50;"/>
<circle cx="83.44" cy="114.48" r="1.95" style="stroke-width: 0.71; stroke: #D55E00; stroke-opacity: 0.50; fill: #D55E00; fill-opacity: 0.50;"/>
<circle cx="277.15" cy="46.92" r="1.95" style="stroke-width: 0.71; stroke: #D55E00; stroke-opacity: 0.50; fill: #D55E00; fill-opacity: 0.50;"/>
<circle cx="397.47" cy="78.04" r="1.95" style="stroke-width: 0.71; stroke: #D55E00; stroke-opacity: 0.50; fill: #D55E00; fill-opacity: 0.50;"/>
<circle cx="91.62" cy="136.12" r="1.95" style="stroke-width: 0.71; stroke: #D55E00; stroke-opacity: 0.50; fill: #D55E00; fill-opacity: 0.50;"/>
<circle cx="542.45" cy="231.87" r="1.95" style="stroke-width: 0.71; stroke: #D55E00; stroke-opacity: 0.50; fill: #D55E00; fill-opacity: 0.50;"/>
<circle cx="174.30" cy="156.16" r="1.95" style="stroke-width: 0.71; stroke: #D55E00; stroke-opacity: 0.50; fill: #D55E00; fill-opacity: 0.50;"/>
<circle cx="73.01" cy="131.55" r="1.95" style="stroke-width: 0.71; stroke: #D55E00; stroke-opacity: 0.50; fill: #D55E00; fill-opacity: 0.50;"/>
<circle cx="389.88" cy="47.58" r="1.95" style="stroke-width: 0.71; stroke: #D55E00; stroke-opacity: 0.50; fill: #D55E00; fill-opacity: 0.50;"/>
<circle cx="439.94" cy="98.16" r="1.95" style="stroke-width: 0.71; stroke: #D55E00; stroke-opacity: 0.50; fill: #D55E00; fill-opacity: 0.50;"/>
</g>
<g clip-path="url(#cpMC4wMHw1NzYuMDB8MC4wMHwyODguMDA=)">
<text x="18.81" y="212.55" text-anchor="end" style="font-size: 9.60px;fill: #4D4D4D; font-family: &quot;Arial&quot;;" textLength="8.53px" lengthAdjust="spacingAndGlyphs">-1</text>
<text x="18.81" y="152.93" text-anchor="end" style="font-size: 9.60px;fill: #4D4D4D; font-family: &quot;Arial&quot;;" textLength="5.34px" lengthAdjust="spacingAndGlyphs">0</text>
<text x="18.81" y="93.32" text-anchor="end" style="font-size: 9.60px;fill: #4D4D4D; font-family: &quot;Arial&quot;;" textLength="5.34px" lengthAdjust="spacingAndGlyphs">1</text>
<text x="18.81" y="33.71" text-anchor="end" style="font-size: 9.60px;fill: #4D4D4D; font-family: &quot;Arial&quot;;" textLength="5.34px" lengthAdjust="spacingAndGlyphs">2</text>
<polyline points="21.00,209.11 23.74,209.11 " style="stroke-width: 1.07; stroke: #4D4D4D; stroke-linecap: butt;"/>
<polyline points="21.00,149.49 23.74,149.49 " style="stroke-width: 1.07; stroke: #4D4D4D; stroke-linecap: butt;"/>
<polyline points="21.00,89.88 23.74,89.88 " style="stroke-width: 1.07; stroke: #4D4D4D; stroke-linecap: butt;"/>
<polyline points="21.00,30.26 23.74,30.26 " style="stroke-width: 1.07; stroke: #4D4D4D; stroke-linecap: butt;"/>
<polyline points="48.36,262.16 48.36,259.42 " style="stroke-width: 1.07; stroke: #4D4D4D; stroke-linecap: butt;"/>
<polyline points="172.76,262.16 172.76,259.42 " style="stroke-width: 1.07; stroke: #4D4D4D; stroke-linecap: butt;"/>
<polyline points="297.16,262.16 297.16,259.42 " style="stroke-width: 1.07; stroke: #4D4D4D; stroke-linecap: butt;"/>
<polyline points="421.56,262.16 421.56,259.42 " style="stroke-width: 1.07; stroke: #4D4D4D; stroke-linecap: butt;"/>
<polyline points="545.96,262.16 545.96,259.42 " style="stroke-width: 1.07; stroke: #4D4D4D; stroke-linecap: butt;"/>
<text x="48.36" y="271.24" text-anchor="middle" style="font-size: 9.60px;fill: #4D4D4D; font-family: &quot;Arial&quot;;" textLength="18.67px" lengthAdjust="spacingAndGlyphs">0.00</text>
<text x="172.76" y="271.24" text-anchor="middle" style="font-size: 9.60px;fill: #4D4D4D; font-family: &quot;Arial&quot;;" textLength="18.67px" lengthAdjust="spacingAndGlyphs">0.25</text>
<text x="297.16" y="271.24" text-anchor="middle" style="font-size: 9.60px;fill: #4D4D4D; font-family: &quot;Arial&quot;;" textLength="18.67px" lengthAdjust="spacingAndGlyphs">0.50</text>
<text x="421.56" y="271.24" text-anchor="middle" style="font-size: 9.60px;fill: #4D4D4D; font-family: &quot;Arial&quot;;" textLength="18.67px" lengthAdjust="spacingAndGlyphs">0.75</text>
<text x="545.96" y="271.24" text-anchor="middle" style="font-size: 9.60px;fill: #4D4D4D; font-family: &quot;Arial&quot;;" textLength="18.67px" lengthAdjust="spacingAndGlyphs">1.00</text>
<text x="23.74" y="281.42" style="font-size: 9.60px;fill: #4D4D4D; font-family: &quot;Arial&quot;;" textLength="4.80px" lengthAdjust="spacingAndGlyphs">x</text>
<text x="5.48" y="12.36" style="font-size: 9.60px;fill: #4D4D4D; font-family: &quot;Arial&quot;;" textLength="4.80px" lengthAdjust="spacingAndGlyphs">y</text>
</g>
<script xmlns="" public-path="moz-extension://24b4eded-41ea-4fda-afc4-f847d4f2f072/"/></svg>